100.42.48.0/24
100.42.49.0/24
100.42.50.0/24
100.42.51.0/24
100.42.52.0/24
100.42.53.0/24
100.42.54.0/24
100.42.55.0/24
100.42.58.0/24
100.42.59.0/24
100.42.60.0/24
100.42.61.0/24
100.42.62.0/24
100.42.63.0/24
103.109.100.0/22
103.109.102.0/24
103.112.2.0/24
103.113.40.0/22
103.120.204.0/24
103.122.126.0/24
103.125.147.0/24
103.129.147.0/24
103.134.136.0/22
103.134.137.0/24
103.134.138.0/24
103.134.139.0/24
103.136.224.0/24
103.136.225.0/24
103.139.49.0/24
103.139.50.0/24
103.139.51.0/24
103.149.192.0/23
103.161.243.0/24
103.198.4.0/22
103.2.140.0/22
103.209.56.0/24
103.21.208.0/22
103.211.252.0/23
103.211.253.0/24
103.214.71.0/24
103.230.140.0/24
103.235.4.0/24
103.238.128.0/24
103.253.144.0/22
103.28.88.0/23
103.29.68.0/22
103.3.60.0/22
103.43.72.0/22
103.49.40.0/24
103.49.42.0/24
103.5.12.0/22
103.57.4.0/22
103.58.176.0/22
103.60.64.0/22
103.68.202.0/24
103.68.203.0/24
103.69.212.0/24
103.69.213.0/24
103.69.214.0/24
103.69.215.0/24
103.74.76.0/22
103.79.76.0/22
103.81.176.0/22
103.82.155.0/24
104.129.0.0/18
104.129.12.0/24
104.129.16.0/24
104.129.18.0/23
104.129.24.0/23
104.129.26.0/23
104.129.28.0/22
104.129.32.0/23
104.129.34.0/23
104.129.36.0/22
104.129.40.0/21
104.129.42.0/23
104.129.48.0/21
104.129.5.0/24
104.129.56.0/23
104.129.6.0/23
104.129.60.0/22
104.129.8.0/24
104.131.0.0/18
104.131.128.0/20
104.131.144.0/20
104.131.160.0/20
104.131.176.0/20
104.131.192.0/19
104.131.224.0/19
104.131.64.0/18
104.152.64.0/24
104.152.65.0/24
104.152.66.0/24
104.152.67.0/24
104.152.68.0/24
104.152.69.0/24
104.152.70.0/24
104.152.71.0/24
104.156.224.0/22
104.156.228.0/22
104.156.232.0/23
104.156.234.0/23
104.156.236.0/23
104.156.238.0/23
104.156.240.0/21
104.156.248.0/22
104.156.252.0/23
104.156.254.0/23
104.171.0.0/24
104.171.1.0/24
104.171.10.0/24
104.171.11.0/24
104.171.15.0/24
104.171.2.0/24
104.171.3.0/24
104.171.4.0/24
104.171.5.0/24
104.171.6.0/24
104.171.7.0/24
104.171.8.0/24
104.192.28.0/22
104.192.4.0/22
104.194.214.0/23
104.200.16.0/21
104.200.160.0/24
104.200.161.0/24
104.200.162.0/24
104.200.163.0/24
104.200.164.0/24
104.200.165.0/24
104.200.166.0/24
104.200.167.0/24
104.200.168.0/22
104.200.172.0/23
104.200.174.0/23
104.200.24.0/22
104.200.25.0/24
104.200.26.0/24
104.200.27.0/24
104.200.28.0/22
104.200.67.0/24
104.200.72.0/23
104.207.128.0/23
104.207.130.0/23
104.207.132.0/22
104.207.136.0/21
104.207.144.0/22
104.207.148.0/22
104.207.152.0/22
104.207.156.0/22
104.219.40.0/22
104.223.0.0/17
104.223.1.0/24
104.223.10.0/24
104.223.106.0/23
104.223.11.0/24
104.223.112.0/20
104.223.118.0/23
104.223.30.0/24
104.223.68.0/24
104.223.76.0/23
104.223.80.0/21
104.223.84.0/24
104.223.86.0/23
104.223.88.0/21
104.223.90.0/23
104.223.93.0/24
104.223.96.0/20
104.223.99.0/24
104.236.0.0/18
104.236.128.0/18
104.236.192.0/18
104.236.64.0/18
104.237.11.0/24
104.237.128.0/21
104.237.136.0/21
104.237.144.0/21
104.237.152.0/21
104.237.153.0/24
104.237.154.0/24
104.237.155.0/24
104.237.156.0/24
104.237.157.0/24
104.237.158.0/24
104.237.159.0/24
104.237.8.0/24
104.238.128.0/21
104.238.136.0/23
104.238.138.0/23
104.238.140.0/22
104.238.144.0/22
104.238.148.0/22
104.238.152.0/22
104.238.156.0/23
104.238.158.0/23
104.238.160.0/23
104.238.162.0/23
104.238.164.0/23
104.238.166.0/23
104.238.168.0/21
104.238.176.0/23
104.238.178.0/23
104.238.180.0/22
104.238.184.0/22
104.238.188.0/22
104.238.34.0/23
104.238.46.0/23
104.238.56.0/23
104.238.60.0/23
104.245.208.0/21
104.245.215.0/24
104.245.240.0/21
104.247.160.0/19
104.248.0.0/20
104.248.100.0/22
104.248.104.0/22
104.248.108.0/22
104.248.112.0/20
104.248.128.0/20
104.248.144.0/20
104.248.16.0/20
104.248.160.0/20
104.248.176.0/20
104.248.192.0/20
104.248.208.0/20
104.248.224.0/20
104.248.240.0/20
104.248.32.0/20
104.248.48.0/20
104.248.64.0/20
104.248.80.0/20
104.248.96.0/22
104.250.120.0/24
104.250.122.0/23
104.250.97.0/24
104.254.244.0/22
104.254.61.0/24
104.255.225.0/24
107.150.0.0/19
107.150.11.0/24
107.150.144.0/21
107.150.149.0/24
107.150.16.0/22
107.150.17.0/24
107.150.18.0/23
107.150.22.0/23
107.150.24.0/24
107.150.26.0/23
107.150.28.0/23
107.150.30.0/23
107.150.4.0/22
107.150.8.0/21
107.161.80.0/20
107.161.84.0/22
107.161.86.0/23
107.161.88.0/23
107.161.91.0/24
107.167.32.0/20
107.167.48.0/21
107.167.56.0/21
107.170.0.0/17
107.170.128.0/19
107.170.160.0/19
107.170.192.0/18
107.181.140.0/24
107.189.64.0/18
107.191.180.0/22
107.191.184.0/21
107.191.32.0/21
107.191.40.0/22
107.191.44.0/23
107.191.46.0/23
107.191.48.0/22
107.191.52.0/23
107.191.54.0/23
107.191.56.0/23
107.191.58.0/23
107.191.60.0/23
107.191.62.0/23
108.160.128.0/20
108.165.245.0/24
108.165.247.0/24
108.167.128.0/22
108.167.132.0/22
108.167.136.0/22
108.167.140.0/22
108.167.144.0/20
108.167.160.0/23
108.167.163.0/24
108.167.164.0/22
108.167.168.0/22
108.167.172.0/22
108.167.176.0/22
108.167.180.0/22
108.167.184.0/22
108.167.188.0/22
108.175.0.0/20
108.175.144.0/24
108.175.145.0/24
108.175.146.0/24
108.175.148.0/24
108.175.149.0/24
108.175.151.0/24
108.175.153.0/24
108.175.154.0/24
108.175.155.0/24
108.175.156.0/24
108.175.158.0/24
108.175.159.0/24
108.179.192.0/22
108.179.196.0/22
108.179.200.0/22
108.179.204.0/22
108.179.208.0/20
108.179.224.0/22
108.179.228.0/22
108.179.232.0/22
108.179.236.0/22
108.179.240.0/21
108.179.248.0/22
108.179.252.0/22
108.61.0.0/18
108.61.100.0/23
108.61.103.0/24
108.61.104.0/24
108.61.105.0/24
108.61.106.0/24
108.61.107.0/24
108.61.108.0/22
108.61.109.0/24
108.61.112.0/23
108.61.114.0/24
108.61.115.0/24
108.61.116.0/24
108.61.117.0/24
108.61.118.0/24
108.61.119.0/24
108.61.120.0/24
108.61.121.0/24
108.61.122.0/23
108.61.124.0/24
108.61.125.0/24
108.61.126.0/23
108.61.128.0/19
108.61.160.0/22
108.61.164.0/22
108.61.168.0/23
108.61.170.0/23
108.61.172.0/22
108.61.176.0/23
109.228.0.0/18
109.230.195.0/24
109.230.198.0/24
109.230.213.0/24
109.230.224.0/24
109.230.225.0/24
109.230.226.0/24
109.230.227.0/24
109.230.228.0/24
109.230.229.0/24
109.230.230.0/24
109.230.231.0/24
109.230.232.0/24
109.230.233.0/24
109.230.234.0/24
109.230.235.0/24
109.230.236.0/24
109.230.237.0/24
109.230.239.0/24
109.230.252.0/22
109.230.253.0/24
109.237.24.0/22
109.238.0.0/20
109.239.48.0/20
109.239.54.0/24
109.239.56.0/24
109.239.61.0/24
109.70.10.0/23
109.70.12.0/22
109.70.9.0/24
109.74.192.0/20
110.232.160.0/21
110.232.168.0/21
110.44.128.0/20
112.109.0.0/20
113.20.160.0/19
116.202.0.0/16
116.203.0.0/16
122.202.96.0/19
128.140.0.0/17
128.199.0.0/20
128.199.128.0/18
128.199.16.0/20
128.199.192.0/18
128.199.32.0/19
128.199.64.0/18
129.146.0.0/22
129.146.10.0/23
129.146.112.0/20
129.146.12.0/24
129.146.128.0/20
129.146.13.0/24
129.146.14.0/24
129.146.144.0/20
129.146.16.0/23
129.146.160.0/22
129.146.164.0/22
129.146.168.0/22
129.146.172.0/22
129.146.176.0/20
129.146.18.0/23
129.146.192.0/20
129.146.20.0/22
129.146.208.0/21
129.146.216.0/21
129.146.224.0/21
129.146.232.0/21
129.146.24.0/22
129.146.240.0/20
129.146.28.0/22
129.146.32.0/22
129.146.36.0/22
129.146.4.0/22
129.146.40.0/22
129.146.44.0/22
129.146.48.0/21
129.146.56.0/21
129.146.64.0/21
129.146.72.0/21
129.146.8.0/23
129.146.80.0/21
129.146.88.0/21
129.146.96.0/20
129.148.128.0/20
129.148.144.0/21
129.148.152.0/22
129.148.160.0/21
129.148.176.0/21
129.148.192.0/21
129.148.208.0/20
129.148.224.0/19
129.149.0.0/21
129.149.112.0/21
129.149.16.0/21
129.149.32.0/21
129.149.8.0/21
129.149.80.0/21
129.149.96.0/21
129.151.0.0/19
129.151.192.0/19
129.151.224.0/19
129.151.32.0/21
129.151.40.0/21
129.151.48.0/20
129.151.64.0/19
129.151.96.0/19
129.152.0.0/19
129.159.0.0/20
129.159.16.0/21
129.159.160.0/19
129.159.192.0/19
129.159.224.0/20
129.159.24.0/21
129.159.240.0/20
129.159.32.0/20
129.159.48.0/20
129.159.64.0/18
129.213.0.0/23
129.213.112.0/20
129.213.128.0/22
129.213.132.0/22
129.213.136.0/22
129.213.140.0/22
129.213.144.0/21
129.213.152.0/21
129.213.16.0/20
129.213.160.0/21
129.213.168.0/21
129.213.176.0/20
129.213.192.0/21
129.213.2.0/23
129.213.200.0/21
129.213.208.0/21
129.213.232.0/24
129.213.234.0/24
129.213.236.0/24
129.213.237.0/24
129.213.239.0/24
129.213.32.0/20
130.117.189.0/24
130.193.32.0/19
130.193.61.0/24
130.193.62.0/24
133.167.0.0/24
134.119.100.0/24
134.119.101.0/24
134.119.102.0/24
134.119.103.0/24
134.119.104.0/24
134.119.105.0/24
134.119.106.0/24
134.119.107.0/24
134.119.108.0/24
134.119.109.0/24
134.119.110.0/24
134.119.112.0/24
134.119.113.0/24
134.119.114.0/24
134.119.115.0/24
134.119.116.0/24
134.119.117.0/24
134.119.118.0/24
134.119.119.0/24
134.119.12.0/24
134.119.120.0/24
134.119.121.0/24
134.119.122.0/24
134.119.123.0/24
134.119.124.0/24
134.119.125.0/24
134.119.126.0/24
134.119.127.0/24
134.119.128.0/24
134.119.129.0/24
134.119.130.0/24
134.119.131.0/24
134.119.132.0/24
134.119.133.0/24
134.119.134.0/24
134.119.135.0/24
134.119.136.0/24
134.119.137.0/24
134.119.138.0/24
134.119.139.0/24
134.119.14.0/24
134.119.140.0/24
134.119.141.0/24
134.119.142.0/24
134.119.143.0/24
134.119.144.0/24
134.119.145.0/24
134.119.146.0/24
134.119.147.0/24
134.119.148.0/24
134.119.149.0/24
134.119.15.0/24
134.119.150.0/24
134.119.151.0/24
134.119.152.0/24
134.119.153.0/24
134.119.154.0/24
134.119.155.0/24
134.119.156.0/24
134.119.157.0/24
134.119.158.0/24
134.119.159.0/24
134.119.16.0/24
134.119.160.0/24
134.119.161.0/24
134.119.162.0/24
134.119.163.0/24
134.119.164.0/24
134.119.165.0/24
134.119.166.0/24
134.119.167.0/24
134.119.168.0/24
134.119.169.0/24
134.119.170.0/24
134.119.171.0/24
134.119.172.0/24
134.119.173.0/24
134.119.174.0/24
134.119.175.0/24
134.119.19.0/24
134.119.2.0/24
134.119.22.0/24
134.119.23.0/24
134.119.233.0/24
134.119.234.0/24
134.119.235.0/24
134.119.236.0/24
134.119.237.0/24
134.119.238.0/24
134.119.243.0/24
134.119.249.0/24
134.119.25.0/24
134.119.250.0/24
134.119.27.0/24
134.119.29.0/24
134.119.31.0/24
134.122.0.0/20
134.122.112.0/20
134.122.16.0/20
134.122.32.0/20
134.122.48.0/20
134.122.64.0/20
134.122.80.0/20
134.122.96.0/20
134.209.0.0/20
134.209.112.0/20
134.209.128.0/22
134.209.132.0/22
134.209.136.0/22
134.209.140.0/22
134.209.144.0/20
134.209.16.0/20
134.209.160.0/20
134.209.176.0/20
134.209.192.0/20
134.209.208.0/20
134.209.224.0/20
134.209.240.0/20
134.209.32.0/20
134.209.48.0/20
134.209.64.0/20
134.209.80.0/20
134.209.96.0/20
134.255.216.0/21
134.255.221.0/24
134.255.222.0/24
134.255.223.0/24
134.255.224.0/20
134.255.228.0/24
134.255.229.0/24
134.255.230.0/24
134.255.236.0/24
134.255.237.0/24
134.255.252.0/22
134.255.253.0/24
134.255.254.0/24
134.255.255.0/24
135.125.0.0/17
135.125.128.0/17
135.148.0.0/17
135.181.0.0/16
136.243.0.0/16
137.74.0.0/16
138.197.0.0/20
138.197.112.0/20
138.197.128.0/20
138.197.144.0/20
138.197.16.0/20
138.197.160.0/20
138.197.176.0/20
138.197.192.0/20
138.197.208.0/20
138.197.224.0/22
138.197.228.0/22
138.197.232.0/22
138.197.236.0/22
138.197.240.0/22
138.197.252.0/22
138.197.32.0/20
138.197.48.0/22
138.197.52.0/22
138.197.56.0/22
138.197.60.0/22
138.197.64.0/20
138.197.80.0/20
138.197.96.0/20
138.201.0.0/16
138.68.0.0/20
138.68.112.0/22
138.68.116.0/22
138.68.120.0/23
138.68.122.0/23
138.68.124.0/22
138.68.128.0/20
138.68.144.0/20
139.162.0.0/19
139.162.128.0/19
139.162.160.0/19
139.162.192.0/19
139.162.224.0/19
139.162.32.0/19
139.162.64.0/19
139.162.96.0/19
139.99.0.0/17
139.99.128.0/17
141.193.20.0/24
142.4.0.0/19
142.4.192.0/19
142.44.128.0/17
143.95.192.0/20
144.2.32.0/19
144.217.0.0/16
144.76.0.0/16
144.91.100.0/23
144.91.102.0/23
144.91.104.0/23
144.91.106.0/23
144.91.108.0/23
144.91.110.0/23
144.91.112.0/23
144.91.114.0/23
144.91.116.0/23
144.91.118.0/23
144.91.120.0/23
144.91.122.0/23
144.91.124.0/23
144.91.126.0/23
144.91.64.0/23
144.91.66.0/23
144.91.68.0/23
144.91.70.0/23
144.91.72.0/23
144.91.74.0/23
144.91.76.0/23
144.91.78.0/23
144.91.80.0/23
144.91.82.0/23
144.91.84.0/23
144.91.86.0/23
144.91.88.0/23
144.91.90.0/23
144.91.92.0/23
144.91.94.0/23
144.91.96.0/23
144.91.98.0/23
145.239.0.0/16
145.255.128.0/21
146.59.0.0/16
146.88.134.0/23
147.135.0.0/17
147.135.128.0/17
147.160.158.0/24
148.251.0.0/16
149.202.0.0/16
149.56.0.0/16
151.115.0.0/18
151.236.216.0/21
151.80.0.0/16
152.228.128.0/17
152.89.104.0/22
153.121.0.0/19
153.121.32.0/19
153.121.64.0/19
153.125.224.0/20
154.16.111.0/24
157.90.0.0/16
157.97.104.0/21
158.235.0.0/16
158.241.0.0/16
158.242.0.0/16
158.69.0.0/16
159.255.192.0/22
159.69.0.0/16
159.89.224.0/20
160.16.0.0/17
160.16.128.0/17
161.97.100.0/23
161.97.102.0/23
161.97.104.0/23
161.97.106.0/23
161.97.108.0/23
161.97.110.0/23
161.97.112.0/23
161.97.114.0/23
161.97.116.0/23
161.97.118.0/23
161.97.120.0/23
161.97.122.0/23
161.97.124.0/23
161.97.126.0/23
161.97.128.0/19
161.97.160.0/20
161.97.176.0/21
161.97.184.0/22
161.97.188.0/23
161.97.64.0/23
161.97.66.0/23
161.97.68.0/23
161.97.70.0/23
161.97.72.0/23
161.97.74.0/23
161.97.76.0/23
161.97.78.0/23
161.97.80.0/23
161.97.82.0/23
161.97.84.0/23
161.97.86.0/23
161.97.88.0/23
161.97.90.0/23
161.97.92.0/23
161.97.94.0/23
161.97.96.0/23
161.97.98.0/23
162.144.0.0/16
162.144.10.0/24
162.144.191.0/24
162.144.248.0/21
162.144.50.0/24
162.214.0.0/15
162.214.136.0/21
162.214.152.0/21
162.214.189.0/24
162.214.44.0/22
162.214.60.0/22
162.214.64.0/21
162.214.72.0/21
162.214.96.0/21
162.215.192.0/24
162.215.194.0/23
162.216.16.0/22
162.221.63.0/24
162.222.200.0/21
162.240.0.0/15
162.241.0.0/16
162.241.56.0/24
162.253.144.0/24
162.253.145.0/24
162.253.146.0/24
162.253.147.0/24
162.253.148.0/24
162.253.150.0/24
162.255.84.0/22
163.172.0.0/16
163.172.208.0/20
163.43.0.0/16
164.132.0.0/16
164.68.100.0/23
164.68.102.0/23
164.68.104.0/23
164.68.106.0/23
164.68.108.0/23
164.68.110.0/23
164.68.112.0/23
164.68.114.0/23
164.68.116.0/23
164.68.118.0/23
164.68.120.0/23
164.68.122.0/23
164.68.124.0/23
164.68.126.0/23
164.68.96.0/23
164.68.98.0/23
167.114.0.0/17
167.114.128.0/18
167.114.192.0/19
167.114.224.0/19
167.233.0.0/16
167.86.100.0/23
167.86.102.0/23
167.86.104.0/23
167.86.106.0/23
167.86.108.0/23
167.86.110.0/23
167.86.112.0/23
167.86.114.0/23
167.86.116.0/23
167.86.118.0/23
167.86.120.0/23
167.86.122.0/23
167.86.124.0/23
167.86.126.0/23
167.86.66.0/23
167.88.144.0/20
167.88.154.0/24
168.119.0.0/16
171.25.225.0/24
172.104.128.0/19
172.104.16.0/20
172.104.160.0/19
172.104.192.0/21
172.104.200.0/23
172.104.202.0/23
172.104.205.0/24
172.104.206.0/24
172.104.207.0/24
172.104.208.0/20
172.104.220.0/24
172.104.224.0/19
172.104.32.0/19
172.104.4.0/22
172.104.64.0/19
172.104.8.0/21
172.104.96.0/19
172.105.0.0/19
172.105.112.0/20
172.105.144.0/23
172.105.147.0/24
172.105.148.0/22
172.105.152.0/21
172.105.160.0/19
172.105.192.0/19
172.105.224.0/20
172.105.240.0/22
172.105.244.0/22
172.105.248.0/22
172.105.252.0/23
172.105.254.0/23
172.105.32.0/19
172.105.64.0/19
172.105.96.0/20
172.111.168.0/24
172.111.252.0/24
172.94.94.0/24
173.230.128.0/20
173.230.144.0/20
173.230.145.0/24
173.230.146.0/24
173.230.147.0/24
173.230.148.0/24
173.230.149.0/24
173.230.150.0/24
173.230.151.0/24
173.230.152.0/24
173.230.153.0/24
173.230.154.0/24
173.230.155.0/24
173.230.156.0/24
173.230.157.0/24
173.230.158.0/24
173.249.54.0/23
173.255.192.0/20
173.255.208.0/20
173.255.209.0/24
173.255.210.0/24
173.255.211.0/24
173.255.212.0/24
173.255.213.0/24
173.255.214.0/24
173.255.215.0/24
173.255.216.0/24
173.255.217.0/24
173.255.218.0/24
173.255.219.0/24
173.255.220.0/24
173.255.221.0/24
176.10.96.0/19
176.102.168.0/21
176.126.248.0/22
176.31.0.0/16
176.65.129.0/24
176.9.0.0/16
176.96.140.0/24
176.96.141.0/24
176.96.142.0/24
176.96.143.0/24
178.154.192.0/19
178.154.224.0/19
178.154.243.0/24
178.154.244.0/24
178.154.245.0/24
178.162.128.0/18
178.162.176.0/20
178.170.0.0/17
178.18.16.0/24
178.18.20.0/22
178.18.24.0/23
178.18.27.0/24
178.18.30.0/24
178.18.31.0/24
178.250.16.0/24
178.250.18.0/24
178.32.0.0/15
178.63.0.0/16
183.181.102.0/24
185.10.99.0/24
185.102.27.0/24
185.107.52.0/22
185.108.84.0/23
185.108.85.0/24
185.110.48.0/22
185.110.64.0/23
185.110.95.0/24
185.112.180.0/24
185.113.88.0/22
185.117.3.0/24
185.12.32.0/23
185.12.64.0/22
185.122.168.0/22
185.122.180.0/22
185.123.60.0/24
185.126.28.0/22
185.126.64.0/24
185.126.65.0/24
185.126.66.0/24
185.127.30.0/24
185.129.121.0/24
185.131.24.0/22
185.132.36.0/22
185.132.40.0/22
185.132.44.0/24
185.132.45.0/24
185.132.46.0/24
185.132.47.0/24
185.136.140.0/23
185.140.164.0/22
185.141.202.0/24
185.145.168.0/22
185.150.24.0/22
185.150.26.0/24
185.152.108.0/22
185.155.192.0/24
185.155.200.0/22
185.155.52.0/24
185.157.176.0/23
185.157.178.0/23
185.157.83.0/24
185.158.212.0/22
185.16.60.0/22
185.162.248.0/22
185.163.116.0/22
185.164.56.0/24
185.164.57.0/24
185.164.58.0/24
185.164.59.0/24
185.168.248.0/22
185.169.253.0/24
185.17.184.0/22
185.170.112.0/22
185.171.224.0/22
185.181.8.0/24
185.183.156.0/22
185.189.148.0/22
185.189.228.0/24
185.189.229.0/24
185.189.230.0/24
185.189.231.0/24
185.191.124.0/24
185.191.125.0/24
185.192.0.0/22
185.194.140.0/22
185.195.68.0/23
185.195.70.0/24
185.203.249.0/24
185.206.164.0/22
185.207.104.0/22
185.209.124.0/22
185.211.154.0/24
185.211.155.0/24
185.211.220.0/23
185.211.222.0/23
185.211.223.0/24
185.214.188.0/22
185.216.176.0/22
185.216.237.0/24
185.223.54.0/24
185.226.99.0/24
185.227.110.0/24
185.228.136.0/22
185.228.8.0/23
185.228.96.0/24
185.228.97.0/24
185.228.98.0/24
185.228.99.0/24
185.232.68.0/22
185.233.104.0/22
185.237.179.0/24
185.24.172.0/23
185.24.174.0/24
185.24.175.0/24
185.24.240.0/24
185.242.76.0/24
185.243.8.0/22
185.244.192.0/22
185.246.84.0/22
185.247.117.0/24
185.28.68.0/24
185.30.232.0/24
185.31.80.0/22
185.32.220.0/22
185.34.32.0/22
185.34.68.0/22
185.36.144.0/22
185.38.185.0/24
185.38.187.0/24
185.44.22.0/23
185.45.160.0/22
185.46.180.0/23
185.46.182.0/24
185.46.183.0/24
185.46.232.0/24
185.48.116.0/22
185.48.228.0/22
185.49.229.0/24
185.50.120.0/23
185.51.192.0/24
185.56.148.0/22
185.60.164.0/24
185.67.4.0/22
185.67.6.0/23
185.71.60.0/22
185.73.32.0/23
185.73.34.0/24
185.78.124.0/22
185.8.164.0/23
185.8.166.0/24
185.83.212.0/24
185.83.213.0/24
185.85.108.0/22
185.85.164.0/22
185.87.20.0/24
185.87.21.0/24
185.87.22.0/24
185.87.23.0/24
185.93.34.0/23
185.96.140.0/24
185.99.96.0/24
185.99.97.0/24
188.138.90.0/24
188.165.0.0/16
188.34.128.0/17
188.40.0.0/16
188.68.32.0/20
188.68.48.0/21
188.68.56.0/22
188.68.60.0/23
188.68.62.0/24
188.68.63.0/24
190.105.193.0/24
190.105.195.0/24
190.121.212.0/24
191.101.175.0/24
191.96.244.0/24
192.145.44.0/22
192.153.171.0/24
192.156.217.0/24
192.166.153.0/24
192.166.81.0/24
192.190.47.0/24
192.195.77.0/24
192.240.152.0/21
192.43.206.0/24
192.67.197.0/24
192.67.198.0/24
192.95.0.0/18
192.99.0.0/16
193.104.19.0/24
193.104.219.0/24
193.106.104.0/22
193.109.63.0/24
193.110.6.0/23
193.122.128.0/17
193.141.3.0/24
193.160.152.0/24
193.160.153.0/24
193.164.199.0/24
193.22.254.0/24
193.223.77.0/24
193.227.234.0/23
193.23.245.0/24
193.23.249.0/24
193.23.250.0/24
193.23.253.0/24
193.239.4.0/23
193.239.6.0/23
193.25.170.0/23
193.26.156.0/22
193.30.120.0/22
193.31.24.0/22
193.32.216.0/22
193.34.68.0/24
193.34.70.0/24
193.42.143.0/24
193.56.126.0/24
193.56.129.0/24
193.56.58.0/24
193.70.0.0/17
194.126.206.0/24
194.13.80.0/22
194.15.228.0/22
194.150.168.0/23
194.34.246.0/24
194.35.12.0/23
194.36.144.0/22
194.36.166.0/24
194.36.60.0/22
194.37.81.0/24
194.42.180.0/22
194.42.184.0/22
194.45.97.0/24
194.55.12.0/22
194.59.204.0/22
194.64.100.0/22
194.64.96.0/22
194.93.56.0/24
195.110.30.0/23
195.128.100.0/22
195.154.0.0/16
195.160.228.0/24
195.160.229.0/24
195.160.230.0/24
195.160.231.0/24
195.192.240.0/22
195.20.224.0/19
195.201.0.0/16
195.225.117.0/24
195.225.118.0/23
195.245.114.0/23
195.245.203.0/24
195.246.232.0/23
195.248.224.0/24
195.60.226.0/24
195.85.254.0/24
197.242.84.0/22
198.100.144.0/20
198.244.128.0/17
198.245.48.0/20
198.251.64.0/20
198.27.64.0/18
198.27.92.0/24
198.38.80.0/20
198.38.82.0/24
198.38.83.0/24
198.38.84.0/24
198.38.85.0/24
198.38.86.0/24
198.38.87.0/24
198.38.88.0/24
198.38.89.0/24
198.38.90.0/24
198.38.91.0/24
198.38.92.0/24
198.38.93.0/24
198.38.94.0/24
198.38.95.0/24
198.50.128.0/17
198.71.48.0/20
198.90.71.0/24
199.245.197.0/24
2.56.96.0/22
2.58.113.0/24
201.131.3.0/24
202.181.96.0/20
202.222.16.0/20
202.61.240.0/20
203.31.36.0/22
204.93.128.0/17
204.93.152.0/21
204.93.160.0/20
204.93.161.0/24
204.93.165.0/24
204.93.167.0/24
204.93.168.0/24
204.93.169.0/24
204.93.172.0/24
204.93.174.0/24
204.93.176.0/21
204.93.188.0/23
204.93.190.0/23
204.93.192.0/19
204.93.193.0/24
204.93.196.0/24
204.93.197.0/24
204.93.203.0/24
204.93.216.0/24
204.93.240.0/21
204.93.248.0/22
204.93.252.0/23
204.93.254.0/23
204.93.255.0/24
205.218.49.0/24
205.234.128.0/17
205.234.160.0/24
205.234.167.0/24
205.234.191.0/24
205.234.220.0/24
205.234.221.0/24
205.234.224.0/24
205.234.244.0/24
205.53.0.0/16
205.54.0.0/16
206.51.240.0/21
208.93.64.0/21
208.93.68.0/22
210.188.224.0/19
210.229.64.0/21
212.127.32.0/19
212.129.0.0/18
212.227.0.0/16
212.227.222.0/23
212.47.224.0/19
212.79.208.0/20
212.83.128.0/19
212.83.160.0/19
213.109.160.0/22
213.133.96.0/19
213.165.64.0/19
213.171.192.0/19
213.186.32.0/19
213.232.193.0/24
213.239.192.0/18
213.244.192.0/24
213.246.32.0/19
213.246.33.0/24
213.246.35.0/24
213.246.36.0/22
213.246.42.0/24
213.246.49.0/24
213.246.51.0/24
213.246.52.0/23
213.246.55.0/24
213.246.56.0/22
213.246.60.0/24
213.246.61.0/24
213.246.62.0/23
213.251.128.0/18
213.32.0.0/17
216.223.16.0/22
216.246.0.0/17
216.246.102.0/24
216.246.103.0/24
216.246.112.0/22
216.246.116.0/24
216.246.124.0/24
216.246.125.0/24
216.246.36.0/22
216.246.44.0/24
216.246.73.0/24
216.250.112.0/20
216.32.192.0/24
216.52.28.0/22
216.52.29.0/24
217.114.208.0/20
217.160.0.0/16
217.160.200.0/22
217.160.210.0/23
217.160.80.0/22
217.174.240.0/20
217.182.0.0/16
217.24.80.0/20
217.28.224.0/20
217.72.192.0/20
217.76.128.0/19
22.101.0.0/16
22.102.0.0/16
22.103.0.0/16
22.106.0.0/16
22.112.0.0/16
22.113.0.0/16
22.114.0.0/16
22.115.0.0/16
22.25.0.0/16
22.54.0.0/16
23.157.176.0/24
23.92.184.0/22
23.92.224.0/19
27.133.128.0/19
27.133.247.0/24
27.133.252.0/22
27.134.240.0/20
31.14.76.0/22
31.214.149.0/24
31.214.240.0/21
31.214.241.0/24
31.214.242.0/24
31.214.243.0/24
31.214.244.0/24
36.53.0.0/17
36.53.128.0/18
37.120.160.0/19
37.187.0.0/16
37.205.12.0/22
37.205.8.0/22
37.221.192.0/21
37.59.0.0/16
37.60.48.0/21
37.60.56.0/21
45.129.180.0/22
45.13.227.0/24
45.131.108.0/24
45.132.244.0/22
45.136.28.0/22
45.141.38.0/23
45.142.176.0/22
45.142.180.0/24
45.143.184.0/22
45.145.52.0/24
45.148.28.0/22
45.15.120.0/22
45.153.34.0/24
45.153.35.0/24
45.156.86.0/24
45.157.176.0/22
45.55.128.0/18
45.83.104.0/22
45.9.60.0/22
45.90.4.0/22
46.105.0.0/16
46.105.198.0/24
46.105.199.0/24
46.105.200.0/24
46.105.201.0/24
46.105.202.0/24
46.105.203.0/24
46.105.204.0/24
46.16.72.0/21
46.232.248.0/22
46.244.32.0/20
46.248.160.0/19
46.251.225.0/24
46.251.227.0/24
46.38.224.0/20
46.38.240.0/21
46.38.248.0/22
46.38.252.0/22
46.4.0.0/16
49.12.0.0/16
49.13.0.0/16
5.133.32.0/22
5.135.0.0/16
5.161.0.0/16
5.181.48.0/22
5.182.200.0/23
5.196.0.0/16
5.252.224.0/22
5.39.0.0/17
5.45.96.0/20
5.75.128.0/17
5.9.0.0/16
50.116.32.0/20
50.21.176.0/20
50.31.128.0/17
50.31.134.0/24
50.31.138.0/24
50.31.140.0/22
50.31.147.0/24
51.15.0.0/16
51.158.0.0/15
51.158.128.0/17
51.161.0.0/17
51.161.128.0/17
51.178.0.0/16
51.195.0.0/16
51.210.0.0/16
51.222.0.0/16
51.254.0.0/15
51.38.0.0/16
51.68.0.0/16
51.75.0.0/16
51.77.0.0/16
51.79.0.0/17
51.79.128.0/17
51.81.0.0/17
51.81.128.0/17
51.83.0.0/16
51.89.0.0/16
51.91.0.0/16
54.36.0.0/16
54.37.0.0/16
54.38.0.0/16
54.39.0.0/16
59.106.0.0/17
59.106.128.0/18
59.106.192.0/19
59.106.224.0/20
59.106.240.0/22
61.211.224.0/20
61.211.236.0/24
62.141.48.0/20
62.151.160.0/21
62.151.176.0/21
62.210.0.0/16
62.238.0.0/16
62.4.0.0/19
62.75.247.0/24
65.21.0.0/16
66.175.232.0/21
66.70.128.0/17
69.25.56.0/21
70.35.192.0/20
74.208.0.0/16
77.68.0.0/17
77.83.151.0/24
77.83.64.0/24
78.137.96.0/21
78.24.128.0/21
78.46.0.0/15
79.137.0.0/17
79.99.40.0/21
8.18.128.0/24
8.18.172.0/24
8.20.110.0/24
8.21.41.0/24
80.209.248.0/22
80.241.216.0/23
80.243.224.0/22
80.78.132.0/24
80.93.80.0/20
81.16.16.0/22
81.169.128.0/17
81.169.144.0/22
81.169.148.0/24
81.173.112.0/24
81.173.113.0/24
81.173.114.0/24
81.173.115.0/24
82.165.0.0/16
82.165.245.0/24
82.223.0.0/16
83.219.100.0/22
83.243.120.0/22
84.19.160.0/19
84.201.128.0/18
84.201.184.0/22
84.201.188.0/23
84.252.128.0/20
85.10.192.0/18
85.184.248.0/22
85.209.48.0/22
85.214.0.0/15
85.215.232.0/21
85.215.236.0/22
85.215.248.0/22
85.215.255.0/24
85.235.64.0/22
85.25.217.0/24
86.111.240.0/21
87.106.0.0/16
87.106.112.0/22
87.118.64.0/18
87.230.0.0/19
87.98.128.0/17
88.198.0.0/16
88.208.192.0/18
88.99.0.0/16
91.107.128.0/17
91.132.144.0/22
91.192.100.0/22
91.194.60.0/23
91.201.56.0/22
91.204.44.0/22
91.209.211.0/24
91.213.60.0/24
91.216.35.0/24
91.217.251.0/24
91.233.8.0/22
92.119.231.0/24
92.246.84.0/24
92.246.85.0/24
92.246.86.0/24
92.60.36.0/22
93.177.64.0/22
93.90.192.0/20
93.93.112.0/21
94.125.160.0/21
94.130.0.0/16
94.143.136.0/21
94.154.148.0/22
94.16.104.0/22
94.16.108.0/22
94.16.112.0/21
94.16.120.0/22
95.156.192.0/24
95.156.196.0/24
95.156.199.0/24
95.156.208.0/24
95.156.212.0/24
95.156.225.0/24
95.156.226.0/23
95.156.228.0/22
95.156.229.0/24
95.156.230.0/24
95.156.231.0/24
95.156.232.0/24
95.169.160.0/20
95.169.176.0/21
95.169.184.0/22
95.169.188.0/23
95.169.190.0/23
95.216.0.0/16
95.217.0.0/16