103.21.184.0/22
103.227.68.0/22
103.240.192.0/22
103.240.232.0/22
103.240.236.0/22
103.245.12.0/22
103.248.84.0/22
103.252.216.0/22
103.253.172.0/22
103.62.64.0/24
103.62.65.0/24
103.62.66.0/23
103.62.67.0/24
103.86.148.0/24
104.132.0.0/14
104.132.1.0/24
104.132.10.0/23
104.132.100.0/23
104.132.101.0/24
104.132.102.0/23
104.132.103.0/24
104.132.104.0/23
104.132.105.0/24
104.132.106.0/23
104.132.107.0/24
104.132.108.0/23
104.132.109.0/24
104.132.11.0/24
104.132.110.0/23
104.132.111.0/24
104.132.112.0/23
104.132.113.0/24
104.132.114.0/23
104.132.115.0/24
104.132.116.0/23
104.132.117.0/24
104.132.118.0/23
104.132.119.0/24
104.132.12.0/23
104.132.120.0/23
104.132.121.0/24
104.132.122.0/23
104.132.123.0/24
104.132.124.0/23
104.132.125.0/24
104.132.126.0/23
104.132.127.0/24
104.132.128.0/23
104.132.129.0/24
104.132.13.0/24
104.132.130.0/23
104.132.131.0/24
104.132.132.0/23
104.132.133.0/24
104.132.134.0/23
104.132.135.0/24
104.132.136.0/23
104.132.137.0/24
104.132.138.0/23
104.132.139.0/24
104.132.14.0/23
104.132.140.0/23
104.132.141.0/24
104.132.142.0/23
104.132.143.0/24
104.132.144.0/23
104.132.145.0/24
104.132.146.0/23
104.132.147.0/24
104.132.148.0/23
104.132.149.0/24
104.132.15.0/24
104.132.150.0/23
104.132.151.0/24
104.132.152.0/23
104.132.153.0/24
104.132.154.0/23
104.132.155.0/24
104.132.156.0/23
104.132.157.0/24
104.132.158.0/23
104.132.159.0/24
104.132.16.0/23
104.132.160.0/23
104.132.161.0/24
104.132.162.0/23
104.132.163.0/24
104.132.164.0/23
104.132.165.0/24
104.132.166.0/23
104.132.167.0/24
104.132.168.0/23
104.132.169.0/24
104.132.17.0/24
104.132.170.0/23
104.132.171.0/24
104.132.172.0/23
104.132.173.0/24
104.132.174.0/23
104.132.175.0/24
104.132.176.0/23
104.132.177.0/24
104.132.178.0/23
104.132.179.0/24
104.132.18.0/23
104.132.180.0/23
104.132.181.0/24
104.132.182.0/23
104.132.183.0/24
104.132.184.0/23
104.132.185.0/24
104.132.186.0/23
104.132.187.0/24
104.132.188.0/23
104.132.189.0/24
104.132.19.0/24
104.132.190.0/23
104.132.191.0/24
104.132.192.0/23
104.132.193.0/24
104.132.194.0/23
104.132.195.0/24
104.132.196.0/23
104.132.197.0/24
104.132.198.0/23
104.132.199.0/24
104.132.2.0/23
104.132.20.0/23
104.132.200.0/23
104.132.201.0/24
104.132.202.0/23
104.132.203.0/24
104.132.204.0/23
104.132.205.0/24
104.132.206.0/23
104.132.207.0/24
104.132.208.0/23
104.132.209.0/24
104.132.21.0/24
104.132.210.0/23
104.132.211.0/24
104.132.212.0/23
104.132.213.0/24
104.132.214.0/23
104.132.215.0/24
104.132.216.0/23
104.132.217.0/24
104.132.218.0/23
104.132.219.0/24
104.132.22.0/23
104.132.220.0/23
104.132.221.0/24
104.132.222.0/23
104.132.223.0/24
104.132.224.0/23
104.132.225.0/24
104.132.226.0/23
104.132.227.0/24
104.132.228.0/23
104.132.229.0/24
104.132.23.0/24
104.132.230.0/23
104.132.231.0/24
104.132.232.0/23
104.132.233.0/24
104.132.234.0/23
104.132.235.0/24
104.132.236.0/23
104.132.237.0/24
104.132.238.0/23
104.132.239.0/24
104.132.24.0/23
104.132.240.0/23
104.132.241.0/24
104.132.242.0/23
104.132.243.0/24
104.132.244.0/23
104.132.245.0/24
104.132.246.0/23
104.132.247.0/24
104.132.248.0/23
104.132.249.0/24
104.132.25.0/24
104.132.250.0/23
104.132.251.0/24
104.132.252.0/23
104.132.253.0/24
104.132.254.0/23
104.132.255.0/24
104.132.26.0/23
104.132.27.0/24
104.132.28.0/23
104.132.29.0/24
104.132.3.0/24
104.132.30.0/23
104.132.31.0/24
104.132.32.0/23
104.132.33.0/24
104.132.34.0/23
104.132.35.0/24
104.132.36.0/23
104.132.37.0/24
104.132.38.0/23
104.132.39.0/24
104.132.4.0/23
104.132.40.0/23
104.132.41.0/24
104.132.42.0/23
104.132.43.0/24
104.132.44.0/23
104.132.45.0/24
104.132.46.0/23
104.132.47.0/24
104.132.48.0/23
104.132.49.0/24
104.132.5.0/24
104.132.50.0/23
104.132.51.0/24
104.132.52.0/23
104.132.53.0/24
104.132.54.0/23
104.132.55.0/24
104.132.56.0/23
104.132.57.0/24
104.132.58.0/23
104.132.59.0/24
104.132.6.0/23
104.132.60.0/23
104.132.61.0/24
104.132.62.0/23
104.132.63.0/24
104.132.64.0/23
104.132.65.0/24
104.132.66.0/23
104.132.67.0/24
104.132.68.0/23
104.132.69.0/24
104.132.7.0/24
104.132.70.0/23
104.132.71.0/24
104.132.72.0/23
104.132.73.0/24
104.132.74.0/23
104.132.75.0/24
104.132.76.0/23
104.132.77.0/24
104.132.78.0/23
104.132.79.0/24
104.132.8.0/23
104.132.80.0/23
104.132.81.0/24
104.132.82.0/23
104.132.83.0/24
104.132.84.0/23
104.132.85.0/24
104.132.86.0/23
104.132.87.0/24
104.132.88.0/23
104.132.89.0/24
104.132.9.0/24
104.132.90.0/23
104.132.91.0/24
104.132.92.0/23
104.132.93.0/24
104.132.94.0/23
104.132.95.0/24
104.132.96.0/23
104.132.97.0/24
104.132.98.0/23
104.132.99.0/24
104.133.0.0/17
104.133.1.0/24
104.133.10.0/23
104.133.100.0/23
104.133.101.0/24
104.133.102.0/23
104.133.103.0/24
104.133.104.0/23
104.133.105.0/24
104.133.106.0/23
104.133.107.0/24
104.133.108.0/23
104.133.109.0/24
104.133.11.0/24
104.133.110.0/23
104.133.111.0/24
104.133.112.0/23
104.133.113.0/24
104.133.114.0/23
104.133.115.0/24
104.133.116.0/23
104.133.117.0/24
104.133.118.0/23
104.133.119.0/24
104.133.12.0/23
104.133.120.0/23
104.133.121.0/24
104.133.122.0/23
104.133.123.0/24
104.133.124.0/23
104.133.125.0/24
104.133.126.0/23
104.133.127.0/24
104.133.128.0/23
104.133.129.0/24
104.133.13.0/24
104.133.130.0/23
104.133.131.0/24
104.133.132.0/23
104.133.133.0/24
104.133.134.0/23
104.133.135.0/24
104.133.136.0/23
104.133.137.0/24
104.133.138.0/23
104.133.139.0/24
104.133.14.0/23
104.133.140.0/23
104.133.141.0/24
104.133.142.0/23
104.133.143.0/24
104.133.144.0/23
104.133.145.0/24
104.133.146.0/23
104.133.147.0/24
104.133.148.0/23
104.133.149.0/24
104.133.15.0/24
104.133.150.0/23
104.133.151.0/24
104.133.152.0/23
104.133.153.0/24
104.133.154.0/23
104.133.155.0/24
104.133.156.0/23
104.133.157.0/24
104.133.158.0/23
104.133.159.0/24
104.133.16.0/23
104.133.160.0/23
104.133.161.0/24
104.133.162.0/23
104.133.163.0/24
104.133.164.0/23
104.133.165.0/24
104.133.166.0/23
104.133.167.0/24
104.133.168.0/23
104.133.169.0/24
104.133.17.0/24
104.133.170.0/23
104.133.171.0/24
104.133.172.0/23
104.133.173.0/24
104.133.174.0/23
104.133.175.0/24
104.133.176.0/23
104.133.177.0/24
104.133.178.0/23
104.133.179.0/24
104.133.18.0/23
104.133.180.0/23
104.133.181.0/24
104.133.182.0/23
104.133.183.0/24
104.133.184.0/23
104.133.185.0/24
104.133.186.0/23
104.133.187.0/24
104.133.188.0/23
104.133.189.0/24
104.133.19.0/24
104.133.190.0/23
104.133.191.0/24
104.133.192.0/23
104.133.193.0/24
104.133.194.0/23
104.133.195.0/24
104.133.196.0/23
104.133.197.0/24
104.133.198.0/23
104.133.199.0/24
104.133.2.0/23
104.133.20.0/23
104.133.200.0/23
104.133.201.0/24
104.133.202.0/23
104.133.203.0/24
104.133.204.0/23
104.133.205.0/24
104.133.206.0/23
104.133.207.0/24
104.133.208.0/23
104.133.209.0/24
104.133.21.0/24
104.133.210.0/23
104.133.211.0/24
104.133.212.0/23
104.133.213.0/24
104.133.214.0/23
104.133.215.0/24
104.133.216.0/23
104.133.217.0/24
104.133.218.0/23
104.133.219.0/24
104.133.22.0/23
104.133.220.0/23
104.133.221.0/24
104.133.222.0/23
104.133.223.0/24
104.133.224.0/23
104.133.225.0/24
104.133.226.0/23
104.133.227.0/24
104.133.228.0/23
104.133.229.0/24
104.133.23.0/24
104.133.230.0/23
104.133.231.0/24
104.133.232.0/23
104.133.233.0/24
104.133.234.0/23
104.133.235.0/24
104.133.236.0/23
104.133.237.0/24
104.133.238.0/23
104.133.239.0/24
104.133.24.0/23
104.133.240.0/23
104.133.241.0/24
104.133.242.0/23
104.133.243.0/24
104.133.244.0/23
104.133.245.0/24
104.133.246.0/23
104.133.247.0/24
104.133.248.0/23
104.133.249.0/24
104.133.25.0/24
104.133.250.0/23
104.133.251.0/24
104.133.252.0/23
104.133.253.0/24
104.133.254.0/23
104.133.255.0/24
104.133.26.0/23
104.133.27.0/24
104.133.28.0/23
104.133.29.0/24
104.133.3.0/24
104.133.30.0/23
104.133.31.0/24
104.133.32.0/23
104.133.33.0/24
104.133.34.0/23
104.133.35.0/24
104.133.36.0/23
104.133.37.0/24
104.133.38.0/23
104.133.39.0/24
104.133.4.0/23
104.133.40.0/23
104.133.41.0/24
104.133.42.0/23
104.133.43.0/24
104.133.44.0/23
104.133.45.0/24
104.133.46.0/23
104.133.47.0/24
104.133.48.0/23
104.133.49.0/24
104.133.5.0/24
104.133.50.0/23
104.133.51.0/24
104.133.52.0/23
104.133.53.0/24
104.133.54.0/23
104.133.55.0/24
104.133.56.0/23
104.133.57.0/24
104.133.58.0/23
104.133.59.0/24
104.133.6.0/23
104.133.60.0/23
104.133.61.0/24
104.133.62.0/23
104.133.63.0/24
104.133.64.0/23
104.133.65.0/24
104.133.66.0/23
104.133.67.0/24
104.133.68.0/23
104.133.69.0/24
104.133.7.0/24
104.133.70.0/23
104.133.71.0/24
104.133.72.0/23
104.133.73.0/24
104.133.74.0/23
104.133.75.0/24
104.133.76.0/23
104.133.77.0/24
104.133.78.0/23
104.133.79.0/24
104.133.8.0/23
104.133.80.0/23
104.133.81.0/24
104.133.82.0/23
104.133.83.0/24
104.133.84.0/23
104.133.85.0/24
104.133.86.0/23
104.133.87.0/24
104.133.88.0/23
104.133.89.0/24
104.133.9.0/24
104.133.90.0/23
104.133.91.0/24
104.133.92.0/23
104.133.93.0/24
104.133.94.0/23
104.133.95.0/24
104.133.96.0/23
104.133.97.0/24
104.133.98.0/23
104.133.99.0/24
104.134.0.0/19
104.134.1.0/24
104.134.10.0/23
104.134.100.0/23
104.134.101.0/24
104.134.102.0/23
104.134.103.0/24
104.134.104.0/23
104.134.105.0/24
104.134.106.0/23
104.134.107.0/24
104.134.108.0/23
104.134.109.0/24
104.134.11.0/24
104.134.110.0/23
104.134.111.0/24
104.134.112.0/23
104.134.113.0/24
104.134.114.0/23
104.134.115.0/24
104.134.116.0/23
104.134.117.0/24
104.134.118.0/23
104.134.119.0/24
104.134.12.0/23
104.134.120.0/23
104.134.121.0/24
104.134.122.0/23
104.134.123.0/24
104.134.124.0/23
104.134.125.0/24
104.134.126.0/23
104.134.127.0/24
104.134.128.0/17
104.134.129.0/24
104.134.13.0/24
104.134.130.0/23
104.134.131.0/24
104.134.132.0/23
104.134.133.0/24
104.134.134.0/23
104.134.135.0/24
104.134.136.0/23
104.134.137.0/24
104.134.138.0/23
104.134.139.0/24
104.134.14.0/23
104.134.140.0/23
104.134.141.0/24
104.134.142.0/23
104.134.143.0/24
104.134.144.0/23
104.134.145.0/24
104.134.146.0/23
104.134.147.0/24
104.134.148.0/23
104.134.149.0/24
104.134.15.0/24
104.134.150.0/23
104.134.151.0/24
104.134.152.0/23
104.134.153.0/24
104.134.154.0/23
104.134.155.0/24
104.134.156.0/23
104.134.157.0/24
104.134.158.0/23
104.134.159.0/24
104.134.16.0/23
104.134.160.0/23
104.134.161.0/24
104.134.162.0/23
104.134.163.0/24
104.134.164.0/23
104.134.165.0/24
104.134.166.0/23
104.134.167.0/24
104.134.168.0/23
104.134.169.0/24
104.134.17.0/24
104.134.170.0/23
104.134.171.0/24
104.134.172.0/23
104.134.173.0/24
104.134.174.0/23
104.134.175.0/24
104.134.176.0/23
104.134.177.0/24
104.134.178.0/23
104.134.179.0/24
104.134.18.0/23
104.134.180.0/23
104.134.181.0/24
104.134.182.0/23
104.134.183.0/24
104.134.184.0/23
104.134.185.0/24
104.134.186.0/23
104.134.187.0/24
104.134.188.0/23
104.134.189.0/24
104.134.19.0/24
104.134.190.0/23
104.134.191.0/24
104.134.192.0/23
104.134.193.0/24
104.134.194.0/23
104.134.195.0/24
104.134.196.0/23
104.134.197.0/24
104.134.198.0/23
104.134.199.0/24
104.134.2.0/23
104.134.20.0/23
104.134.200.0/23
104.134.201.0/24
104.134.202.0/23
104.134.203.0/24
104.134.204.0/23
104.134.205.0/24
104.134.206.0/23
104.134.207.0/24
104.134.208.0/23
104.134.209.0/24
104.134.21.0/24
104.134.210.0/23
104.134.211.0/24
104.134.212.0/23
104.134.213.0/24
104.134.214.0/23
104.134.215.0/24
104.134.216.0/23
104.134.217.0/24
104.134.218.0/23
104.134.219.0/24
104.134.22.0/23
104.134.220.0/23
104.134.221.0/24
104.134.222.0/23
104.134.223.0/24
104.134.224.0/23
104.134.225.0/24
104.134.226.0/23
104.134.227.0/24
104.134.228.0/23
104.134.229.0/24
104.134.23.0/24
104.134.230.0/23
104.134.231.0/24
104.134.232.0/23
104.134.233.0/24
104.134.234.0/23
104.134.235.0/24
104.134.236.0/23
104.134.237.0/24
104.134.238.0/23
104.134.239.0/24
104.134.24.0/23
104.134.240.0/23
104.134.241.0/24
104.134.242.0/23
104.134.243.0/24
104.134.244.0/23
104.134.245.0/24
104.134.246.0/23
104.134.247.0/24
104.134.248.0/23
104.134.249.0/24
104.134.25.0/24
104.134.250.0/23
104.134.251.0/24
104.134.252.0/23
104.134.253.0/24
104.134.254.0/23
104.134.255.0/24
104.134.26.0/23
104.134.27.0/24
104.134.28.0/23
104.134.29.0/24
104.134.3.0/24
104.134.30.0/23
104.134.31.0/24
104.134.32.0/23
104.134.33.0/24
104.134.34.0/23
104.134.35.0/24
104.134.36.0/23
104.134.37.0/24
104.134.38.0/23
104.134.39.0/24
104.134.4.0/23
104.134.40.0/23
104.134.41.0/24
104.134.42.0/23
104.134.43.0/24
104.134.44.0/23
104.134.45.0/24
104.134.46.0/23
104.134.47.0/24
104.134.48.0/23
104.134.49.0/24
104.134.5.0/24
104.134.50.0/23
104.134.51.0/24
104.134.52.0/23
104.134.53.0/24
104.134.54.0/23
104.134.55.0/24
104.134.56.0/23
104.134.57.0/24
104.134.58.0/23
104.134.59.0/24
104.134.6.0/23
104.134.60.0/23
104.134.61.0/24
104.134.62.0/23
104.134.63.0/24
104.134.64.0/23
104.134.65.0/24
104.134.66.0/23
104.134.67.0/24
104.134.68.0/23
104.134.69.0/24
104.134.7.0/24
104.134.70.0/23
104.134.71.0/24
104.134.72.0/23
104.134.73.0/24
104.134.74.0/23
104.134.75.0/24
104.134.76.0/23
104.134.77.0/24
104.134.78.0/23
104.134.79.0/24
104.134.8.0/23
104.134.80.0/23
104.134.81.0/24
104.134.82.0/23
104.134.83.0/24
104.134.84.0/23
104.134.85.0/24
104.134.86.0/23
104.134.87.0/24
104.134.88.0/23
104.134.89.0/24
104.134.9.0/24
104.134.90.0/23
104.134.91.0/24
104.134.92.0/23
104.134.93.0/24
104.134.94.0/23
104.134.95.0/24
104.134.96.0/23
104.134.97.0/24
104.134.98.0/23
104.134.99.0/24
104.135.0.0/23
104.135.1.0/24
104.135.10.0/23
104.135.100.0/23
104.135.101.0/24
104.135.102.0/23
104.135.103.0/24
104.135.104.0/23
104.135.105.0/24
104.135.106.0/23
104.135.107.0/24
104.135.108.0/23
104.135.109.0/24
104.135.11.0/24
104.135.110.0/23
104.135.111.0/24
104.135.112.0/23
104.135.113.0/24
104.135.114.0/23
104.135.115.0/24
104.135.116.0/23
104.135.117.0/24
104.135.118.0/23
104.135.119.0/24
104.135.12.0/23
104.135.120.0/23
104.135.121.0/24
104.135.122.0/23
104.135.123.0/24
104.135.124.0/23
104.135.125.0/24
104.135.126.0/23
104.135.127.0/24
104.135.128.0/23
104.135.129.0/24
104.135.13.0/24
104.135.130.0/23
104.135.131.0/24
104.135.132.0/23
104.135.133.0/24
104.135.134.0/23
104.135.135.0/24
104.135.136.0/23
104.135.137.0/24
104.135.138.0/23
104.135.139.0/24
104.135.14.0/23
104.135.140.0/23
104.135.141.0/24
104.135.142.0/23
104.135.143.0/24
104.135.144.0/23
104.135.145.0/24
104.135.146.0/23
104.135.147.0/24
104.135.148.0/23
104.135.149.0/24
104.135.15.0/24
104.135.150.0/23
104.135.151.0/24
104.135.152.0/23
104.135.153.0/24
104.135.154.0/23
104.135.155.0/24
104.135.156.0/23
104.135.157.0/24
104.135.158.0/23
104.135.159.0/24
104.135.16.0/23
104.135.160.0/23
104.135.161.0/24
104.135.162.0/23
104.135.163.0/24
104.135.164.0/23
104.135.165.0/24
104.135.166.0/23
104.135.167.0/24
104.135.168.0/23
104.135.169.0/24
104.135.17.0/24
104.135.170.0/23
104.135.171.0/24
104.135.172.0/23
104.135.173.0/24
104.135.174.0/23
104.135.175.0/24
104.135.176.0/23
104.135.177.0/24
104.135.178.0/23
104.135.179.0/24
104.135.18.0/23
104.135.180.0/23
104.135.181.0/24
104.135.182.0/23
104.135.183.0/24
104.135.184.0/23
104.135.185.0/24
104.135.186.0/23
104.135.187.0/24
104.135.188.0/23
104.135.189.0/24
104.135.19.0/24
104.135.190.0/23
104.135.191.0/24
104.135.192.0/23
104.135.193.0/24
104.135.194.0/23
104.135.195.0/24
104.135.196.0/23
104.135.197.0/24
104.135.198.0/23
104.135.199.0/24
104.135.2.0/23
104.135.20.0/23
104.135.200.0/23
104.135.201.0/24
104.135.202.0/23
104.135.203.0/24
104.135.204.0/23
104.135.205.0/24
104.135.206.0/23
104.135.207.0/24
104.135.208.0/23
104.135.209.0/24
104.135.21.0/24
104.135.210.0/23
104.135.211.0/24
104.135.212.0/23
104.135.213.0/24
104.135.214.0/23
104.135.215.0/24
104.135.216.0/23
104.135.217.0/24
104.135.218.0/23
104.135.219.0/24
104.135.22.0/23
104.135.220.0/23
104.135.221.0/24
104.135.222.0/23
104.135.223.0/24
104.135.224.0/23
104.135.225.0/24
104.135.226.0/23
104.135.227.0/24
104.135.228.0/23
104.135.229.0/24
104.135.23.0/24
104.135.230.0/23
104.135.231.0/24
104.135.232.0/23
104.135.233.0/24
104.135.234.0/23
104.135.235.0/24
104.135.236.0/23
104.135.237.0/24
104.135.238.0/23
104.135.239.0/24
104.135.24.0/23
104.135.240.0/23
104.135.241.0/24
104.135.242.0/23
104.135.243.0/24
104.135.244.0/23
104.135.245.0/24
104.135.246.0/23
104.135.247.0/24
104.135.248.0/23
104.135.249.0/24
104.135.25.0/24
104.135.250.0/23
104.135.251.0/24
104.135.252.0/23
104.135.253.0/24
104.135.254.0/23
104.135.255.0/24
104.135.26.0/23
104.135.27.0/24
104.135.28.0/23
104.135.29.0/24
104.135.3.0/24
104.135.30.0/23
104.135.31.0/24
104.135.32.0/23
104.135.33.0/24
104.135.34.0/23
104.135.35.0/24
104.135.36.0/23
104.135.37.0/24
104.135.38.0/23
104.135.39.0/24
104.135.4.0/23
104.135.40.0/23
104.135.41.0/24
104.135.42.0/23
104.135.43.0/24
104.135.44.0/23
104.135.45.0/24
104.135.46.0/23
104.135.47.0/24
104.135.48.0/23
104.135.49.0/24
104.135.5.0/24
104.135.50.0/23
104.135.51.0/24
104.135.52.0/23
104.135.53.0/24
104.135.54.0/23
104.135.55.0/24
104.135.56.0/23
104.135.57.0/24
104.135.58.0/23
104.135.59.0/24
104.135.6.0/23
104.135.60.0/23
104.135.61.0/24
104.135.62.0/23
104.135.63.0/24
104.135.64.0/23
104.135.65.0/24
104.135.66.0/23
104.135.67.0/24
104.135.68.0/23
104.135.69.0/24
104.135.7.0/24
104.135.70.0/23
104.135.71.0/24
104.135.72.0/23
104.135.73.0/24
104.135.74.0/23
104.135.75.0/24
104.135.76.0/23
104.135.77.0/24
104.135.78.0/23
104.135.79.0/24
104.135.8.0/23
104.135.80.0/23
104.135.81.0/24
104.135.82.0/23
104.135.83.0/24
104.135.84.0/23
104.135.85.0/24
104.135.86.0/23
104.135.87.0/24
104.135.88.0/23
104.135.89.0/24
104.135.9.0/24
104.135.90.0/23
104.135.91.0/24
104.135.92.0/23
104.135.93.0/24
104.135.94.0/23
104.135.95.0/24
104.135.96.0/23
104.135.97.0/24
104.135.98.0/23
104.135.99.0/24
104.154.0.0/15
104.154.1.0/24
104.154.10.0/23
104.154.100.0/23
104.154.101.0/24
104.154.102.0/23
104.154.103.0/24
104.154.104.0/23
104.154.105.0/24
104.154.106.0/23
104.154.107.0/24
104.154.108.0/23
104.154.109.0/24
104.154.11.0/24
104.154.110.0/23
104.154.111.0/24
104.154.112.0/20
104.154.113.0/24
104.154.114.0/23
104.154.115.0/24
104.154.116.0/23
104.154.117.0/24
104.154.118.0/23
104.154.119.0/24
104.154.12.0/23
104.154.120.0/23
104.154.121.0/24
104.154.122.0/23
104.154.123.0/24
104.154.124.0/23
104.154.125.0/24
104.154.126.0/23
104.154.127.0/24
104.154.128.0/19
104.154.129.0/24
104.154.13.0/24
104.154.130.0/23
104.154.131.0/24
104.154.132.0/23
104.154.133.0/24
104.154.134.0/23
104.154.135.0/24
104.154.136.0/23
104.154.137.0/24
104.154.138.0/23
104.154.139.0/24
104.154.14.0/23
104.154.140.0/23
104.154.141.0/24
104.154.142.0/23
104.154.143.0/24
104.154.144.0/20
104.154.145.0/24
104.154.146.0/23
104.154.147.0/24
104.154.148.0/23
104.154.149.0/24
104.154.15.0/24
104.154.150.0/23
104.154.151.0/24
104.154.152.0/23
104.154.153.0/24
104.154.154.0/23
104.154.155.0/24
104.154.156.0/23
104.154.157.0/24
104.154.158.0/23
104.154.159.0/24
104.154.16.0/20
104.154.160.0/19
104.154.161.0/24
104.154.162.0/23
104.154.163.0/24
104.154.164.0/23
104.154.165.0/24
104.154.166.0/23
104.154.167.0/24
104.154.168.0/23
104.154.169.0/24
104.154.17.0/24
104.154.170.0/23
104.154.171.0/24
104.154.172.0/23
104.154.173.0/24
104.154.174.0/23
104.154.175.0/24
104.154.176.0/20
104.154.177.0/24
104.154.178.0/23
104.154.179.0/24
104.154.18.0/23
104.154.180.0/23
104.154.181.0/24
104.154.182.0/23
104.154.183.0/24
104.154.184.0/23
104.154.185.0/24
104.154.186.0/23
104.154.187.0/24
104.154.188.0/23
104.154.189.0/24
104.154.19.0/24
104.154.190.0/23
104.154.191.0/24
104.154.192.0/19
104.154.193.0/24
104.154.194.0/23
104.154.195.0/24
104.154.196.0/23
104.154.197.0/24
104.154.198.0/23
104.154.199.0/24
104.154.2.0/23
104.154.20.0/23
104.154.200.0/23
104.154.201.0/24
104.154.202.0/23
104.154.203.0/24
104.154.204.0/23
104.154.205.0/24
104.154.206.0/23
104.154.207.0/24
104.154.208.0/20
104.154.209.0/24
104.154.21.0/24
104.154.210.0/23
104.154.211.0/24
104.154.212.0/23
104.154.213.0/24
104.154.214.0/23
104.154.215.0/24
104.154.216.0/23
104.154.217.0/24
104.154.218.0/23
104.154.219.0/24
104.154.22.0/23
104.154.220.0/23
104.154.221.0/24
104.154.222.0/23
104.154.223.0/24
104.154.224.0/19
104.154.225.0/24
104.154.226.0/23
104.154.227.0/24
104.154.228.0/23
104.154.229.0/24
104.154.23.0/24
104.154.230.0/23
104.154.231.0/24
104.154.232.0/23
104.154.233.0/24
104.154.234.0/23
104.154.235.0/24
104.154.236.0/23
104.154.237.0/24
104.154.238.0/23
104.154.239.0/24
104.154.24.0/23
104.154.240.0/20
104.154.241.0/24
104.154.242.0/23
104.154.243.0/24
104.154.244.0/23
104.154.245.0/24
104.154.246.0/23
104.154.247.0/24
104.154.248.0/23
104.154.249.0/24
104.154.25.0/24
104.154.250.0/23
104.154.251.0/24
104.154.252.0/23
104.154.253.0/24
104.154.254.0/23
104.154.255.0/24
104.154.26.0/23
104.154.27.0/24
104.154.28.0/23
104.154.29.0/24
104.154.3.0/24
104.154.30.0/23
104.154.31.0/24
104.154.32.0/19
104.154.33.0/24
104.154.34.0/23
104.154.35.0/24
104.154.36.0/23
104.154.37.0/24
104.154.38.0/23
104.154.39.0/24
104.154.4.0/23
104.154.40.0/23
104.154.41.0/24
104.154.42.0/23
104.154.43.0/24
104.154.44.0/23
104.154.45.0/24
104.154.46.0/23
104.154.47.0/24
104.154.48.0/20
104.154.49.0/24
104.154.5.0/24
104.154.50.0/23
104.154.51.0/24
104.154.52.0/23
104.154.53.0/24
104.154.54.0/23
104.154.55.0/24
104.154.56.0/23
104.154.57.0/24
104.154.58.0/23
104.154.59.0/24
104.154.6.0/23
104.154.60.0/23
104.154.61.0/24
104.154.62.0/23
104.154.63.0/24
104.154.64.0/19
104.154.65.0/24
104.154.66.0/23
104.154.67.0/24
104.154.68.0/23
104.154.69.0/24
104.154.7.0/24
104.154.70.0/23
104.154.71.0/24
104.154.72.0/23
104.154.73.0/24
104.154.74.0/23
104.154.75.0/24
104.154.76.0/23
104.154.77.0/24
104.154.78.0/23
104.154.79.0/24
104.154.8.0/23
104.154.80.0/20
104.154.81.0/24
104.154.82.0/23
104.154.83.0/24
104.154.84.0/23
104.154.85.0/24
104.154.86.0/23
104.154.87.0/24
104.154.88.0/23
104.154.89.0/24
104.154.9.0/24
104.154.90.0/23
104.154.91.0/24
104.154.92.0/23
104.154.93.0/24
104.154.94.0/23
104.154.95.0/24
104.154.96.0/19
104.154.97.0/24
104.154.98.0/23
104.154.99.0/24
104.155.0.0/19
104.155.1.0/24
104.155.10.0/23
104.155.100.0/23
104.155.101.0/24
104.155.102.0/23
104.155.103.0/24
104.155.104.0/23
104.155.105.0/24
104.155.106.0/23
104.155.107.0/24
104.155.108.0/23
104.155.109.0/24
104.155.11.0/24
104.155.110.0/23
104.155.111.0/24
104.155.112.0/20
104.155.113.0/24
104.155.114.0/23
104.155.115.0/24
104.155.116.0/23
104.155.117.0/24
104.155.118.0/23
104.155.119.0/24
104.155.12.0/23
104.155.120.0/23
104.155.121.0/24
104.155.122.0/23
104.155.123.0/24
104.155.124.0/23
104.155.125.0/24
104.155.126.0/23
104.155.127.0/24
104.155.128.0/19
104.155.129.0/24
104.155.13.0/24
104.155.130.0/23
104.155.131.0/24
104.155.132.0/23
104.155.133.0/24
104.155.134.0/23
104.155.135.0/24
104.155.136.0/23
104.155.137.0/24
104.155.138.0/23
104.155.139.0/24
104.155.14.0/23
104.155.140.0/23
104.155.141.0/24
104.155.142.0/23
104.155.143.0/24
104.155.144.0/20
104.155.145.0/24
104.155.146.0/23
104.155.147.0/24
104.155.148.0/23
104.155.149.0/24
104.155.15.0/24
104.155.150.0/23
104.155.151.0/24
104.155.152.0/23
104.155.153.0/24
104.155.154.0/23
104.155.155.0/24
104.155.156.0/23
104.155.157.0/24
104.155.158.0/23
104.155.159.0/24
104.155.16.0/20
104.155.160.0/19
104.155.161.0/24
104.155.162.0/23
104.155.163.0/24
104.155.164.0/23
104.155.165.0/24
104.155.166.0/23
104.155.167.0/24
104.155.168.0/23
104.155.169.0/24
104.155.17.0/24
104.155.170.0/23
104.155.171.0/24
104.155.172.0/23
104.155.173.0/24
104.155.174.0/23
104.155.175.0/24
104.155.176.0/20
104.155.177.0/24
104.155.178.0/23
104.155.179.0/24
104.155.18.0/23
104.155.180.0/23
104.155.181.0/24
104.155.182.0/23
104.155.183.0/24
104.155.184.0/23
104.155.185.0/24
104.155.186.0/23
104.155.187.0/24
104.155.188.0/23
104.155.189.0/24
104.155.19.0/24
104.155.190.0/23
104.155.191.0/24
104.155.192.0/19
104.155.193.0/24
104.155.194.0/23
104.155.195.0/24
104.155.196.0/23
104.155.197.0/24
104.155.198.0/23
104.155.199.0/24
104.155.2.0/23
104.155.20.0/23
104.155.200.0/23
104.155.201.0/24
104.155.202.0/23
104.155.203.0/24
104.155.204.0/23
104.155.205.0/24
104.155.206.0/23
104.155.207.0/24
104.155.208.0/20
104.155.209.0/24
104.155.21.0/24
104.155.210.0/23
104.155.211.0/24
104.155.212.0/23
104.155.213.0/24
104.155.214.0/23
104.155.215.0/24
104.155.216.0/23
104.155.217.0/24
104.155.218.0/23
104.155.219.0/24
104.155.22.0/23
104.155.220.0/23
104.155.221.0/24
104.155.222.0/23
104.155.223.0/24
104.155.224.0/19
104.155.225.0/24
104.155.226.0/23
104.155.227.0/24
104.155.228.0/23
104.155.229.0/24
104.155.23.0/24
104.155.230.0/23
104.155.231.0/24
104.155.232.0/23
104.155.233.0/24
104.155.234.0/23
104.155.235.0/24
104.155.236.0/23
104.155.237.0/24
104.155.238.0/23
104.155.239.0/24
104.155.24.0/23
104.155.240.0/20
104.155.241.0/24
104.155.242.0/23
104.155.243.0/24
104.155.244.0/23
104.155.245.0/24
104.155.246.0/23
104.155.247.0/24
104.155.248.0/23
104.155.249.0/24
104.155.25.0/24
104.155.250.0/23
104.155.251.0/24
104.155.252.0/23
104.155.253.0/24
104.155.254.0/23
104.155.255.0/24
104.155.26.0/23
104.155.27.0/24
104.155.28.0/23
104.155.29.0/24
104.155.3.0/24
104.155.30.0/23
104.155.31.0/24
104.155.32.0/19
104.155.33.0/24
104.155.34.0/23
104.155.35.0/24
104.155.36.0/23
104.155.37.0/24
104.155.38.0/23
104.155.39.0/24
104.155.4.0/23
104.155.40.0/23
104.155.41.0/24
104.155.42.0/23
104.155.43.0/24
104.155.44.0/23
104.155.45.0/24
104.155.46.0/23
104.155.47.0/24
104.155.48.0/20
104.155.49.0/24
104.155.5.0/24
104.155.50.0/23
104.155.51.0/24
104.155.52.0/23
104.155.53.0/24
104.155.54.0/23
104.155.55.0/24
104.155.56.0/23
104.155.57.0/24
104.155.58.0/23
104.155.59.0/24
104.155.6.0/23
104.155.60.0/23
104.155.61.0/24
104.155.62.0/23
104.155.63.0/24
104.155.64.0/19
104.155.65.0/24
104.155.66.0/23
104.155.67.0/24
104.155.68.0/23
104.155.69.0/24
104.155.7.0/24
104.155.70.0/23
104.155.71.0/24
104.155.72.0/23
104.155.73.0/24
104.155.74.0/23
104.155.75.0/24
104.155.76.0/23
104.155.77.0/24
104.155.78.0/23
104.155.79.0/24
104.155.8.0/23
104.155.80.0/20
104.155.81.0/24
104.155.82.0/23
104.155.83.0/24
104.155.84.0/23
104.155.85.0/24
104.155.86.0/23
104.155.87.0/24
104.155.88.0/23
104.155.89.0/24
104.155.9.0/24
104.155.90.0/23
104.155.91.0/24
104.155.92.0/23
104.155.93.0/24
104.155.94.0/23
104.155.95.0/24
104.155.96.0/19
104.155.97.0/24
104.155.98.0/23
104.155.99.0/24
104.196.0.0/14
104.196.112.0/20
104.196.128.0/19
104.196.144.0/20
104.196.16.0/20
104.196.160.0/19
104.196.176.0/20
104.196.192.0/19
104.196.208.0/20
104.196.224.0/19
104.196.240.0/20
104.196.32.0/19
104.196.48.0/20
104.196.64.0/19
104.196.80.0/20
104.196.96.0/19
104.197.0.0/19
104.197.112.0/20
104.197.128.0/19
104.197.144.0/20
104.197.16.0/20
104.197.160.0/19
104.197.176.0/20
104.197.192.0/19
104.197.208.0/20
104.197.224.0/19
104.197.240.0/20
104.197.32.0/19
104.197.48.0/20
104.197.64.0/19
104.197.80.0/20
104.197.96.0/19
104.198.0.0/19
104.198.112.0/20
104.198.128.0/19
104.198.144.0/20
104.198.16.0/20
104.198.160.0/19
104.198.176.0/20
104.198.192.0/19
104.198.208.0/20
104.198.224.0/19
104.198.240.0/20
104.198.32.0/19
104.198.48.0/20
104.198.64.0/19
104.198.80.0/20
104.198.96.0/19
104.199.0.0/19
104.199.112.0/20
104.199.128.0/19
104.199.144.0/20
104.199.16.0/20
104.199.160.0/19
104.199.176.0/20
104.199.192.0/19
104.199.208.0/20
104.199.224.0/19
104.199.240.0/20
104.199.32.0/19
104.199.48.0/20
104.199.64.0/19
104.199.80.0/20
104.199.96.0/19
104.237.160.0/19
104.237.161.0/24
104.237.162.0/24
104.237.163.0/24
104.237.164.0/24
104.237.165.0/24
104.237.167.0/24
104.237.168.0/24
104.237.169.0/24
104.237.170.0/24
104.237.171.0/24
104.237.172.0/24
104.237.174.0/24
104.237.175.0/24
104.237.188.0/24
104.237.189.0/24
104.237.190.0/24
104.237.191.0/24
107.167.160.0/19
107.167.161.0/24
107.167.162.0/23
107.167.163.0/24
107.167.164.0/23
107.167.165.0/24
107.167.166.0/23
107.167.167.0/24
107.167.168.0/23
107.167.169.0/24
107.167.170.0/23
107.167.171.0/24
107.167.172.0/23
107.167.173.0/24
107.167.174.0/23
107.167.175.0/24
107.167.176.0/20
107.167.177.0/24
107.167.178.0/23
107.167.179.0/24
107.167.180.0/23
107.167.181.0/24
107.167.182.0/23
107.167.183.0/24
107.167.184.0/23
107.167.185.0/24
107.167.186.0/23
107.167.187.0/24
107.167.188.0/23
107.167.189.0/24
107.167.190.0/23
107.167.191.0/24
107.178.192.0/18
107.178.193.0/24
107.178.194.0/23
107.178.195.0/24
107.178.196.0/23
107.178.197.0/24
107.178.198.0/23
107.178.199.0/24
107.178.200.0/23
107.178.201.0/24
107.178.202.0/23
107.178.203.0/24
107.178.204.0/23
107.178.205.0/24
107.178.206.0/23
107.178.207.0/24
107.178.208.0/20
107.178.209.0/24
107.178.210.0/23
107.178.211.0/24
107.178.212.0/23
107.178.213.0/24
107.178.214.0/23
107.178.215.0/24
107.178.216.0/23
107.178.217.0/24
107.178.218.0/23
107.178.219.0/24
107.178.220.0/23
107.178.221.0/24
107.178.222.0/23
107.178.223.0/24
107.178.224.0/19
107.178.225.0/24
107.178.226.0/23
107.178.227.0/24
107.178.228.0/23
107.178.229.0/24
107.178.230.0/23
107.178.231.0/24
107.178.232.0/23
107.178.233.0/24
107.178.234.0/23
107.178.235.0/24
107.178.236.0/23
107.178.237.0/24
107.178.238.0/23
107.178.239.0/24
107.178.240.0/20
107.178.241.0/24
107.178.242.0/23
107.178.243.0/24
107.178.244.0/23
107.178.245.0/24
107.178.246.0/23
107.178.247.0/24
107.178.248.0/23
107.178.249.0/24
107.178.250.0/23
107.178.251.0/24
107.178.252.0/23
107.178.253.0/24
107.178.254.0/23
107.178.255.0/24
107.188.128.0/17
108.170.192.0/18
108.170.193.0/24
108.170.194.0/23
108.170.195.0/24
108.170.196.0/23
108.170.197.0/24
108.170.198.0/23
108.170.199.0/24
108.170.200.0/23
108.170.201.0/24
108.170.202.0/23
108.170.203.0/24
108.170.204.0/23
108.170.205.0/24
108.170.206.0/23
108.170.207.0/24
108.170.208.0/23
108.170.209.0/24
108.170.210.0/23
108.170.211.0/24
108.170.212.0/23
108.170.213.0/24
108.170.214.0/23
108.170.215.0/24
108.170.216.0/23
108.170.217.0/24
108.170.218.0/23
108.170.219.0/24
108.170.220.0/23
108.170.221.0/24
108.170.222.0/23
108.170.223.0/24
108.170.224.0/23
108.170.225.0/24
108.170.226.0/23
108.170.227.0/24
108.170.228.0/23
108.170.229.0/24
108.170.230.0/23
108.170.231.0/24
108.170.232.0/23
108.170.233.0/24
108.170.234.0/23
108.170.235.0/24
108.170.236.0/23
108.170.237.0/24
108.170.238.0/23
108.170.239.0/24
108.170.240.0/23
108.170.241.0/24
108.170.242.0/23
108.170.243.0/24
108.170.244.0/23
108.170.245.0/24
108.170.246.0/23
108.170.247.0/24
108.170.248.0/23
108.170.249.0/24
108.170.250.0/23
108.170.251.0/24
108.170.252.0/23
108.170.253.0/24
108.170.254.0/23
108.170.255.0/24
108.177.0.0/17
108.177.1.0/24
108.177.10.0/23
108.177.100.0/23
108.177.101.0/24
108.177.102.0/23
108.177.103.0/24
108.177.104.0/23
108.177.105.0/24
108.177.106.0/23
108.177.107.0/24
108.177.108.0/23
108.177.109.0/24
108.177.11.0/24
108.177.110.0/23
108.177.111.0/24
108.177.112.0/23
108.177.113.0/24
108.177.114.0/23
108.177.115.0/24
108.177.116.0/23
108.177.117.0/24
108.177.118.0/23
108.177.119.0/24
108.177.12.0/23
108.177.120.0/23
108.177.121.0/24
108.177.122.0/23
108.177.123.0/24
108.177.124.0/23
108.177.125.0/24
108.177.126.0/23
108.177.127.0/24
108.177.13.0/24
108.177.14.0/23
108.177.15.0/24
108.177.16.0/23
108.177.17.0/24
108.177.18.0/23
108.177.19.0/24
108.177.2.0/23
108.177.20.0/23
108.177.21.0/24
108.177.22.0/23
108.177.23.0/24
108.177.24.0/23
108.177.25.0/24
108.177.26.0/23
108.177.27.0/24
108.177.28.0/23
108.177.29.0/24
108.177.3.0/24
108.177.30.0/23
108.177.31.0/24
108.177.32.0/23
108.177.33.0/24
108.177.34.0/23
108.177.35.0/24
108.177.36.0/23
108.177.37.0/24
108.177.38.0/23
108.177.39.0/24
108.177.4.0/23
108.177.40.0/23
108.177.41.0/24
108.177.42.0/23
108.177.43.0/24
108.177.44.0/23
108.177.45.0/24
108.177.46.0/23
108.177.47.0/24
108.177.48.0/23
108.177.49.0/24
108.177.5.0/24
108.177.50.0/23
108.177.51.0/24
108.177.52.0/23
108.177.53.0/24
108.177.54.0/23
108.177.55.0/24
108.177.56.0/23
108.177.57.0/24
108.177.58.0/23
108.177.59.0/24
108.177.6.0/23
108.177.60.0/23
108.177.61.0/24
108.177.62.0/23
108.177.63.0/24
108.177.64.0/23
108.177.65.0/24
108.177.66.0/23
108.177.67.0/24
108.177.68.0/23
108.177.69.0/24
108.177.7.0/24
108.177.70.0/23
108.177.71.0/24
108.177.72.0/23
108.177.73.0/24
108.177.74.0/23
108.177.75.0/24
108.177.76.0/23
108.177.77.0/24
108.177.78.0/23
108.177.79.0/24
108.177.8.0/23
108.177.80.0/23
108.177.81.0/24
108.177.82.0/23
108.177.83.0/24
108.177.84.0/23
108.177.85.0/24
108.177.86.0/23
108.177.87.0/24
108.177.88.0/23
108.177.89.0/24
108.177.9.0/24
108.177.90.0/23
108.177.91.0/24
108.177.92.0/23
108.177.93.0/24
108.177.94.0/23
108.177.95.0/24
108.177.96.0/23
108.177.97.0/24
108.177.98.0/23
108.177.99.0/24
108.59.80.0/20
108.59.81.0/24
108.59.82.0/23
108.59.83.0/24
108.59.84.0/23
108.59.85.0/24
108.59.86.0/23
108.59.87.0/24
108.59.88.0/23
108.59.89.0/24
108.59.90.0/23
108.59.91.0/24
108.59.92.0/23
108.59.93.0/24
108.59.94.0/23
108.59.95.0/24
113.197.104.0/22
113.197.105.0/24
113.197.106.0/23
113.197.107.0/24
12.216.80.0/24
130.211.0.0/16
130.211.1.0/24
130.211.10.0/23
130.211.100.0/23
130.211.101.0/24
130.211.102.0/23
130.211.103.0/24
130.211.104.0/23
130.211.105.0/24
130.211.106.0/23
130.211.107.0/24
130.211.108.0/23
130.211.109.0/24
130.211.11.0/24
130.211.110.0/23
130.211.111.0/24
130.211.112.0/20
130.211.113.0/24
130.211.114.0/23
130.211.115.0/24
130.211.116.0/23
130.211.117.0/24
130.211.118.0/23
130.211.119.0/24
130.211.12.0/23
130.211.120.0/23
130.211.121.0/24
130.211.122.0/23
130.211.123.0/24
130.211.124.0/23
130.211.125.0/24
130.211.126.0/23
130.211.127.0/24
130.211.128.0/17
130.211.129.0/24
130.211.13.0/24
130.211.130.0/23
130.211.131.0/24
130.211.132.0/23
130.211.133.0/24
130.211.134.0/23
130.211.135.0/24
130.211.136.0/23
130.211.137.0/24
130.211.138.0/23
130.211.139.0/24
130.211.14.0/23
130.211.140.0/23
130.211.141.0/24
130.211.142.0/23
130.211.143.0/24
130.211.144.0/20
130.211.145.0/24
130.211.146.0/23
130.211.147.0/24
130.211.148.0/23
130.211.149.0/24
130.211.15.0/24
130.211.150.0/23
130.211.151.0/24
130.211.152.0/23
130.211.153.0/24
130.211.154.0/23
130.211.155.0/24
130.211.156.0/23
130.211.157.0/24
130.211.158.0/23
130.211.159.0/24
130.211.16.0/20
130.211.160.0/19
130.211.161.0/24
130.211.162.0/23
130.211.163.0/24
130.211.164.0/23
130.211.165.0/24
130.211.166.0/23
130.211.167.0/24
130.211.168.0/23
130.211.169.0/24
130.211.17.0/24
130.211.170.0/23
130.211.171.0/24
130.211.172.0/23
130.211.173.0/24
130.211.174.0/23
130.211.175.0/24
130.211.176.0/20
130.211.177.0/24
130.211.178.0/23
130.211.179.0/24
130.211.18.0/23
130.211.180.0/23
130.211.181.0/24
130.211.182.0/23
130.211.183.0/24
130.211.184.0/23
130.211.185.0/24
130.211.186.0/23
130.211.187.0/24
130.211.188.0/23
130.211.189.0/24
130.211.19.0/24
130.211.190.0/23
130.211.191.0/24
130.211.192.0/19
130.211.193.0/24
130.211.194.0/23
130.211.195.0/24
130.211.196.0/23
130.211.197.0/24
130.211.198.0/23
130.211.199.0/24
130.211.2.0/23
130.211.20.0/23
130.211.200.0/23
130.211.201.0/24
130.211.202.0/23
130.211.203.0/24
130.211.204.0/23
130.211.205.0/24
130.211.206.0/23
130.211.207.0/24
130.211.208.0/20
130.211.209.0/24
130.211.21.0/24
130.211.210.0/23
130.211.211.0/24
130.211.212.0/23
130.211.213.0/24
130.211.214.0/23
130.211.215.0/24
130.211.216.0/23
130.211.217.0/24
130.211.218.0/23
130.211.219.0/24
130.211.22.0/23
130.211.220.0/23
130.211.221.0/24
130.211.222.0/23
130.211.223.0/24
130.211.224.0/19
130.211.225.0/24
130.211.226.0/23
130.211.227.0/24
130.211.228.0/23
130.211.229.0/24
130.211.23.0/24
130.211.230.0/23
130.211.231.0/24
130.211.232.0/23
130.211.233.0/24
130.211.234.0/23
130.211.235.0/24
130.211.236.0/23
130.211.237.0/24
130.211.238.0/23
130.211.239.0/24
130.211.24.0/23
130.211.240.0/20
130.211.241.0/24
130.211.242.0/23
130.211.243.0/24
130.211.244.0/23
130.211.245.0/24
130.211.246.0/23
130.211.247.0/24
130.211.248.0/23
130.211.249.0/24
130.211.25.0/24
130.211.250.0/23
130.211.251.0/24
130.211.252.0/23
130.211.253.0/24
130.211.254.0/23
130.211.255.0/24
130.211.26.0/23
130.211.27.0/24
130.211.28.0/23
130.211.29.0/24
130.211.3.0/24
130.211.30.0/23
130.211.31.0/24
130.211.32.0/19
130.211.33.0/24
130.211.34.0/23
130.211.35.0/24
130.211.36.0/23
130.211.37.0/24
130.211.38.0/23
130.211.39.0/24
130.211.4.0/22
130.211.40.0/23
130.211.41.0/24
130.211.42.0/23
130.211.43.0/24
130.211.44.0/23
130.211.45.0/24
130.211.46.0/23
130.211.47.0/24
130.211.48.0/20
130.211.49.0/24
130.211.5.0/24
130.211.50.0/23
130.211.51.0/24
130.211.52.0/23
130.211.53.0/24
130.211.54.0/23
130.211.55.0/24
130.211.56.0/23
130.211.57.0/24
130.211.58.0/23
130.211.59.0/24
130.211.6.0/23
130.211.60.0/23
130.211.61.0/24
130.211.62.0/23
130.211.63.0/24
130.211.64.0/18
130.211.65.0/24
130.211.66.0/23
130.211.67.0/24
130.211.68.0/23
130.211.69.0/24
130.211.7.0/24
130.211.70.0/23
130.211.71.0/24
130.211.72.0/23
130.211.73.0/24
130.211.74.0/23
130.211.75.0/24
130.211.76.0/23
130.211.77.0/24
130.211.78.0/23
130.211.79.0/24
130.211.8.0/21
130.211.80.0/20
130.211.81.0/24
130.211.82.0/23
130.211.83.0/24
130.211.84.0/23
130.211.85.0/24
130.211.86.0/23
130.211.87.0/24
130.211.88.0/23
130.211.89.0/24
130.211.9.0/24
130.211.90.0/23
130.211.91.0/24
130.211.92.0/23
130.211.93.0/24
130.211.94.0/23
130.211.95.0/24
130.211.96.0/19
130.211.97.0/24
130.211.98.0/23
130.211.99.0/24
136.112.0.0/12
136.22.0.0/23
136.22.1.0/24
136.22.100.0/24
136.22.101.0/24
136.22.103.0/24
136.22.104.0/24
136.22.105.0/24
136.22.106.0/24
136.22.108.0/24
136.22.109.0/24
136.22.110.0/24
136.22.111.0/24
136.22.113.0/24
136.22.114.0/24
136.22.117.0/24
136.22.118.0/24
136.22.119.0/24
136.22.120.0/22
136.22.129.0/24
136.22.130.0/24
136.22.131.0/24
136.22.159.0/24
136.22.192.0/24
136.22.224.0/24
136.22.225.0/24
136.22.226.0/24
136.22.227.0/24
136.22.64.0/18
136.22.65.0/24
136.22.67.0/24
136.22.68.0/24
136.22.69.0/24
136.22.70.0/24
136.22.72.0/22
136.22.76.0/22
136.22.83.0/24
136.22.84.0/24
136.22.85.0/24
136.22.86.0/23
136.22.87.0/24
136.22.88.0/22
136.22.92.0/24
136.22.94.0/24
136.22.95.0/24
136.22.96.0/24
136.22.97.0/24
136.22.98.0/24
136.22.99.0/24
136.32.0.0/11
136.32.112.0/20
136.32.128.0/20
136.32.144.0/20
136.32.16.0/20
136.32.160.0/20
136.32.192.0/20
136.32.208.0/20
136.32.32.0/20
136.32.48.0/20
136.32.64.0/20
136.32.80.0/20
136.32.96.0/20
136.33.160.0/20
136.33.176.0/20
136.33.240.0/20
136.34.0.0/20
136.34.128.0/20
136.34.144.0/20
136.34.16.0/20
136.34.160.0/20
136.34.192.0/20
136.34.208.0/20
136.34.224.0/20
136.34.32.0/20
136.34.48.0/20
136.34.64.0/20
136.34.80.0/20
136.34.96.0/20
136.35.0.0/20
136.35.112.0/20
136.35.128.0/20
136.35.144.0/20
136.35.16.0/20
136.35.160.0/20
136.35.176.0/20
136.35.192.0/20
136.35.208.0/20
136.35.224.0/20
136.35.240.0/20
136.35.48.0/20
136.35.64.0/20
136.35.80.0/20
136.36.0.0/20
136.36.112.0/20
136.36.128.0/20
136.36.144.0/20
136.36.160.0/20
136.36.192.0/20
136.36.208.0/20
136.36.64.0/20
136.36.96.0/20
136.37.0.0/20
136.37.128.0/20
136.37.16.0/20
136.37.160.0/20
136.37.176.0/20
136.37.192.0/20
136.37.208.0/20
136.37.32.0/20
136.37.48.0/20
136.37.64.0/20
136.37.80.0/20
136.37.96.0/20
136.42.24.0/21
136.49.0.0/20
136.49.112.0/20
136.49.144.0/20
136.49.176.0/20
136.49.208.0/20
136.49.240.0/20
136.49.32.0/20
136.49.48.0/20
136.49.80.0/20
136.50.0.0/20
136.50.16.0/20
136.50.48.0/20
136.50.64.0/20
136.52.0.0/20
136.52.64.0/20
136.52.96.0/20
136.53.32.0/20
136.53.80.0/20
136.55.0.0/20
136.55.144.0/20
136.55.16.0/20
136.55.160.0/20
136.55.224.0/20
136.55.240.0/20
136.55.32.0/20
136.55.48.0/20
136.55.80.0/20
136.56.0.0/20
136.56.160.0/20
136.56.32.0/20
136.56.80.0/20
136.56.96.0/20
136.57.160.0/20
136.57.192.0/20
136.57.208.0/20
136.58.80.0/20
136.60.128.0/20
136.61.208.0/20
136.62.0.0/20
136.62.160.0/20
136.62.240.0/20
142.250.0.0/15
142.250.1.0/24
142.250.10.0/23
142.250.100.0/23
142.250.101.0/24
142.250.102.0/23
142.250.103.0/24
142.250.104.0/23
142.250.105.0/24
142.250.106.0/23
142.250.107.0/24
142.250.108.0/23
142.250.109.0/24
142.250.11.0/24
142.250.110.0/23
142.250.111.0/24
142.250.112.0/23
142.250.113.0/24
142.250.114.0/23
142.250.115.0/24
142.250.116.0/23
142.250.117.0/24
142.250.118.0/23
142.250.119.0/24
142.250.12.0/23
142.250.120.0/23
142.250.121.0/24
142.250.122.0/23
142.250.123.0/24
142.250.124.0/23
142.250.125.0/24
142.250.126.0/23
142.250.127.0/24
142.250.128.0/23
142.250.129.0/24
142.250.13.0/24
142.250.130.0/23
142.250.131.0/24
142.250.132.0/23
142.250.133.0/24
142.250.134.0/23
142.250.135.0/24
142.250.136.0/23
142.250.137.0/24
142.250.138.0/23
142.250.139.0/24
142.250.14.0/23
142.250.140.0/23
142.250.141.0/24
142.250.142.0/23
142.250.143.0/24
142.250.144.0/23
142.250.145.0/24
142.250.146.0/23
142.250.147.0/24
142.250.148.0/23
142.250.149.0/24
142.250.15.0/24
142.250.150.0/23
142.250.151.0/24
142.250.152.0/23
142.250.153.0/24
142.250.154.0/23
142.250.155.0/24
142.250.156.0/23
142.250.157.0/24
142.250.158.0/23
142.250.159.0/24
142.250.16.0/23
142.250.160.0/23
142.250.161.0/24
142.250.162.0/23
142.250.163.0/24
142.250.164.0/23
142.250.165.0/24
142.250.166.0/23
142.250.167.0/24
142.250.168.0/23
142.250.169.0/24
142.250.17.0/24
142.250.170.0/23
142.250.171.0/24
142.250.172.0/23
142.250.173.0/24
142.250.174.0/23
142.250.175.0/24
142.250.176.0/23
142.250.177.0/24
142.250.178.0/23
142.250.179.0/24
142.250.18.0/23
142.250.180.0/23
142.250.181.0/24
142.250.182.0/23
142.250.183.0/24
142.250.184.0/23
142.250.185.0/24
142.250.186.0/23
142.250.187.0/24
142.250.188.0/23
142.250.189.0/24
142.250.19.0/24
142.250.190.0/23
142.250.191.0/24
142.250.192.0/23
142.250.193.0/24
142.250.194.0/23
142.250.195.0/24
142.250.196.0/23
142.250.197.0/24
142.250.198.0/23
142.250.199.0/24
142.250.2.0/23
142.250.20.0/23
142.250.200.0/23
142.250.201.0/24
142.250.202.0/23
142.250.203.0/24
142.250.204.0/23
142.250.205.0/24
142.250.206.0/23
142.250.207.0/24
142.250.208.0/23
142.250.209.0/24
142.250.21.0/24
142.250.210.0/23
142.250.211.0/24
142.250.212.0/23
142.250.213.0/24
142.250.214.0/23
142.250.215.0/24
142.250.216.0/23
142.250.217.0/24
142.250.218.0/23
142.250.219.0/24
142.250.22.0/23
142.250.220.0/23
142.250.221.0/24
142.250.222.0/23
142.250.223.0/24
142.250.224.0/23
142.250.225.0/24
142.250.226.0/23
142.250.227.0/24
142.250.228.0/23
142.250.229.0/24
142.250.23.0/24
142.250.230.0/23
142.250.231.0/24
142.250.232.0/23
142.250.233.0/24
142.250.234.0/23
142.250.235.0/24
142.250.236.0/23
142.250.237.0/24
142.250.238.0/23
142.250.239.0/24
142.250.24.0/23
142.250.240.0/23
142.250.241.0/24
142.250.242.0/23
142.250.243.0/24
142.250.244.0/23
142.250.245.0/24
142.250.246.0/23
142.250.247.0/24
142.250.248.0/23
142.250.249.0/24
142.250.25.0/24
142.250.250.0/23
142.250.251.0/24
142.250.252.0/23
142.250.253.0/24
142.250.254.0/23
142.250.255.0/24
142.250.26.0/23
142.250.27.0/24
142.250.28.0/23
142.250.29.0/24
142.250.3.0/24
142.250.30.0/23
142.250.31.0/24
142.250.32.0/23
142.250.33.0/24
142.250.34.0/23
142.250.35.0/24
142.250.36.0/23
142.250.37.0/24
142.250.38.0/23
142.250.39.0/24
142.250.4.0/23
142.250.40.0/23
142.250.41.0/24
142.250.42.0/23
142.250.43.0/24
142.250.44.0/23
142.250.45.0/24
142.250.46.0/23
142.250.47.0/24
142.250.48.0/23
142.250.49.0/24
142.250.5.0/24
142.250.50.0/23
142.250.51.0/24
142.250.52.0/23
142.250.53.0/24
142.250.54.0/23
142.250.55.0/24
142.250.56.0/23
142.250.57.0/24
142.250.58.0/23
142.250.59.0/24
142.250.6.0/23
142.250.60.0/23
142.250.61.0/24
142.250.62.0/23
142.250.63.0/24
142.250.64.0/23
142.250.65.0/24
142.250.66.0/23
142.250.67.0/24
142.250.68.0/23
142.250.69.0/24
142.250.7.0/24
142.250.70.0/23
142.250.71.0/24
142.250.72.0/23
142.250.73.0/24
142.250.74.0/23
142.250.75.0/24
142.250.76.0/23
142.250.77.0/24
142.250.78.0/23
142.250.79.0/24
142.250.8.0/23
142.250.80.0/23
142.250.81.0/24
142.250.82.0/23
142.250.83.0/24
142.250.84.0/23
142.250.85.0/24
142.250.86.0/23
142.250.87.0/24
142.250.88.0/23
142.250.89.0/24
142.250.9.0/24
142.250.90.0/23
142.250.91.0/24
142.250.92.0/23
142.250.93.0/24
142.250.94.0/23
142.250.95.0/24
142.250.96.0/23
142.250.97.0/24
142.250.98.0/23
142.250.99.0/24
142.251.0.0/23
142.251.1.0/24
142.251.10.0/23
142.251.100.0/23
142.251.101.0/24
142.251.102.0/23
142.251.103.0/24
142.251.104.0/23
142.251.105.0/24
142.251.106.0/23
142.251.107.0/24
142.251.108.0/23
142.251.109.0/24
142.251.11.0/24
142.251.110.0/23
142.251.111.0/24
142.251.112.0/23
142.251.113.0/24
142.251.114.0/23
142.251.115.0/24
142.251.116.0/23
142.251.117.0/24
142.251.118.0/23
142.251.119.0/24
142.251.12.0/23
142.251.120.0/23
142.251.121.0/24
142.251.122.0/23
142.251.123.0/24
142.251.124.0/23
142.251.125.0/24
142.251.126.0/23
142.251.127.0/24
142.251.128.0/23
142.251.129.0/24
142.251.13.0/24
142.251.130.0/23
142.251.131.0/24
142.251.132.0/23
142.251.133.0/24
142.251.134.0/23
142.251.135.0/24
142.251.136.0/23
142.251.137.0/24
142.251.138.0/23
142.251.139.0/24
142.251.14.0/23
142.251.140.0/23
142.251.141.0/24
142.251.142.0/23
142.251.143.0/24
142.251.144.0/23
142.251.145.0/24
142.251.146.0/23
142.251.147.0/24
142.251.148.0/23
142.251.149.0/24
142.251.15.0/24
142.251.150.0/23
142.251.151.0/24
142.251.152.0/23
142.251.153.0/24
142.251.154.0/23
142.251.155.0/24
142.251.156.0/23
142.251.157.0/24
142.251.158.0/23
142.251.159.0/24
142.251.16.0/23
142.251.160.0/23
142.251.161.0/24
142.251.162.0/23
142.251.163.0/24
142.251.164.0/23
142.251.165.0/24
142.251.166.0/23
142.251.167.0/24
142.251.168.0/23
142.251.169.0/24
142.251.17.0/24
142.251.170.0/23
142.251.171.0/24
142.251.172.0/23
142.251.173.0/24
142.251.174.0/23
142.251.175.0/24
142.251.176.0/23
142.251.177.0/24
142.251.178.0/23
142.251.179.0/24
142.251.18.0/23
142.251.180.0/23
142.251.181.0/24
142.251.182.0/23
142.251.183.0/24
142.251.184.0/23
142.251.185.0/24
142.251.186.0/23
142.251.187.0/24
142.251.188.0/23
142.251.189.0/24
142.251.19.0/24
142.251.190.0/23
142.251.191.0/24
142.251.192.0/23
142.251.193.0/24
142.251.194.0/23
142.251.195.0/24
142.251.196.0/23
142.251.197.0/24
142.251.198.0/23
142.251.199.0/24
142.251.2.0/23
142.251.20.0/23
142.251.200.0/23
142.251.201.0/24
142.251.202.0/23
142.251.203.0/24
142.251.204.0/23
142.251.205.0/24
142.251.206.0/23
142.251.207.0/24
142.251.208.0/23
142.251.209.0/24
142.251.21.0/24
142.251.210.0/23
142.251.211.0/24
142.251.212.0/23
142.251.213.0/24
142.251.214.0/23
142.251.215.0/24
142.251.216.0/23
142.251.217.0/24
142.251.218.0/23
142.251.219.0/24
142.251.22.0/23
142.251.220.0/23
142.251.221.0/24
142.251.222.0/23
142.251.223.0/24
142.251.224.0/23
142.251.225.0/24
142.251.226.0/23
142.251.227.0/24
142.251.228.0/23
142.251.229.0/24
142.251.23.0/24
142.251.230.0/23
142.251.231.0/24
142.251.232.0/23
142.251.233.0/24
142.251.234.0/23
142.251.235.0/24
142.251.236.0/23
142.251.237.0/24
142.251.238.0/23
142.251.239.0/24
142.251.24.0/23
142.251.240.0/23
142.251.241.0/24
142.251.242.0/23
142.251.243.0/24
142.251.244.0/23
142.251.245.0/24
142.251.246.0/23
142.251.247.0/24
142.251.248.0/23
142.251.249.0/24
142.251.25.0/24
142.251.250.0/23
142.251.251.0/24
142.251.252.0/23
142.251.253.0/24
142.251.254.0/23
142.251.255.0/24
142.251.26.0/23
142.251.27.0/24
142.251.28.0/23
142.251.29.0/24
142.251.3.0/24
142.251.30.0/23
142.251.31.0/24
142.251.32.0/23
142.251.33.0/24
142.251.34.0/23
142.251.35.0/24
142.251.36.0/23
142.251.37.0/24
142.251.38.0/23
142.251.39.0/24
142.251.4.0/23
142.251.40.0/23
142.251.41.0/24
142.251.42.0/23
142.251.43.0/24
142.251.44.0/23
142.251.45.0/24
142.251.46.0/23
142.251.47.0/24
142.251.48.0/23
142.251.49.0/24
142.251.5.0/24
142.251.50.0/23
142.251.51.0/24
142.251.52.0/23
142.251.53.0/24
142.251.54.0/23
142.251.55.0/24
142.251.56.0/23
142.251.57.0/24
142.251.58.0/23
142.251.59.0/24
142.251.6.0/23
142.251.60.0/23
142.251.61.0/24
142.251.62.0/23
142.251.63.0/24
142.251.64.0/23
142.251.65.0/24
142.251.66.0/23
142.251.67.0/24
142.251.68.0/23
142.251.69.0/24
142.251.7.0/24
142.251.70.0/23
142.251.71.0/24
142.251.72.0/23
142.251.73.0/24
142.251.74.0/23
142.251.75.0/24
142.251.76.0/23
142.251.77.0/24
142.251.78.0/23
142.251.79.0/24
142.251.8.0/23
142.251.80.0/23
142.251.81.0/24
142.251.82.0/23
142.251.83.0/24
142.251.84.0/23
142.251.85.0/24
142.251.86.0/23
142.251.87.0/24
142.251.88.0/23
142.251.89.0/24
142.251.9.0/24
142.251.90.0/23
142.251.91.0/24
142.251.92.0/23
142.251.93.0/24
142.251.94.0/23
142.251.95.0/24
142.251.96.0/23
142.251.97.0/24
142.251.98.0/23
142.251.99.0/24
146.148.0.0/17
146.148.1.0/24
146.148.10.0/23
146.148.100.0/23
146.148.101.0/24
146.148.102.0/23
146.148.103.0/24
146.148.104.0/23
146.148.105.0/24
146.148.106.0/23
146.148.107.0/24
146.148.108.0/23
146.148.109.0/24
146.148.11.0/24
146.148.110.0/23
146.148.111.0/24
146.148.112.0/20
146.148.113.0/24
146.148.114.0/23
146.148.115.0/24
146.148.116.0/23
146.148.117.0/24
146.148.118.0/23
146.148.119.0/24
146.148.12.0/23
146.148.120.0/23
146.148.121.0/24
146.148.122.0/23
146.148.123.0/24
146.148.124.0/23
146.148.125.0/24
146.148.126.0/23
146.148.127.0/24
146.148.13.0/24
146.148.14.0/23
146.148.15.0/24
146.148.16.0/20
146.148.17.0/24
146.148.18.0/23
146.148.19.0/24
146.148.2.0/23
146.148.20.0/23
146.148.21.0/24
146.148.22.0/23
146.148.23.0/24
146.148.24.0/23
146.148.25.0/24
146.148.26.0/23
146.148.27.0/24
146.148.28.0/23
146.148.29.0/24
146.148.3.0/24
146.148.30.0/23
146.148.31.0/24
146.148.32.0/19
146.148.33.0/24
146.148.34.0/23
146.148.35.0/24
146.148.36.0/23
146.148.37.0/24
146.148.38.0/23
146.148.39.0/24
146.148.4.0/22
146.148.40.0/23
146.148.41.0/24
146.148.42.0/23
146.148.43.0/24
146.148.44.0/23
146.148.45.0/24
146.148.46.0/23
146.148.47.0/24
146.148.48.0/20
146.148.49.0/24
146.148.5.0/24
146.148.50.0/23
146.148.51.0/24
146.148.52.0/23
146.148.53.0/24
146.148.54.0/23
146.148.55.0/24
146.148.56.0/23
146.148.57.0/24
146.148.58.0/23
146.148.59.0/24
146.148.6.0/23
146.148.60.0/23
146.148.61.0/24
146.148.62.0/23
146.148.63.0/24
146.148.64.0/18
146.148.65.0/24
146.148.66.0/23
146.148.67.0/24
146.148.68.0/23
146.148.69.0/24
146.148.7.0/24
146.148.70.0/23
146.148.71.0/24
146.148.72.0/23
146.148.73.0/24
146.148.74.0/23
146.148.75.0/24
146.148.76.0/23
146.148.77.0/24
146.148.78.0/23
146.148.79.0/24
146.148.8.0/21
146.148.80.0/20
146.148.81.0/24
146.148.82.0/23
146.148.83.0/24
146.148.84.0/23
146.148.85.0/24
146.148.86.0/23
146.148.87.0/24
146.148.88.0/23
146.148.89.0/24
146.148.9.0/24
146.148.90.0/23
146.148.91.0/24
146.148.92.0/23
146.148.93.0/24
146.148.94.0/23
146.148.95.0/24
146.148.96.0/19
146.148.97.0/24
146.148.98.0/23
146.148.99.0/24
150.129.180.0/22
150.129.236.0/22
150.129.248.0/22
150.242.172.0/22
150.242.60.0/22
150.242.61.0/24
150.242.62.0/24
150.242.63.0/24
150.242.64.0/22
150.242.72.0/22
150.242.84.0/22
159.192.27.0/24
162.216.148.0/22
162.216.149.0/24
162.216.150.0/23
162.216.151.0/24
162.222.176.0/21
162.222.177.0/24
162.222.178.0/23
162.222.179.0/24
162.222.180.0/23
162.222.181.0/24
162.222.182.0/23
162.222.183.0/24
172.102.10.0/23
172.102.11.0/24
172.102.12.0/23
172.102.13.0/24
172.102.14.0/23
172.102.15.0/24
172.102.8.0/21
172.102.9.0/24
172.110.32.0/21
172.110.33.0/24
172.110.34.0/23
172.110.35.0/24
172.110.36.0/23
172.110.37.0/24
172.110.38.0/23
172.110.39.0/24
172.217.0.0/16
172.217.1.0/24
172.217.10.0/23
172.217.100.0/23
172.217.101.0/24
172.217.102.0/23
172.217.103.0/24
172.217.104.0/23
172.217.105.0/24
172.217.106.0/23
172.217.107.0/24
172.217.108.0/23
172.217.109.0/24
172.217.11.0/24
172.217.110.0/23
172.217.111.0/24
172.217.112.0/23
172.217.113.0/24
172.217.114.0/23
172.217.115.0/24
172.217.116.0/23
172.217.117.0/24
172.217.118.0/23
172.217.119.0/24
172.217.12.0/23
172.217.120.0/23
172.217.121.0/24
172.217.122.0/23
172.217.123.0/24
172.217.124.0/23
172.217.125.0/24
172.217.126.0/23
172.217.127.0/24
172.217.128.0/19
172.217.129.0/24
172.217.13.0/24
172.217.130.0/23
172.217.131.0/24
172.217.132.0/23
172.217.133.0/24
172.217.134.0/23
172.217.135.0/24
172.217.136.0/23
172.217.137.0/24
172.217.138.0/23
172.217.139.0/24
172.217.14.0/23
172.217.140.0/23
172.217.141.0/24
172.217.142.0/23
172.217.143.0/24
172.217.144.0/23
172.217.145.0/24
172.217.146.0/23
172.217.147.0/24
172.217.148.0/23
172.217.149.0/24
172.217.15.0/24
172.217.150.0/23
172.217.151.0/24
172.217.152.0/23
172.217.153.0/24
172.217.154.0/23
172.217.155.0/24
172.217.156.0/23
172.217.157.0/24
172.217.158.0/23
172.217.159.0/24
172.217.16.0/23
172.217.160.0/23
172.217.161.0/24
172.217.162.0/23
172.217.163.0/24
172.217.164.0/23
172.217.165.0/24
172.217.166.0/23
172.217.167.0/24
172.217.168.0/23
172.217.169.0/24
172.217.17.0/24
172.217.170.0/23
172.217.171.0/24
172.217.172.0/23
172.217.173.0/24
172.217.174.0/23
172.217.175.0/24
172.217.176.0/23
172.217.177.0/24
172.217.178.0/23
172.217.179.0/24
172.217.18.0/23
172.217.180.0/23
172.217.181.0/24
172.217.182.0/23
172.217.183.0/24
172.217.184.0/23
172.217.185.0/24
172.217.186.0/23
172.217.187.0/24
172.217.188.0/23
172.217.189.0/24
172.217.19.0/24
172.217.190.0/23
172.217.191.0/24
172.217.192.0/18
172.217.193.0/24
172.217.194.0/23
172.217.195.0/24
172.217.196.0/23
172.217.197.0/24
172.217.198.0/23
172.217.199.0/24
172.217.2.0/23
172.217.20.0/23
172.217.200.0/23
172.217.201.0/24
172.217.202.0/23
172.217.203.0/24
172.217.204.0/23
172.217.205.0/24
172.217.206.0/23
172.217.207.0/24
172.217.208.0/23
172.217.209.0/24
172.217.21.0/24
172.217.210.0/23
172.217.211.0/24
172.217.212.0/23
172.217.213.0/24
172.217.214.0/23
172.217.215.0/24
172.217.216.0/23
172.217.217.0/24
172.217.218.0/23
172.217.219.0/24
172.217.22.0/23
172.217.220.0/23
172.217.221.0/24
172.217.222.0/23
172.217.223.0/24
172.217.224.0/19
172.217.225.0/24
172.217.226.0/23
172.217.227.0/24
172.217.228.0/23
172.217.229.0/24
172.217.23.0/24
172.217.230.0/23
172.217.231.0/24
172.217.232.0/23
172.217.233.0/24
172.217.234.0/23
172.217.235.0/24
172.217.236.0/23
172.217.237.0/24
172.217.238.0/23
172.217.239.0/24
172.217.24.0/23
172.217.240.0/23
172.217.241.0/24
172.217.242.0/23
172.217.243.0/24
172.217.244.0/23
172.217.245.0/24
172.217.246.0/23
172.217.247.0/24
172.217.248.0/23
172.217.249.0/24
172.217.25.0/24
172.217.250.0/23
172.217.251.0/24
172.217.252.0/23
172.217.253.0/24
172.217.254.0/23
172.217.255.0/24
172.217.26.0/23
172.217.27.0/24
172.217.28.0/23
172.217.29.0/24
172.217.3.0/24
172.217.30.0/23
172.217.31.0/24
172.217.32.0/23
172.217.33.0/24
172.217.34.0/23
172.217.35.0/24
172.217.36.0/23
172.217.37.0/24
172.217.38.0/23
172.217.39.0/24
172.217.4.0/23
172.217.40.0/23
172.217.41.0/24
172.217.42.0/23
172.217.43.0/24
172.217.44.0/23
172.217.45.0/24
172.217.46.0/23
172.217.47.0/24
172.217.48.0/23
172.217.49.0/24
172.217.5.0/24
172.217.50.0/23
172.217.51.0/24
172.217.52.0/23
172.217.53.0/24
172.217.54.0/23
172.217.55.0/24
172.217.56.0/21
172.217.57.0/24
172.217.58.0/23
172.217.59.0/24
172.217.6.0/23
172.217.60.0/23
172.217.61.0/24
172.217.62.0/23
172.217.63.0/24
172.217.64.0/23
172.217.65.0/24
172.217.66.0/23
172.217.67.0/24
172.217.68.0/23
172.217.69.0/24
172.217.7.0/24
172.217.70.0/23
172.217.71.0/24
172.217.72.0/23
172.217.73.0/24
172.217.74.0/23
172.217.75.0/24
172.217.76.0/23
172.217.77.0/24
172.217.78.0/23
172.217.79.0/24
172.217.8.0/23
172.217.80.0/23
172.217.81.0/24
172.217.82.0/23
172.217.83.0/24
172.217.84.0/23
172.217.85.0/24
172.217.86.0/23
172.217.87.0/24
172.217.88.0/23
172.217.89.0/24
172.217.9.0/24
172.217.90.0/23
172.217.91.0/24
172.217.92.0/23
172.217.93.0/24
172.217.94.0/23
172.217.95.0/24
172.217.96.0/23
172.217.97.0/24
172.217.98.0/23
172.217.99.0/24
172.253.0.0/16
172.253.1.0/24
172.253.10.0/23
172.253.100.0/23
172.253.101.0/24
172.253.102.0/23
172.253.103.0/24
172.253.104.0/23
172.253.105.0/24
172.253.106.0/23
172.253.107.0/24
172.253.108.0/23
172.253.109.0/24
172.253.11.0/24
172.253.110.0/23
172.253.111.0/24
172.253.112.0/23
172.253.113.0/24
172.253.114.0/23
172.253.115.0/24
172.253.116.0/23
172.253.117.0/24
172.253.118.0/23
172.253.119.0/24
172.253.12.0/23
172.253.120.0/23
172.253.121.0/24
172.253.122.0/23
172.253.123.0/24
172.253.124.0/23
172.253.125.0/24
172.253.126.0/23
172.253.127.0/24
172.253.128.0/23
172.253.129.0/24
172.253.13.0/24
172.253.130.0/23
172.253.131.0/24
172.253.132.0/23
172.253.133.0/24
172.253.134.0/23
172.253.135.0/24
172.253.136.0/23
172.253.137.0/24
172.253.138.0/23
172.253.139.0/24
172.253.14.0/23
172.253.140.0/23
172.253.141.0/24
172.253.142.0/23
172.253.143.0/24
172.253.144.0/23
172.253.145.0/24
172.253.146.0/23
172.253.147.0/24
172.253.148.0/23
172.253.149.0/24
172.253.15.0/24
172.253.150.0/23
172.253.151.0/24
172.253.152.0/23
172.253.153.0/24
172.253.154.0/23
172.253.155.0/24
172.253.156.0/23
172.253.157.0/24
172.253.158.0/23
172.253.159.0/24
172.253.16.0/23
172.253.160.0/23
172.253.161.0/24
172.253.162.0/23
172.253.163.0/24
172.253.164.0/23
172.253.165.0/24
172.253.166.0/23
172.253.167.0/24
172.253.168.0/23
172.253.169.0/24
172.253.17.0/24
172.253.170.0/23
172.253.171.0/24
172.253.172.0/23
172.253.173.0/24
172.253.174.0/23
172.253.175.0/24
172.253.176.0/23
172.253.177.0/24
172.253.178.0/23
172.253.179.0/24
172.253.18.0/23
172.253.180.0/23
172.253.181.0/24
172.253.182.0/23
172.253.183.0/24
172.253.184.0/23
172.253.185.0/24
172.253.186.0/23
172.253.187.0/24
172.253.188.0/23
172.253.189.0/24
172.253.19.0/24
172.253.190.0/23
172.253.191.0/24
172.253.192.0/23
172.253.193.0/24
172.253.194.0/23
172.253.195.0/24
172.253.196.0/23
172.253.197.0/24
172.253.198.0/23
172.253.199.0/24
172.253.2.0/23
172.253.20.0/23
172.253.200.0/23
172.253.201.0/24
172.253.202.0/23
172.253.203.0/24
172.253.204.0/23
172.253.205.0/24
172.253.206.0/23
172.253.207.0/24
172.253.208.0/23
172.253.209.0/24
172.253.21.0/24
172.253.210.0/23
172.253.211.0/24
172.253.212.0/23
172.253.213.0/24
172.253.214.0/23
172.253.215.0/24
172.253.216.0/23
172.253.217.0/24
172.253.218.0/23
172.253.219.0/24
172.253.22.0/23
172.253.220.0/23
172.253.221.0/24
172.253.222.0/23
172.253.223.0/24
172.253.224.0/23
172.253.225.0/24
172.253.226.0/23
172.253.227.0/24
172.253.228.0/23
172.253.229.0/24
172.253.23.0/24
172.253.230.0/23
172.253.231.0/24
172.253.232.0/23
172.253.233.0/24
172.253.234.0/23
172.253.235.0/24
172.253.236.0/23
172.253.237.0/24
172.253.238.0/23
172.253.239.0/24
172.253.24.0/23
172.253.240.0/23
172.253.241.0/24
172.253.242.0/23
172.253.243.0/24
172.253.244.0/23
172.253.245.0/24
172.253.246.0/23
172.253.247.0/24
172.253.248.0/23
172.253.249.0/24
172.253.25.0/24
172.253.250.0/23
172.253.251.0/24
172.253.252.0/23
172.253.253.0/24
172.253.254.0/23
172.253.255.0/24
172.253.26.0/23
172.253.27.0/24
172.253.28.0/23
172.253.29.0/24
172.253.3.0/24
172.253.30.0/23
172.253.31.0/24
172.253.32.0/23
172.253.33.0/24
172.253.34.0/23
172.253.35.0/24
172.253.36.0/23
172.253.37.0/24
172.253.38.0/23
172.253.39.0/24
172.253.4.0/23
172.253.40.0/23
172.253.41.0/24
172.253.42.0/23
172.253.43.0/24
172.253.44.0/23
172.253.45.0/24
172.253.46.0/23
172.253.47.0/24
172.253.48.0/23
172.253.49.0/24
172.253.5.0/24
172.253.50.0/23
172.253.51.0/24
172.253.52.0/23
172.253.53.0/24
172.253.54.0/23
172.253.55.0/24
172.253.56.0/23
172.253.57.0/24
172.253.58.0/23
172.253.59.0/24
172.253.6.0/23
172.253.60.0/23
172.253.61.0/24
172.253.62.0/23
172.253.63.0/24
172.253.64.0/23
172.253.65.0/24
172.253.66.0/23
172.253.67.0/24
172.253.68.0/23
172.253.69.0/24
172.253.7.0/24
172.253.70.0/23
172.253.71.0/24
172.253.72.0/23
172.253.73.0/24
172.253.74.0/23
172.253.75.0/24
172.253.76.0/23
172.253.77.0/24
172.253.78.0/23
172.253.79.0/24
172.253.8.0/23
172.253.80.0/23
172.253.81.0/24
172.253.82.0/23
172.253.83.0/24
172.253.84.0/23
172.253.85.0/24
172.253.86.0/23
172.253.87.0/24
172.253.88.0/23
172.253.89.0/24
172.253.9.0/24
172.253.90.0/23
172.253.91.0/24
172.253.92.0/23
172.253.93.0/24
172.253.94.0/23
172.253.95.0/24
172.253.96.0/23
172.253.97.0/24
172.253.98.0/23
172.253.99.0/24
173.194.0.0/16
173.194.1.0/24
173.194.10.0/23
173.194.100.0/23
173.194.101.0/24
173.194.102.0/23
173.194.103.0/24
173.194.104.0/23
173.194.105.0/24
173.194.106.0/23
173.194.107.0/24
173.194.108.0/23
173.194.109.0/24
173.194.11.0/24
173.194.110.0/23
173.194.111.0/24
173.194.112.0/23
173.194.113.0/24
173.194.114.0/23
173.194.115.0/24
173.194.116.0/23
173.194.117.0/24
173.194.118.0/23
173.194.119.0/24
173.194.12.0/23
173.194.120.0/23
173.194.121.0/24
173.194.122.0/23
173.194.123.0/24
173.194.124.0/23
173.194.125.0/24
173.194.126.0/23
173.194.127.0/24
173.194.128.0/20
173.194.129.0/24
173.194.13.0/24
173.194.130.0/23
173.194.131.0/24
173.194.132.0/23
173.194.133.0/24
173.194.134.0/23
173.194.135.0/24
173.194.136.0/23
173.194.137.0/24
173.194.138.0/23
173.194.139.0/24
173.194.14.0/23
173.194.140.0/23
173.194.141.0/24
173.194.142.0/23
173.194.143.0/24
173.194.144.0/20
173.194.145.0/24
173.194.146.0/23
173.194.147.0/24
173.194.148.0/23
173.194.149.0/24
173.194.15.0/24
173.194.150.0/23
173.194.151.0/24
173.194.152.0/23
173.194.153.0/24
173.194.154.0/23
173.194.155.0/24
173.194.156.0/23
173.194.157.0/24
173.194.158.0/23
173.194.159.0/24
173.194.16.0/23
173.194.160.0/21
173.194.161.0/24
173.194.162.0/23
173.194.163.0/24
173.194.164.0/23
173.194.165.0/24
173.194.166.0/23
173.194.167.0/24
173.194.168.0/23
173.194.169.0/24
173.194.17.0/24
173.194.170.0/23
173.194.171.0/24
173.194.172.0/23
173.194.173.0/24
173.194.174.0/23
173.194.175.0/24
173.194.176.0/20
173.194.177.0/24
173.194.178.0/23
173.194.179.0/24
173.194.18.0/23
173.194.180.0/23
173.194.181.0/24
173.194.182.0/23
173.194.183.0/24
173.194.184.0/23
173.194.185.0/24
173.194.186.0/23
173.194.187.0/24
173.194.188.0/23
173.194.189.0/24
173.194.19.0/24
173.194.190.0/23
173.194.191.0/24
173.194.192.0/23
173.194.193.0/24
173.194.194.0/23
173.194.195.0/24
173.194.196.0/23
173.194.197.0/24
173.194.198.0/23
173.194.199.0/24
173.194.2.0/23
173.194.20.0/23
173.194.200.0/23
173.194.201.0/24
173.194.202.0/23
173.194.203.0/24
173.194.204.0/23
173.194.205.0/24
173.194.206.0/23
173.194.207.0/24
173.194.208.0/23
173.194.209.0/24
173.194.21.0/24
173.194.210.0/23
173.194.211.0/24
173.194.212.0/23
173.194.213.0/24
173.194.214.0/23
173.194.215.0/24
173.194.216.0/23
173.194.217.0/24
173.194.218.0/23
173.194.219.0/24
173.194.22.0/23
173.194.220.0/23
173.194.221.0/24
173.194.222.0/23
173.194.223.0/24
173.194.224.0/23
173.194.225.0/24
173.194.226.0/23
173.194.227.0/24
173.194.228.0/23
173.194.229.0/24
173.194.23.0/24
173.194.230.0/23
173.194.231.0/24
173.194.232.0/23
173.194.233.0/24
173.194.234.0/23
173.194.235.0/24
173.194.236.0/23
173.194.237.0/24
173.194.238.0/23
173.194.239.0/24
173.194.24.0/23
173.194.240.0/23
173.194.241.0/24
173.194.242.0/23
173.194.243.0/24
173.194.244.0/23
173.194.245.0/24
173.194.246.0/23
173.194.247.0/24
173.194.248.0/23
173.194.249.0/24
173.194.25.0/24
173.194.250.0/23
173.194.251.0/24
173.194.252.0/23
173.194.253.0/24
173.194.254.0/23
173.194.255.0/24
173.194.26.0/23
173.194.27.0/24
173.194.28.0/23
173.194.29.0/24
173.194.3.0/24
173.194.30.0/23
173.194.31.0/24
173.194.32.0/23
173.194.33.0/24
173.194.34.0/23
173.194.35.0/24
173.194.36.0/23
173.194.37.0/24
173.194.38.0/23
173.194.39.0/24
173.194.4.0/23
173.194.40.0/23
173.194.41.0/24
173.194.42.0/23
173.194.43.0/24
173.194.44.0/23
173.194.45.0/24
173.194.46.0/23
173.194.47.0/24
173.194.48.0/20
173.194.49.0/24
173.194.5.0/24
173.194.50.0/23
173.194.51.0/24
173.194.52.0/23
173.194.53.0/24
173.194.54.0/23
173.194.55.0/24
173.194.56.0/23
173.194.57.0/24
173.194.58.0/23
173.194.59.0/24
173.194.6.0/23
173.194.60.0/23
173.194.61.0/24
173.194.62.0/23
173.194.63.0/24
173.194.64.0/23
173.194.65.0/24
173.194.66.0/23
173.194.67.0/24
173.194.68.0/23
173.194.69.0/24
173.194.7.0/24
173.194.70.0/23
173.194.71.0/24
173.194.72.0/23
173.194.73.0/24
173.194.74.0/23
173.194.75.0/24
173.194.76.0/23
173.194.77.0/24
173.194.78.0/23
173.194.79.0/24
173.194.8.0/23
173.194.80.0/23
173.194.81.0/24
173.194.82.0/23
173.194.83.0/24
173.194.84.0/23
173.194.85.0/24
173.194.86.0/23
173.194.87.0/24
173.194.88.0/23
173.194.89.0/24
173.194.9.0/24
173.194.90.0/23
173.194.91.0/24
173.194.92.0/23
173.194.93.0/24
173.194.94.0/23
173.194.95.0/24
173.194.96.0/21
173.194.97.0/24
173.194.98.0/23
173.194.99.0/24
173.255.112.0/20
173.255.113.0/24
173.255.114.0/23
173.255.115.0/24
173.255.116.0/23
173.255.117.0/24
173.255.118.0/23
173.255.119.0/24
173.255.120.0/23
173.255.121.0/24
173.255.122.0/23
173.255.123.0/24
173.255.124.0/23
173.255.125.0/24
173.255.126.0/23
173.255.127.0/24
185.150.148.0/22
185.150.149.0/24
185.150.150.0/23
185.150.151.0/24
185.192.249.0/24
185.25.28.0/22
185.25.29.0/24
185.25.30.0/23
185.25.31.0/24
192.104.160.0/23
192.104.161.0/24
192.119.16.0/20
192.119.28.0/24
192.158.28.0/22
192.158.29.0/24
192.158.30.0/23
192.158.31.0/24
192.178.0.0/15
192.178.1.0/24
192.178.10.0/23
192.178.100.0/23
192.178.101.0/24
192.178.102.0/23
192.178.103.0/24
192.178.104.0/23
192.178.105.0/24
192.178.106.0/23
192.178.107.0/24
192.178.108.0/23
192.178.109.0/24
192.178.11.0/24
192.178.110.0/23
192.178.111.0/24
192.178.112.0/23
192.178.113.0/24
192.178.114.0/23
192.178.115.0/24
192.178.116.0/23
192.178.117.0/24
192.178.118.0/23
192.178.119.0/24
192.178.12.0/23
192.178.120.0/23
192.178.121.0/24
192.178.122.0/23
192.178.123.0/24
192.178.124.0/23
192.178.125.0/24
192.178.126.0/23
192.178.127.0/24
192.178.128.0/23
192.178.129.0/24
192.178.13.0/24
192.178.130.0/23
192.178.131.0/24
192.178.132.0/23
192.178.133.0/24
192.178.134.0/23
192.178.135.0/24
192.178.136.0/23
192.178.137.0/24
192.178.138.0/23
192.178.139.0/24
192.178.14.0/23
192.178.140.0/23
192.178.141.0/24
192.178.142.0/23
192.178.143.0/24
192.178.144.0/23
192.178.145.0/24
192.178.146.0/23
192.178.147.0/24
192.178.148.0/23
192.178.149.0/24
192.178.15.0/24
192.178.150.0/23
192.178.151.0/24
192.178.152.0/23
192.178.153.0/24
192.178.154.0/23
192.178.155.0/24
192.178.156.0/23
192.178.157.0/24
192.178.158.0/23
192.178.159.0/24
192.178.16.0/23
192.178.160.0/23
192.178.161.0/24
192.178.162.0/23
192.178.163.0/24
192.178.164.0/23
192.178.165.0/24
192.178.166.0/23
192.178.167.0/24
192.178.168.0/23
192.178.169.0/24
192.178.17.0/24
192.178.170.0/23
192.178.171.0/24
192.178.172.0/23
192.178.173.0/24
192.178.174.0/23
192.178.175.0/24
192.178.176.0/23
192.178.177.0/24
192.178.178.0/23
192.178.179.0/24
192.178.18.0/23
192.178.180.0/23
192.178.181.0/24
192.178.182.0/23
192.178.183.0/24
192.178.184.0/23
192.178.185.0/24
192.178.186.0/23
192.178.187.0/24
192.178.188.0/23
192.178.189.0/24
192.178.19.0/24
192.178.190.0/23
192.178.191.0/24
192.178.192.0/23
192.178.193.0/24
192.178.194.0/23
192.178.195.0/24
192.178.196.0/23
192.178.197.0/24
192.178.198.0/23
192.178.199.0/24
192.178.2.0/23
192.178.20.0/23
192.178.200.0/23
192.178.201.0/24
192.178.202.0/23
192.178.203.0/24
192.178.204.0/23
192.178.205.0/24
192.178.206.0/23
192.178.207.0/24
192.178.208.0/23
192.178.209.0/24
192.178.21.0/24
192.178.210.0/23
192.178.211.0/24
192.178.212.0/23
192.178.213.0/24
192.178.214.0/23
192.178.215.0/24
192.178.216.0/23
192.178.217.0/24
192.178.218.0/23
192.178.219.0/24
192.178.22.0/23
192.178.220.0/23
192.178.221.0/24
192.178.222.0/23
192.178.223.0/24
192.178.224.0/23
192.178.225.0/24
192.178.226.0/23
192.178.227.0/24
192.178.228.0/23
192.178.229.0/24
192.178.23.0/24
192.178.230.0/23
192.178.231.0/24
192.178.232.0/23
192.178.233.0/24
192.178.234.0/23
192.178.235.0/24
192.178.236.0/23
192.178.237.0/24
192.178.238.0/23
192.178.239.0/24
192.178.24.0/23
192.178.240.0/23
192.178.241.0/24
192.178.242.0/23
192.178.243.0/24
192.178.244.0/23
192.178.245.0/24
192.178.246.0/23
192.178.247.0/24
192.178.248.0/23
192.178.249.0/24
192.178.25.0/24
192.178.250.0/23
192.178.251.0/24
192.178.252.0/23
192.178.253.0/24
192.178.254.0/23
192.178.255.0/24
192.178.26.0/23
192.178.27.0/24
192.178.28.0/23
192.178.29.0/24
192.178.3.0/24
192.178.30.0/23
192.178.31.0/24
192.178.32.0/23
192.178.33.0/24
192.178.34.0/23
192.178.35.0/24
192.178.36.0/23
192.178.37.0/24
192.178.38.0/23
192.178.39.0/24
192.178.4.0/23
192.178.40.0/23
192.178.41.0/24
192.178.42.0/23
192.178.43.0/24
192.178.44.0/23
192.178.45.0/24
192.178.46.0/23
192.178.47.0/24
192.178.48.0/23
192.178.49.0/24
192.178.5.0/24
192.178.50.0/23
192.178.51.0/24
192.178.52.0/23
192.178.53.0/24
192.178.54.0/23
192.178.55.0/24
192.178.56.0/23
192.178.57.0/24
192.178.58.0/23
192.178.59.0/24
192.178.6.0/23
192.178.60.0/23
192.178.61.0/24
192.178.62.0/23
192.178.63.0/24
192.178.64.0/23
192.178.65.0/24
192.178.66.0/23
192.178.67.0/24
192.178.68.0/23
192.178.69.0/24
192.178.7.0/24
192.178.70.0/23
192.178.71.0/24
192.178.72.0/23
192.178.73.0/24
192.178.74.0/23
192.178.75.0/24
192.178.76.0/23
192.178.77.0/24
192.178.78.0/23
192.178.79.0/24
192.178.8.0/23
192.178.80.0/23
192.178.81.0/24
192.178.82.0/23
192.178.83.0/24
192.178.84.0/23
192.178.85.0/24
192.178.86.0/23
192.178.87.0/24
192.178.88.0/23
192.178.89.0/24
192.178.9.0/24
192.178.90.0/23
192.178.91.0/24
192.178.92.0/23
192.178.93.0/24
192.178.94.0/23
192.178.95.0/24
192.178.96.0/23
192.178.97.0/24
192.178.98.0/23
192.178.99.0/24
192.179.0.0/23
192.179.1.0/24
192.179.10.0/23
192.179.100.0/23
192.179.101.0/24
192.179.102.0/23
192.179.103.0/24
192.179.104.0/23
192.179.105.0/24
192.179.106.0/23
192.179.107.0/24
192.179.108.0/23
192.179.109.0/24
192.179.11.0/24
192.179.110.0/23
192.179.111.0/24
192.179.112.0/23
192.179.113.0/24
192.179.114.0/23
192.179.115.0/24
192.179.116.0/23
192.179.117.0/24
192.179.118.0/23
192.179.119.0/24
192.179.12.0/23
192.179.120.0/23
192.179.121.0/24
192.179.122.0/23
192.179.123.0/24
192.179.124.0/23
192.179.125.0/24
192.179.126.0/23
192.179.127.0/24
192.179.128.0/23
192.179.129.0/24
192.179.13.0/24
192.179.130.0/23
192.179.131.0/24
192.179.132.0/23
192.179.133.0/24
192.179.134.0/23
192.179.135.0/24
192.179.136.0/23
192.179.137.0/24
192.179.138.0/23
192.179.139.0/24
192.179.14.0/23
192.179.140.0/23
192.179.141.0/24
192.179.142.0/23
192.179.143.0/24
192.179.144.0/23
192.179.145.0/24
192.179.146.0/23
192.179.147.0/24
192.179.148.0/23
192.179.149.0/24
192.179.15.0/24
192.179.150.0/23
192.179.151.0/24
192.179.152.0/23
192.179.153.0/24
192.179.154.0/23
192.179.155.0/24
192.179.156.0/23
192.179.157.0/24
192.179.158.0/23
192.179.159.0/24
192.179.16.0/23
192.179.160.0/23
192.179.161.0/24
192.179.162.0/23
192.179.163.0/24
192.179.164.0/23
192.179.165.0/24
192.179.166.0/23
192.179.167.0/24
192.179.168.0/23
192.179.169.0/24
192.179.17.0/24
192.179.170.0/23
192.179.171.0/24
192.179.172.0/23
192.179.173.0/24
192.179.174.0/23
192.179.175.0/24
192.179.176.0/23
192.179.177.0/24
192.179.178.0/23
192.179.179.0/24
192.179.18.0/23
192.179.180.0/23
192.179.181.0/24
192.179.182.0/23
192.179.183.0/24
192.179.184.0/23
192.179.185.0/24
192.179.186.0/23
192.179.187.0/24
192.179.188.0/23
192.179.189.0/24
192.179.19.0/24
192.179.190.0/23
192.179.191.0/24
192.179.192.0/23
192.179.193.0/24
192.179.194.0/23
192.179.195.0/24
192.179.196.0/23
192.179.197.0/24
192.179.198.0/23
192.179.199.0/24
192.179.2.0/23
192.179.20.0/23
192.179.200.0/23
192.179.201.0/24
192.179.202.0/23
192.179.203.0/24
192.179.204.0/23
192.179.205.0/24
192.179.206.0/23
192.179.207.0/24
192.179.208.0/23
192.179.209.0/24
192.179.21.0/24
192.179.210.0/23
192.179.211.0/24
192.179.212.0/23
192.179.213.0/24
192.179.214.0/23
192.179.215.0/24
192.179.216.0/23
192.179.217.0/24
192.179.218.0/23
192.179.219.0/24
192.179.22.0/23
192.179.220.0/23
192.179.221.0/24
192.179.222.0/23
192.179.223.0/24
192.179.224.0/23
192.179.225.0/24
192.179.226.0/23
192.179.227.0/24
192.179.228.0/23
192.179.229.0/24
192.179.23.0/24
192.179.230.0/23
192.179.231.0/24
192.179.232.0/23
192.179.233.0/24
192.179.234.0/23
192.179.235.0/24
192.179.236.0/23
192.179.237.0/24
192.179.238.0/23
192.179.239.0/24
192.179.24.0/23
192.179.240.0/23
192.179.241.0/24
192.179.242.0/23
192.179.243.0/24
192.179.244.0/23
192.179.245.0/24
192.179.246.0/23
192.179.247.0/24
192.179.248.0/23
192.179.249.0/24
192.179.25.0/24
192.179.250.0/23
192.179.251.0/24
192.179.252.0/23
192.179.253.0/24
192.179.254.0/23
192.179.255.0/24
192.179.26.0/23
192.179.27.0/24
192.179.28.0/23
192.179.29.0/24
192.179.3.0/24
192.179.30.0/23
192.179.31.0/24
192.179.32.0/23
192.179.33.0/24
192.179.34.0/23
192.179.35.0/24
192.179.36.0/23
192.179.37.0/24
192.179.38.0/23
192.179.39.0/24
192.179.4.0/23
192.179.40.0/23
192.179.41.0/24
192.179.42.0/23
192.179.43.0/24
192.179.44.0/23
192.179.45.0/24
192.179.46.0/23
192.179.47.0/24
192.179.48.0/23
192.179.49.0/24
192.179.5.0/24
192.179.50.0/23
192.179.51.0/24
192.179.52.0/23
192.179.53.0/24
192.179.54.0/23
192.179.55.0/24
192.179.56.0/23
192.179.57.0/24
192.179.58.0/23
192.179.59.0/24
192.179.6.0/23
192.179.60.0/23
192.179.61.0/24
192.179.62.0/23
192.179.63.0/24
192.179.64.0/23
192.179.65.0/24
192.179.66.0/23
192.179.67.0/24
192.179.68.0/23
192.179.69.0/24
192.179.7.0/24
192.179.70.0/23
192.179.71.0/24
192.179.72.0/23
192.179.73.0/24
192.179.74.0/23
192.179.75.0/24
192.179.76.0/23
192.179.77.0/24
192.179.78.0/23
192.179.79.0/24
192.179.8.0/23
192.179.80.0/23
192.179.81.0/24
192.179.82.0/23
192.179.83.0/24
192.179.84.0/23
192.179.85.0/24
192.179.86.0/23
192.179.87.0/24
192.179.88.0/23
192.179.89.0/24
192.179.9.0/24
192.179.90.0/23
192.179.91.0/24
192.179.92.0/23
192.179.93.0/24
192.179.94.0/23
192.179.95.0/24
192.179.96.0/23
192.179.97.0/24
192.179.98.0/23
192.179.99.0/24
192.200.224.0/19
193.186.4.0/24
193.200.222.0/24
194.122.80.0/22
194.122.81.0/24
194.122.82.0/24
194.122.83.0/24
199.192.112.0/22
199.192.113.0/24
199.192.114.0/23
199.192.115.0/24
199.223.232.0/21
199.223.233.0/24
199.223.234.0/23
199.223.235.0/24
199.223.236.0/23
199.223.237.0/24
199.223.238.0/23
199.223.239.0/24
199.36.154.0/23
199.36.156.0/24
199.91.151.0/24
207.223.160.0/20
207.223.161.0/24
207.223.162.0/23
207.223.163.0/24
207.223.164.0/23
207.223.165.0/24
207.223.166.0/23
207.223.167.0/24
207.223.168.0/23
207.223.169.0/24
207.223.170.0/23
207.223.171.0/24
207.223.172.0/23
207.223.173.0/24
207.223.174.0/23
207.223.175.0/24
208.117.224.0/19
208.117.225.0/24
208.117.226.0/23
208.117.227.0/24
208.117.228.0/23
208.117.229.0/24
208.117.230.0/23
208.117.231.0/24
208.117.232.0/23
208.117.233.0/24
208.117.234.0/23
208.117.235.0/24
208.117.236.0/23
208.117.237.0/24
208.117.238.0/23
208.117.239.0/24
208.117.240.0/23
208.117.241.0/24
208.117.242.0/23
208.117.243.0/24
208.117.244.0/23
208.117.245.0/24
208.117.246.0/23
208.117.247.0/24
208.117.248.0/23
208.117.249.0/24
208.117.250.0/23
208.117.251.0/24
208.117.252.0/23
208.117.253.0/24
208.117.254.0/23
208.117.255.0/24
208.65.152.0/22
208.65.153.0/24
208.65.154.0/23
208.65.155.0/24
208.68.108.0/22
208.76.68.0/24
208.81.188.0/22
209.107.176.0/20
209.107.177.0/24
209.107.178.0/23
209.107.179.0/24
209.107.180.0/23
209.107.181.0/24
209.107.182.0/23
209.107.183.0/24
209.107.184.0/21
209.107.185.0/24
209.107.186.0/24
209.107.187.0/24
209.107.188.0/22
209.107.189.0/24
209.107.190.0/24
209.107.191.0/24
209.85.128.0/17
209.85.129.0/24
209.85.130.0/23
209.85.131.0/24
209.85.132.0/23
209.85.133.0/24
209.85.134.0/23
209.85.135.0/24
209.85.136.0/23
209.85.137.0/24
209.85.138.0/23
209.85.139.0/24
209.85.140.0/23
209.85.141.0/24
209.85.142.0/23
209.85.143.0/24
209.85.144.0/23
209.85.145.0/24
209.85.146.0/23
209.85.147.0/24
209.85.148.0/23
209.85.149.0/24
209.85.150.0/23
209.85.151.0/24
209.85.152.0/23
209.85.153.0/24
209.85.154.0/23
209.85.155.0/24
209.85.156.0/23
209.85.157.0/24
209.85.158.0/23
209.85.159.0/24
209.85.160.0/23
209.85.161.0/24
209.85.162.0/23
209.85.163.0/24
209.85.164.0/23
209.85.165.0/24
209.85.166.0/23
209.85.167.0/24
209.85.168.0/23
209.85.169.0/24
209.85.170.0/23
209.85.171.0/24
209.85.172.0/23
209.85.173.0/24
209.85.174.0/23
209.85.175.0/24
209.85.176.0/23
209.85.177.0/24
209.85.178.0/23
209.85.179.0/24
209.85.180.0/23
209.85.181.0/24
209.85.182.0/23
209.85.183.0/24
209.85.184.0/23
209.85.185.0/24
209.85.186.0/23
209.85.187.0/24
209.85.188.0/23
209.85.189.0/24
209.85.190.0/23
209.85.191.0/24
209.85.192.0/23
209.85.193.0/24
209.85.194.0/23
209.85.195.0/24
209.85.196.0/23
209.85.197.0/24
209.85.198.0/23
209.85.199.0/24
209.85.200.0/23
209.85.201.0/24
209.85.202.0/23
209.85.203.0/24
209.85.204.0/23
209.85.205.0/24
209.85.206.0/23
209.85.207.0/24
209.85.208.0/23
209.85.209.0/24
209.85.210.0/23
209.85.211.0/24
209.85.212.0/23
209.85.213.0/24
209.85.214.0/23
209.85.215.0/24
209.85.216.0/23
209.85.217.0/24
209.85.218.0/23
209.85.219.0/24
209.85.220.0/23
209.85.221.0/24
209.85.222.0/23
209.85.223.0/24
209.85.224.0/23
209.85.225.0/24
209.85.226.0/23
209.85.227.0/24
209.85.228.0/23
209.85.229.0/24
209.85.230.0/23
209.85.231.0/24
209.85.232.0/23
209.85.233.0/24
209.85.234.0/23
209.85.235.0/24
209.85.236.0/23
209.85.237.0/24
209.85.238.0/23
209.85.239.0/24
209.85.240.0/23
209.85.241.0/24
209.85.242.0/23
209.85.243.0/24
209.85.244.0/23
209.85.245.0/24
209.85.246.0/23
209.85.247.0/24
209.85.248.0/23
209.85.249.0/24
209.85.250.0/23
209.85.251.0/24
209.85.252.0/23
209.85.253.0/24
209.85.254.0/23
209.85.255.0/24
216.21.160.0/20
216.239.32.0/19
216.239.33.0/24
216.239.34.0/23
216.239.35.0/24
216.239.36.0/23
216.239.37.0/24
216.239.38.0/23
216.239.39.0/24
216.239.40.0/23
216.239.41.0/24
216.239.42.0/23
216.239.43.0/24
216.239.44.0/23
216.239.45.0/24
216.239.46.0/23
216.239.47.0/24
216.239.48.0/23
216.239.49.0/24
216.239.50.0/23
216.239.51.0/24
216.239.52.0/23
216.239.53.0/24
216.239.54.0/23
216.239.55.0/24
216.239.56.0/23
216.239.57.0/24
216.239.58.0/23
216.239.59.0/24
216.239.60.0/23
216.239.61.0/24
216.239.62.0/23
216.239.63.0/24
216.252.220.0/22
216.252.221.0/24
216.252.222.0/23
216.252.223.0/24
216.58.192.0/19
216.58.193.0/24
216.58.194.0/23
216.58.195.0/24
216.58.196.0/23
216.58.197.0/24
216.58.198.0/23
216.58.199.0/24
216.58.200.0/23
216.58.201.0/24
216.58.202.0/23
216.58.203.0/24
216.58.204.0/23
216.58.205.0/24
216.58.206.0/23
216.58.207.0/24
216.58.208.0/23
216.58.209.0/24
216.58.210.0/23
216.58.211.0/24
216.58.212.0/23
216.58.213.0/24
216.58.214.0/23
216.58.215.0/24
216.58.216.0/23
216.58.217.0/24
216.58.218.0/23
216.58.219.0/24
216.58.220.0/23
216.58.221.0/24
216.58.222.0/23
216.58.223.0/24
216.73.80.0/20
23.228.128.0/18
23.236.48.0/20
23.236.49.0/24
23.236.50.0/23
23.236.51.0/24
23.236.52.0/23
23.236.53.0/24
23.236.54.0/23
23.236.55.0/24
23.236.56.0/23
23.236.57.0/24
23.236.58.0/23
23.236.59.0/24
23.236.60.0/23
23.236.61.0/24
23.236.62.0/23
23.236.63.0/24
23.251.128.0/19
23.251.129.0/24
23.251.130.0/23
23.251.131.0/24
23.251.132.0/23
23.251.133.0/24
23.251.134.0/23
23.251.135.0/24
23.251.136.0/23
23.251.137.0/24
23.251.138.0/23
23.251.139.0/24
23.251.140.0/23
23.251.141.0/24
23.251.142.0/23
23.251.143.0/24
23.251.144.0/20
23.251.145.0/24
23.251.146.0/23
23.251.147.0/24
23.251.148.0/23
23.251.149.0/24
23.251.150.0/23
23.251.151.0/24
23.251.152.0/23
23.251.153.0/24
23.251.154.0/23
23.251.155.0/24
23.251.156.0/23
23.251.157.0/24
23.251.158.0/23
23.251.159.0/24
23.255.128.0/17
34.100.0.0/14
34.101.0.0/16
34.104.0.0/14
34.108.0.0/14
34.112.0.0/14
34.116.0.0/14
34.120.0.0/13
34.124.0.0/14
34.127.192.0/18
34.128.0.0/10
34.129.0.0/16
34.130.0.0/16
34.131.0.0/16
34.132.0.0/16
34.133.0.0/16
34.134.0.0/16
34.135.0.0/16
34.136.0.0/13
34.137.0.0/16
34.138.0.0/16
34.139.0.0/16
34.140.0.0/16
34.141.0.0/16
34.142.0.0/16
34.143.0.0/16
34.144.0.0/13
34.145.0.0/16
34.146.0.0/16
34.147.0.0/16
34.148.0.0/16
34.149.0.0/16
34.150.0.0/16
34.151.0.0/16
34.152.0.0/13
34.153.0.0/16
34.154.0.0/16
34.155.0.0/16
34.156.0.0/16
34.157.0.0/16
34.158.0.0/16
34.159.0.0/16
34.160.0.0/13
34.161.0.0/16
34.162.0.0/16
34.163.0.0/16
34.164.0.0/16
34.165.0.0/16
34.166.0.0/16
34.167.0.0/16
34.168.0.0/13
34.169.0.0/16
34.170.0.0/16
34.171.0.0/16
34.172.0.0/16
34.173.0.0/16
34.174.0.0/16
34.175.0.0/16
34.176.0.0/13
34.177.0.0/16
34.178.0.0/16
34.179.0.0/16
34.180.0.0/16
34.181.0.0/16
34.182.0.0/16
34.183.0.0/16
34.184.0.0/14
34.185.0.0/16
34.186.0.0/16
34.187.0.0/16
34.188.0.0/16
34.189.0.0/16
34.190.0.0/16
34.191.0.0/16
34.64.0.0/10
34.68.0.0/14
34.72.0.0/14
34.76.0.0/14
34.80.0.0/14
34.84.0.0/14
34.88.0.0/14
34.92.0.0/14
34.96.0.0/12
34.96.128.0/17
34.97.0.0/17
34.97.128.0/17
35.184.0.0/13
35.184.128.0/19
35.184.160.0/19
35.184.192.0/19
35.184.224.0/19
35.184.32.0/19
35.184.64.0/19
35.184.96.0/19
35.185.0.0/19
35.185.128.0/19
35.185.160.0/19
35.185.192.0/19
35.185.224.0/19
35.185.32.0/19
35.185.64.0/19
35.185.96.0/19
35.186.0.0/16
35.186.128.0/19
35.186.160.0/19
35.186.32.0/19
35.186.64.0/19
35.186.96.0/19
35.187.0.0/19
35.187.128.0/19
35.187.160.0/19
35.187.192.0/19
35.187.224.0/19
35.187.32.0/19
35.187.64.0/19
35.187.96.0/19
35.188.0.0/19
35.188.128.0/19
35.188.160.0/19
35.188.192.0/19
35.188.224.0/19
35.188.32.0/19
35.188.64.0/19
35.188.96.0/19
35.189.0.0/19
35.189.128.0/19
35.189.160.0/19
35.189.192.0/19
35.189.224.0/19
35.189.32.0/19
35.189.64.0/19
35.189.96.0/19
35.190.0.0/16
35.190.128.0/19
35.190.160.0/19
35.190.192.0/19
35.190.224.0/19
35.192.0.0/12
35.192.128.0/19
35.192.160.0/19
35.192.192.0/19
35.192.224.0/19
35.192.32.0/19
35.192.64.0/19
35.192.96.0/19
35.193.0.0/19
35.193.128.0/19
35.193.160.0/19
35.193.192.0/19
35.193.224.0/19
35.193.32.0/19
35.193.64.0/19
35.193.96.0/19
35.194.0.0/19
35.194.128.0/19
35.194.160.0/19
35.194.192.0/19
35.194.224.0/19
35.194.32.0/19
35.194.64.0/19
35.194.96.0/19
35.195.0.0/19
35.195.128.0/19
35.195.160.0/19
35.195.192.0/19
35.195.224.0/19
35.195.32.0/19
35.195.64.0/19
35.195.96.0/19
35.196.0.0/15
35.196.128.0/19
35.196.160.0/19
35.196.192.0/19
35.196.224.0/19
35.196.32.0/19
35.196.64.0/19
35.196.96.0/19
35.197.0.0/19
35.197.128.0/19
35.197.160.0/19
35.197.192.0/19
35.197.224.0/19
35.197.32.0/19
35.197.64.0/19
35.197.96.0/19
35.198.0.0/16
35.198.128.0/19
35.198.160.0/19
35.198.192.0/19
35.198.224.0/19
35.198.32.0/19
35.198.64.0/19
35.198.96.0/19
35.199.0.0/17
35.199.128.0/17
35.199.160.0/19
35.199.192.0/19
35.199.224.0/19
35.199.32.0/19
35.199.64.0/18
35.199.96.0/19
35.200.0.0/13
35.200.128.0/19
35.200.160.0/19
35.200.192.0/19
35.200.224.0/19
35.200.32.0/19
35.200.64.0/19
35.200.96.0/19
35.201.0.0/17
35.201.128.0/19
35.201.160.0/19
35.201.192.0/19
35.201.224.0/19
35.201.32.0/19
35.202.0.0/19
35.202.128.0/19
35.202.160.0/19
35.202.192.0/19
35.202.224.0/19
35.202.32.0/19
35.202.64.0/19
35.202.96.0/19
35.203.0.0/19
35.203.128.0/19
35.203.160.0/19
35.203.192.0/19
35.203.224.0/19
35.203.32.0/19
35.203.64.0/19
35.203.96.0/19
35.204.0.0/15
35.204.128.0/19
35.204.160.0/19
35.204.192.0/19
35.204.224.0/19
35.204.32.0/19
35.204.64.0/19
35.204.96.0/19
35.205.0.0/19
35.205.128.0/19
35.205.160.0/19
35.205.192.0/19
35.205.224.0/19
35.205.32.0/19
35.205.64.0/19
35.205.96.0/19
35.206.0.0/15
35.206.1.0/24
35.206.128.0/18
35.206.192.0/18
35.206.2.0/24
35.206.3.0/24
35.206.32.0/19
35.206.4.0/24
35.206.5.0/24
35.206.6.0/24
35.206.64.0/18
35.206.9.0/24
35.207.0.0/18
35.207.128.0/18
35.207.192.0/18
35.207.64.0/18
35.208.0.0/12
35.210.0.0/16
35.211.0.0/16
35.212.0.0/14
35.212.128.0/17
35.213.0.0/17
35.213.128.0/18
35.213.192.0/18
35.214.0.0/17
35.214.128.0/17
35.215.0.0/18
35.215.128.0/18
35.215.192.0/18
35.215.64.0/18
35.216.0.0/14
35.216.128.0/17
35.217.0.0/18
35.217.128.0/17
35.217.64.0/18
35.219.0.0/17
35.219.128.0/18
35.220.0.0/14
35.224.0.0/12
35.224.128.0/19
35.224.160.0/19
35.224.192.0/19
35.224.224.0/19
35.224.32.0/19
35.224.64.0/19
35.224.96.0/19
35.225.0.0/19
35.225.128.0/19
35.225.160.0/19
35.225.192.0/19
35.225.224.0/19
35.225.32.0/19
35.225.64.0/19
35.225.96.0/19
35.226.0.0/19
35.226.128.0/19
35.226.160.0/19
35.226.192.0/19
35.226.224.0/19
35.226.32.0/19
35.226.64.0/19
35.226.96.0/19
35.227.0.0/19
35.227.128.0/17
35.227.160.0/19
35.227.32.0/19
35.227.64.0/19
35.227.96.0/19
35.228.0.0/14
35.228.128.0/19
35.228.160.0/19
35.228.192.0/19
35.228.224.0/19
35.228.32.0/19
35.228.64.0/19
35.228.96.0/19
35.229.0.0/16
35.229.32.0/19
35.229.64.0/19
35.229.96.0/19
35.230.0.0/16
35.230.192.0/19
35.230.224.0/19
35.231.0.0/16
35.231.128.0/19
35.231.160.0/19
35.231.192.0/19
35.231.224.0/19
35.232.0.0/14
35.232.128.0/19
35.232.160.0/19
35.232.192.0/19
35.232.224.0/19
35.232.32.0/19
35.232.64.0/19
35.232.96.0/19
35.233.0.0/19
35.233.128.0/19
35.233.160.0/19
35.233.192.0/19
35.233.224.0/19
35.233.32.0/19
35.233.64.0/19
35.233.96.0/19
35.234.0.0/19
35.234.128.0/19
35.234.160.0/19
35.234.192.0/19
35.234.224.0/19
35.234.32.0/19
35.234.64.0/19
35.234.96.0/19
35.235.0.0/19
35.235.128.0/19
35.235.160.0/19
35.235.192.0/19
35.235.224.0/19
35.235.32.0/19
35.235.64.0/19
35.235.96.0/19
35.236.0.0/14
35.236.128.0/19
35.236.160.0/19
35.236.192.0/19
35.236.224.0/19
35.236.32.0/19
35.236.64.0/19
35.236.96.0/19
35.237.0.0/19
35.237.128.0/19
35.237.160.0/19
35.237.192.0/19
35.237.224.0/19
35.237.32.0/19
35.237.64.0/19
35.237.96.0/19
35.238.0.0/19
35.238.128.0/19
35.238.160.0/19
35.238.192.0/19
35.238.224.0/19
35.238.32.0/19
35.238.64.0/19
35.238.96.0/19
35.239.0.0/19
35.239.128.0/19
35.239.160.0/19
35.239.192.0/19
35.239.224.0/19
35.239.32.0/19
35.239.64.0/19
35.239.96.0/19
35.240.0.0/13
35.240.128.0/19
35.240.160.0/19
35.240.192.0/19
35.240.224.0/19
35.240.32.0/19
35.240.64.0/19
35.240.96.0/19
35.241.0.0/19
35.241.128.0/19
35.241.160.0/19
35.241.192.0/19
35.241.224.0/19
35.241.32.0/19
35.241.64.0/19
35.241.96.0/19
35.242.0.0/19
35.242.128.0/19
35.242.160.0/19
35.242.192.0/19
35.242.224.0/19
35.242.32.0/19
35.242.64.0/19
35.242.96.0/19
35.243.0.0/19
35.243.128.0/19
35.243.160.0/19
35.243.192.0/19
35.243.224.0/19
35.243.32.0/19
35.243.64.0/19
35.243.96.0/19
35.244.0.0/14
45.121.228.0/24
45.121.229.0/24
45.121.230.0/23
45.121.231.0/24
45.56.0.0/18
64.15.112.0/20
64.15.113.0/24
64.15.114.0/23
64.15.115.0/24
64.15.116.0/23
64.15.117.0/24
64.15.118.0/23
64.15.119.0/24
64.15.120.0/23
64.15.121.0/24
64.15.122.0/23
64.15.123.0/24
64.15.124.0/23
64.15.125.0/24
64.15.126.0/23
64.15.127.0/24
64.18.0.0/23
64.18.8.0/22
64.233.160.0/19
64.233.161.0/24
64.233.162.0/23
64.233.163.0/24
64.233.164.0/23
64.233.165.0/24
64.233.166.0/23
64.233.167.0/24
64.233.168.0/23
64.233.169.0/24
64.233.170.0/23
64.233.171.0/24
64.233.172.0/23
64.233.173.0/24
64.233.174.0/23
64.233.175.0/24
64.233.176.0/23
64.233.177.0/24
64.233.178.0/23
64.233.179.0/24
64.233.180.0/23
64.233.181.0/24
64.233.182.0/23
64.233.183.0/24
64.233.184.0/23
64.233.185.0/24
64.233.186.0/23
64.233.187.0/24
64.233.188.0/23
64.233.189.0/24
64.233.190.0/23
64.233.191.0/24
64.9.224.0/19
64.9.225.0/24
64.9.227.0/24
64.9.228.0/22
64.9.229.0/24
64.9.232.0/21
64.9.236.0/22
64.9.238.0/24
64.9.240.0/20
64.9.241.0/24
64.9.243.0/24
64.9.244.0/22
64.9.248.0/21
64.9.249.0/24
64.9.250.0/23
64.9.251.0/24
64.9.252.0/22
64.9.253.0/24
64.9.254.0/23
64.9.255.0/24
66.102.0.0/20
66.102.1.0/24
66.102.10.0/23
66.102.11.0/24
66.102.12.0/23
66.102.13.0/24
66.102.14.0/23
66.102.15.0/24
66.102.2.0/23
66.102.3.0/24
66.102.4.0/23
66.102.5.0/24
66.102.6.0/23
66.102.7.0/24
66.102.8.0/23
66.102.9.0/24
66.249.64.0/19
66.249.65.0/24
66.249.66.0/23
66.249.67.0/24
66.249.68.0/23
66.249.69.0/24
66.249.70.0/23
66.249.71.0/24
66.249.72.0/23
66.249.73.0/24
66.249.74.0/23
66.249.75.0/24
66.249.76.0/23
66.249.77.0/24
66.249.78.0/23
66.249.79.0/24
66.249.80.0/20
66.249.81.0/24
66.249.82.0/23
66.249.83.0/24
66.249.84.0/23
66.249.85.0/24
66.249.86.0/23
66.249.87.0/24
66.249.88.0/23
66.249.89.0/24
66.249.90.0/23
66.249.91.0/24
66.249.92.0/23
66.249.93.0/24
66.249.94.0/23
66.249.95.0/24
70.32.128.0/19
70.32.129.0/24
70.32.131.0/24
70.32.132.0/24
70.32.133.0/24
70.32.134.0/24
70.32.136.0/24
70.32.144.0/24
70.32.145.0/24
70.32.146.0/23
70.32.148.0/24
70.32.149.0/24
70.32.150.0/24
70.32.151.0/24
70.32.152.0/22
70.32.156.0/23
70.32.158.0/24
70.32.159.0/24
72.14.192.0/18
72.14.193.0/24
72.14.194.0/23
72.14.195.0/24
72.14.196.0/23
72.14.197.0/24
72.14.198.0/23
72.14.199.0/24
72.14.200.0/23
72.14.201.0/24
72.14.202.0/23
72.14.203.0/24
72.14.204.0/23
72.14.205.0/24
72.14.206.0/23
72.14.207.0/24
72.14.208.0/23
72.14.209.0/24
72.14.210.0/23
72.14.211.0/24
72.14.212.0/23
72.14.213.0/24
72.14.214.0/23
72.14.215.0/24
72.14.216.0/23
72.14.217.0/24
72.14.218.0/23
72.14.219.0/24
72.14.220.0/23
72.14.221.0/24
72.14.222.0/23
72.14.223.0/24
72.14.224.0/23
72.14.225.0/24
72.14.226.0/23
72.14.227.0/24
72.14.228.0/23
72.14.229.0/24
72.14.230.0/23
72.14.231.0/24
72.14.232.0/23
72.14.233.0/24
72.14.234.0/23
72.14.235.0/24
72.14.236.0/23
72.14.237.0/24
72.14.238.0/23
72.14.239.0/24
72.14.240.0/23
72.14.241.0/24
72.14.242.0/23
72.14.243.0/24
72.14.244.0/23
72.14.245.0/24
72.14.246.0/23
72.14.247.0/24
72.14.248.0/23
72.14.249.0/24
72.14.250.0/23
72.14.251.0/24
72.14.252.0/23
72.14.253.0/24
72.14.254.0/23
72.14.255.0/24
74.114.24.0/21
74.114.25.0/24
74.114.26.0/23
74.114.27.0/24
74.114.28.0/23
74.114.29.0/24
74.114.30.0/23
74.114.31.0/24
74.125.0.0/16
74.125.1.0/24
74.125.10.0/23
74.125.100.0/23
74.125.101.0/24
74.125.102.0/23
74.125.103.0/24
74.125.104.0/23
74.125.105.0/24
74.125.106.0/23
74.125.107.0/24
74.125.108.0/23
74.125.109.0/24
74.125.11.0/24
74.125.110.0/23
74.125.111.0/24
74.125.112.0/23
74.125.113.0/24
74.125.114.0/23
74.125.115.0/24
74.125.116.0/23
74.125.117.0/24
74.125.118.0/23
74.125.119.0/24
74.125.12.0/23
74.125.120.0/23
74.125.121.0/24
74.125.122.0/23
74.125.123.0/24
74.125.124.0/23
74.125.125.0/24
74.125.126.0/23
74.125.127.0/24
74.125.128.0/23
74.125.129.0/24
74.125.13.0/24
74.125.130.0/23
74.125.131.0/24
74.125.132.0/23
74.125.133.0/24
74.125.134.0/23
74.125.135.0/24
74.125.136.0/23
74.125.137.0/24
74.125.138.0/23
74.125.139.0/24
74.125.14.0/23
74.125.140.0/23
74.125.141.0/24
74.125.142.0/23
74.125.143.0/24
74.125.144.0/23
74.125.145.0/24
74.125.146.0/23
74.125.147.0/24
74.125.148.0/23
74.125.149.0/24
74.125.15.0/24
74.125.150.0/23
74.125.151.0/24
74.125.152.0/21
74.125.153.0/24
74.125.154.0/23
74.125.155.0/24
74.125.156.0/23
74.125.157.0/24
74.125.158.0/23
74.125.159.0/24
74.125.16.0/23
74.125.160.0/23
74.125.161.0/24
74.125.162.0/23
74.125.163.0/24
74.125.164.0/23
74.125.165.0/24
74.125.166.0/23
74.125.167.0/24
74.125.168.0/23
74.125.169.0/24
74.125.17.0/24
74.125.170.0/23
74.125.171.0/24
74.125.172.0/23
74.125.173.0/24
74.125.174.0/23
74.125.175.0/24
74.125.176.0/20
74.125.177.0/24
74.125.178.0/23
74.125.179.0/24
74.125.18.0/23
74.125.180.0/23
74.125.181.0/24
74.125.182.0/23
74.125.183.0/24
74.125.184.0/23
74.125.185.0/24
74.125.186.0/23
74.125.187.0/24
74.125.188.0/23
74.125.189.0/24
74.125.19.0/24
74.125.190.0/23
74.125.191.0/24
74.125.192.0/23
74.125.193.0/24
74.125.194.0/23
74.125.195.0/24
74.125.196.0/23
74.125.197.0/24
74.125.198.0/23
74.125.199.0/24
74.125.2.0/23
74.125.20.0/23
74.125.200.0/23
74.125.201.0/24
74.125.202.0/23
74.125.203.0/24
74.125.204.0/23
74.125.205.0/24
74.125.206.0/23
74.125.207.0/24
74.125.208.0/23
74.125.209.0/24
74.125.21.0/24
74.125.210.0/23
74.125.211.0/24
74.125.212.0/23
74.125.213.0/24
74.125.214.0/23
74.125.215.0/24
74.125.216.0/23
74.125.217.0/24
74.125.218.0/23
74.125.219.0/24
74.125.22.0/23
74.125.220.0/23
74.125.221.0/24
74.125.222.0/23
74.125.223.0/24
74.125.224.0/23
74.125.225.0/24
74.125.226.0/23
74.125.227.0/24
74.125.228.0/23
74.125.229.0/24
74.125.23.0/24
74.125.230.0/23
74.125.231.0/24
74.125.232.0/23
74.125.233.0/24
74.125.234.0/23
74.125.235.0/24
74.125.236.0/23
74.125.237.0/24
74.125.238.0/23
74.125.239.0/24
74.125.24.0/23
74.125.240.0/23
74.125.241.0/24
74.125.242.0/23
74.125.243.0/24
74.125.244.0/23
74.125.245.0/24
74.125.246.0/23
74.125.247.0/24
74.125.248.0/23
74.125.249.0/24
74.125.25.0/24
74.125.250.0/23
74.125.251.0/24
74.125.252.0/23
74.125.253.0/24
74.125.254.0/23
74.125.255.0/24
74.125.26.0/23
74.125.27.0/24
74.125.28.0/23
74.125.29.0/24
74.125.3.0/24
74.125.30.0/23
74.125.31.0/24
74.125.32.0/23
74.125.33.0/24
74.125.34.0/23
74.125.35.0/24
74.125.36.0/23
74.125.37.0/24
74.125.38.0/23
74.125.39.0/24
74.125.4.0/23
74.125.40.0/23
74.125.41.0/24
74.125.42.0/23
74.125.43.0/24
74.125.44.0/22
74.125.45.0/24
74.125.46.0/23
74.125.47.0/24
74.125.48.0/23
74.125.49.0/24
74.125.5.0/24
74.125.50.0/23
74.125.51.0/24
74.125.52.0/23
74.125.53.0/24
74.125.54.0/23
74.125.55.0/24
74.125.56.0/23
74.125.57.0/24
74.125.57.240/29
74.125.58.0/23
74.125.59.0/24
74.125.6.0/23
74.125.60.0/23
74.125.61.0/24
74.125.62.0/23
74.125.63.0/24
74.125.64.0/22
74.125.65.0/24
74.125.66.0/23
74.125.67.0/24
74.125.68.0/23
74.125.69.0/24
74.125.7.0/24
74.125.70.0/23
74.125.71.0/24
74.125.72.0/22
74.125.73.0/24
74.125.74.0/23
74.125.75.0/24
74.125.76.0/23
74.125.77.0/24
74.125.78.0/23
74.125.79.0/24
74.125.8.0/23
74.125.80.0/23
74.125.81.0/24
74.125.82.0/23
74.125.83.0/24
74.125.84.0/23
74.125.85.0/24
74.125.86.0/23
74.125.87.0/24
74.125.88.0/23
74.125.89.0/24
74.125.9.0/24
74.125.90.0/23
74.125.91.0/24
74.125.92.0/23
74.125.93.0/24
74.125.94.0/23
74.125.95.0/24
74.125.96.0/23
74.125.97.0/24
74.125.98.0/23
74.125.99.0/24
8.15.202.0/24
8.34.208.0/20
8.34.209.0/24
8.34.210.0/23
8.34.211.0/24
8.34.212.0/23
8.34.213.0/24
8.34.214.0/23
8.34.215.0/24
8.34.216.0/21
8.34.217.0/24
8.34.218.0/23
8.34.219.0/24
8.34.220.0/23
8.34.221.0/24
8.34.222.0/23
8.34.223.0/24
8.35.192.0/20
8.35.193.0/24
8.35.194.0/23
8.35.195.0/24
8.35.196.0/23
8.35.197.0/24
8.35.198.0/23
8.35.199.0/24
8.35.200.0/21
8.35.201.0/24
8.35.202.0/23
8.35.203.0/24
8.35.204.0/23
8.35.205.0/24
8.35.206.0/23
8.35.207.0/24
8.6.48.0/21
8.6.52.0/22
8.8.4.0/24
8.8.8.0/24
89.207.224.0/21
89.207.225.0/24
89.207.226.0/23
89.207.227.0/24
89.207.228.0/23
89.207.229.0/24
89.207.230.0/23
89.207.231.0/24
99.198.128.0/17