103.28.248.0/24
103.28.249.0/24
103.28.250.0/24
103.28.251.0/24
107.154.1.0/24
107.154.10.0/24
107.154.100.0/24
107.154.101.0/24
107.154.102.0/24
107.154.103.0/24
107.154.104.0/24
107.154.105.0/24
107.154.106.0/24
107.154.107.0/24
107.154.108.0/24
107.154.109.0/24
107.154.11.0/24
107.154.110.0/24
107.154.111.0/24
107.154.112.0/24
107.154.113.0/24
107.154.114.0/24
107.154.115.0/24
107.154.116.0/24
107.154.117.0/24
107.154.118.0/24
107.154.119.0/24
107.154.12.0/24
107.154.120.0/24
107.154.121.0/24
107.154.122.0/24
107.154.123.0/24
107.154.124.0/24
107.154.125.0/24
107.154.126.0/24
107.154.127.0/24
107.154.128.0/24
107.154.129.0/24
107.154.13.0/24
107.154.130.0/24
107.154.131.0/24
107.154.132.0/24
107.154.133.0/24
107.154.134.0/24
107.154.135.0/24
107.154.136.0/24
107.154.137.0/24
107.154.138.0/24
107.154.139.0/24
107.154.14.0/24
107.154.140.0/24
107.154.141.0/24
107.154.142.0/24
107.154.143.0/24
107.154.144.0/24
107.154.145.0/24
107.154.146.0/24
107.154.147.0/24
107.154.148.0/24
107.154.149.0/24
107.154.15.0/24
107.154.150.0/24
107.154.151.0/24
107.154.152.0/24
107.154.153.0/24
107.154.154.0/24
107.154.155.0/24
107.154.156.0/24
107.154.157.0/24
107.154.158.0/24
107.154.159.0/24
107.154.16.0/24
107.154.160.0/24
107.154.161.0/24
107.154.162.0/24
107.154.163.0/24
107.154.164.0/24
107.154.165.0/24
107.154.166.0/24
107.154.167.0/24
107.154.168.0/24
107.154.169.0/24
107.154.17.0/24
107.154.170.0/24
107.154.171.0/24
107.154.172.0/24
107.154.173.0/24
107.154.174.0/24
107.154.175.0/24
107.154.176.0/24
107.154.177.0/24
107.154.178.0/24
107.154.179.0/24
107.154.18.0/24
107.154.180.0/24
107.154.181.0/24
107.154.182.0/24
107.154.183.0/24
107.154.184.0/24
107.154.185.0/24
107.154.189.0/24
107.154.19.0/24
107.154.192.0/24
107.154.193.0/24
107.154.194.0/24
107.154.195.0/24
107.154.196.0/24
107.154.197.0/24
107.154.198.0/24
107.154.199.0/24
107.154.2.0/24
107.154.20.0/24
107.154.200.0/24
107.154.201.0/24
107.154.202.0/24
107.154.203.0/24
107.154.205.0/24
107.154.206.0/24
107.154.207.0/24
107.154.208.0/24
107.154.209.0/24
107.154.21.0/24
107.154.210.0/24
107.154.211.0/24
107.154.212.0/24
107.154.213.0/24
107.154.214.0/24
107.154.215.0/24
107.154.216.0/24
107.154.217.0/24
107.154.218.0/24
107.154.219.0/24
107.154.22.0/24
107.154.220.0/24
107.154.221.0/24
107.154.222.0/24
107.154.223.0/24
107.154.224.0/24
107.154.225.0/24
107.154.226.0/24
107.154.227.0/24
107.154.228.0/24
107.154.229.0/24
107.154.23.0/24
107.154.230.0/24
107.154.231.0/24
107.154.232.0/24
107.154.233.0/24
107.154.234.0/24
107.154.235.0/24
107.154.236.0/24
107.154.237.0/24
107.154.238.0/24
107.154.239.0/24
107.154.24.0/24
107.154.240.0/24
107.154.241.0/24
107.154.242.0/24
107.154.243.0/24
107.154.244.0/24
107.154.245.0/24
107.154.246.0/24
107.154.247.0/24
107.154.248.0/24
107.154.249.0/24
107.154.25.0/24
107.154.250.0/24
107.154.251.0/24
107.154.252.0/24
107.154.26.0/24
107.154.27.0/24
107.154.28.0/24
107.154.29.0/24
107.154.3.0/24
107.154.30.0/24
107.154.31.0/24
107.154.32.0/24
107.154.33.0/24
107.154.34.0/24
107.154.35.0/24
107.154.36.0/24
107.154.37.0/24
107.154.38.0/24
107.154.39.0/24
107.154.4.0/24
107.154.40.0/24
107.154.41.0/24
107.154.42.0/24
107.154.43.0/24
107.154.44.0/24
107.154.5.0/24
107.154.50.0/24
107.154.51.0/24
107.154.52.0/24
107.154.6.0/24
107.154.60.0/24
107.154.61.0/24
107.154.62.0/24
107.154.63.0/24
107.154.65.0/24
107.154.66.0/24
107.154.7.0/24
107.154.70.0/24
107.154.71.0/24
107.154.72.0/24
107.154.73.0/24
107.154.74.0/24
107.154.75.0/24
107.154.76.0/24
107.154.77.0/24
107.154.79.0/24
107.154.8.0/24
107.154.80.0/24
107.154.81.0/24
107.154.84.0/24
107.154.85.0/24
107.154.86.0/24
107.154.87.0/24
107.154.88.0/24
107.154.89.0/24
107.154.9.0/24
107.154.90.0/24
107.154.94.0/24
107.154.95.0/24
107.154.96.0/24
107.154.97.0/24
107.154.98.0/24
107.154.99.0/24
149.126.72.0/24
149.126.73.0/24
149.126.74.0/24
149.126.75.0/24
149.126.76.0/24
149.126.77.0/24
149.126.78.0/24
149.126.79.0/24
185.11.124.0/24
185.11.125.0/24
185.64.10.0/24
185.64.8.0/24
185.64.9.0/24
192.230.100.0/24
192.230.101.0/24
192.230.102.0/24
192.230.103.0/24
192.230.105.0/24
192.230.106.0/24
192.230.108.0/24
192.230.109.0/24
192.230.110.0/24
192.230.111.0/24
192.230.112.0/24
192.230.113.0/24
192.230.114.0/24
192.230.115.0/24
192.230.116.0/24
192.230.117.0/24
192.230.118.0/24
192.230.119.0/24
192.230.120.0/24
192.230.121.0/24
192.230.122.0/24
192.230.123.0/24
192.230.124.0/24
192.230.125.0/24
192.230.126.0/24
192.230.127.0/24
192.230.64.0/24
192.230.65.0/24
192.230.66.0/24
192.230.67.0/24
192.230.68.0/24
192.230.69.0/24
192.230.70.0/24
192.230.71.0/24
192.230.72.0/24
192.230.73.0/24
192.230.74.0/24
192.230.75.0/24
192.230.76.0/24
192.230.77.0/24
192.230.78.0/24
192.230.79.0/24
192.230.80.0/24
192.230.81.0/24
192.230.82.0/24
192.230.83.0/24
192.230.84.0/24
192.230.85.0/24
192.230.86.0/24
192.230.87.0/24
192.230.88.0/24
192.230.89.0/24
192.230.90.0/24
192.230.91.0/24
192.230.92.0/24
192.230.93.0/24
192.230.94.0/24
192.230.95.0/24
192.230.96.0/24
192.230.97.0/24
192.230.98.0/24
192.230.99.0/24
198.143.32.0/24
198.143.33.0/24
198.143.34.0/24
198.143.35.0/24
198.143.36.0/24
198.143.37.0/24
198.143.38.0/24
198.143.39.0/24
198.143.41.0/24
198.143.43.0/24
198.143.44.0/24
198.143.45.0/24
198.143.46.0/24
198.143.47.0/24
198.143.48.0/24
198.143.49.0/24
198.143.50.0/24
198.143.51.0/24
198.143.52.0/24
198.143.53.0/24
198.143.54.0/24
198.143.55.0/24
198.143.56.0/24
198.143.57.0/24
198.143.58.0/24
198.143.59.0/24
198.143.60.0/24
198.143.61.0/24
198.143.62.0/24
198.143.63.0/24
198.51.94.0/24
199.83.128.0/24
199.83.129.0/24
199.83.130.0/24
199.83.131.0/24
199.83.132.0/24
199.83.133.0/24
199.83.134.0/24
199.83.135.0/24
42.200.32.0/24
45.223.101.0/24
45.223.128.0/24
45.223.129.0/24
45.223.130.0/24
45.223.131.0/24
45.223.132.0/24
45.223.133.0/24
45.223.134.0/24
45.223.135.0/24
45.223.136.0/24
45.223.137.0/24
45.223.138.0/24
45.223.139.0/24
45.223.140.0/24
45.223.141.0/24
45.223.142.0/24
45.223.143.0/24
45.223.144.0/24
45.223.145.0/24
45.223.146.0/24
45.223.147.0/24
45.223.16.0/24
45.223.160.0/24
45.223.161.0/24
45.223.162.0/24
45.223.163.0/24
45.223.164.0/24
45.223.165.0/24
45.223.166.0/24
45.223.167.0/24
45.223.168.0/24
45.223.169.0/24
45.223.17.0/24
45.223.170.0/24
45.223.171.0/24
45.223.172.0/24
45.223.173.0/24
45.223.174.0/24
45.223.175.0/24
45.223.176.0/24
45.223.177.0/24
45.223.178.0/24
45.223.179.0/24
45.223.18.0/24
45.223.180.0/24
45.223.181.0/24
45.223.182.0/24
45.223.183.0/24
45.223.19.0/24
45.223.20.0/24
45.223.21.0/24
45.223.22.0/24
45.223.23.0/24
45.223.24.0/24
45.223.25.0/24
45.223.26.0/24
45.223.27.0/24
45.223.28.0/24
45.223.29.0/24
45.223.30.0/24
45.223.31.0/24
45.223.32.0/24
45.223.33.0/24
45.223.34.0/24
45.223.35.0/24
45.223.36.0/24
45.223.37.0/24
45.223.38.0/24
45.223.39.0/24
45.223.40.0/24
45.223.41.0/24
45.223.42.0/24
45.223.43.0/24
45.223.44.0/24
45.223.45.0/24
45.223.46.0/24
45.223.47.0/24
45.60.0.0/24
45.60.1.0/24
45.60.10.0/24
45.60.100.0/24
45.60.101.0/24
45.60.102.0/24
45.60.103.0/24
45.60.104.0/24
45.60.105.0/24
45.60.106.0/24
45.60.107.0/24
45.60.108.0/24
45.60.109.0/24
45.60.11.0/24
45.60.110.0/24
45.60.111.0/24
45.60.112.0/24
45.60.113.0/24
45.60.114.0/24
45.60.115.0/24
45.60.116.0/24
45.60.117.0/24
45.60.118.0/24
45.60.119.0/24
45.60.12.0/24
45.60.120.0/24
45.60.121.0/24
45.60.122.0/24
45.60.123.0/24
45.60.124.0/24
45.60.125.0/24
45.60.126.0/24
45.60.127.0/24
45.60.128.0/24
45.60.129.0/24
45.60.13.0/24
45.60.130.0/24
45.60.131.0/24
45.60.132.0/24
45.60.133.0/24
45.60.134.0/24
45.60.135.0/24
45.60.136.0/24
45.60.137.0/24
45.60.138.0/24
45.60.139.0/24
45.60.14.0/24
45.60.140.0/24
45.60.141.0/24
45.60.142.0/24
45.60.143.0/24
45.60.144.0/24
45.60.145.0/24
45.60.146.0/24
45.60.147.0/24
45.60.148.0/24
45.60.149.0/24
45.60.15.0/24
45.60.150.0/24
45.60.151.0/24
45.60.152.0/24
45.60.153.0/24
45.60.154.0/24
45.60.155.0/24
45.60.156.0/24
45.60.157.0/24
45.60.158.0/24
45.60.159.0/24
45.60.16.0/24
45.60.160.0/24
45.60.161.0/24
45.60.162.0/24
45.60.163.0/24
45.60.164.0/24
45.60.165.0/24
45.60.166.0/24
45.60.167.0/24
45.60.168.0/24
45.60.169.0/24
45.60.17.0/24
45.60.170.0/24
45.60.171.0/24
45.60.172.0/24
45.60.173.0/24
45.60.175.0/24
45.60.176.0/24
45.60.177.0/24
45.60.18.0/24
45.60.181.0/24
45.60.182.0/24
45.60.183.0/24
45.60.184.0/24
45.60.186.0/24
45.60.188.0/24
45.60.19.0/24
45.60.193.0/24
45.60.194.0/24
45.60.195.0/24
45.60.196.0/24
45.60.197.0/24
45.60.198.0/24
45.60.199.0/24
45.60.2.0/24
45.60.20.0/24
45.60.200.0/24
45.60.201.0/24
45.60.202.0/24
45.60.203.0/24
45.60.204.0/24
45.60.205.0/24
45.60.206.0/24
45.60.207.0/24
45.60.208.0/24
45.60.209.0/24
45.60.21.0/24
45.60.210.0/24
45.60.211.0/24
45.60.212.0/24
45.60.213.0/24
45.60.214.0/24
45.60.215.0/24
45.60.216.0/24
45.60.217.0/24
45.60.218.0/24
45.60.219.0/24
45.60.22.0/24
45.60.220.0/24
45.60.221.0/24
45.60.222.0/24
45.60.223.0/24
45.60.224.0/24
45.60.225.0/24
45.60.226.0/24
45.60.228.0/24
45.60.23.0/24
45.60.230.0/24
45.60.232.0/24
45.60.233.0/24
45.60.234.0/24
45.60.236.0/24
45.60.238.0/24
45.60.239.0/24
45.60.24.0/24
45.60.240.0/24
45.60.241.0/24
45.60.242.0/24
45.60.243.0/24
45.60.244.0/24
45.60.245.0/24
45.60.246.0/24
45.60.247.0/24
45.60.248.0/24
45.60.249.0/24
45.60.25.0/24
45.60.250.0/24
45.60.251.0/24
45.60.26.0/24
45.60.27.0/24
45.60.28.0/24
45.60.29.0/24
45.60.3.0/24
45.60.30.0/24
45.60.31.0/24
45.60.32.0/24
45.60.33.0/24
45.60.34.0/24
45.60.35.0/24
45.60.36.0/24
45.60.37.0/24
45.60.38.0/24
45.60.39.0/24
45.60.4.0/24
45.60.40.0/24
45.60.41.0/24
45.60.42.0/24
45.60.43.0/24
45.60.44.0/24
45.60.45.0/24
45.60.46.0/24
45.60.47.0/24
45.60.48.0/24
45.60.49.0/24
45.60.5.0/24
45.60.50.0/24
45.60.51.0/24
45.60.52.0/24
45.60.53.0/24
45.60.54.0/24
45.60.55.0/24
45.60.56.0/24
45.60.57.0/24
45.60.58.0/24
45.60.59.0/24
45.60.6.0/24
45.60.60.0/24
45.60.62.0/24
45.60.63.0/24
45.60.64.0/24
45.60.65.0/24
45.60.66.0/24
45.60.67.0/24
45.60.68.0/24
45.60.69.0/24
45.60.7.0/24
45.60.70.0/24
45.60.71.0/24
45.60.72.0/24
45.60.73.0/24
45.60.74.0/24
45.60.75.0/24
45.60.76.0/24
45.60.77.0/24
45.60.78.0/24
45.60.79.0/24
45.60.8.0/24
45.60.80.0/24
45.60.81.0/24
45.60.82.0/24
45.60.83.0/24
45.60.84.0/24
45.60.85.0/24
45.60.86.0/24
45.60.87.0/24
45.60.88.0/24
45.60.89.0/24
45.60.9.0/24
45.60.90.0/24
45.60.91.0/24
45.60.92.0/24
45.60.93.0/24
45.60.94.0/24
45.60.95.0/24
45.60.96.0/24
45.60.97.0/24
45.60.98.0/24
45.60.99.0/24
45.64.64.0/24
45.64.65.0/24
45.64.66.0/24
45.64.67.0/24