103.22.130.0/24
103.28.24.0/22
103.28.26.0/23
103.94.240.0/22
103.96.100.0/22
104.219.72.0/22
104.219.75.0/24
107.150.128.0/21
107.150.136.0/21
107.150.144.0/21
107.150.146.0/23
107.150.152.0/21
107.150.156.0/22
107.6.112.0/21
107.6.116.0/22
107.6.120.0/23
107.6.122.0/23
107.6.128.0/18
107.6.136.0/24
107.6.140.0/22
107.6.150.0/23
107.6.152.0/22
107.6.156.0/23
107.6.160.0/20
107.6.176.0/21
107.6.184.0/22
107.6.64.0/18
107.6.72.0/21
107.6.88.0/21
107.6.92.0/23
107.6.93.0/24
107.6.96.0/21
108.163.192.0/18
108.163.200.0/24
108.163.236.0/22
108.178.0.0/19
108.178.12.0/24
108.178.32.0/20
108.178.48.0/20
108.178.54.0/23
108.178.6.0/24
109.199.112.0/22
109.199.116.0/24
109.199.125.0/24
109.199.127.0/24
109.199.96.0/19
109.73.224.0/20
109.73.225.0/24
109.73.226.0/24
109.73.227.0/24
109.73.230.0/24
109.73.231.0/24
109.73.232.0/24
109.73.235.0/24
109.73.236.0/24
109.73.238.0/24
109.73.239.0/24
111.221.56.0/22
111.221.57.0/24
117.20.40.0/21
117.20.41.0/24
117.20.45.0/24
119.59.72.0/21
122.200.32.0/22
122.200.36.0/22
122.255.76.0/22
146.66.100.0/24
146.66.101.0/24
146.66.103.0/24
146.66.109.0/24
146.66.110.0/24
146.66.111.0/24
146.66.112.0/24
146.66.113.0/24
146.66.114.0/24
146.66.117.0/24
146.66.64.0/24
146.66.65.0/24
146.66.66.0/24
146.66.67.0/24
146.66.68.0/24
146.66.69.0/24
146.66.70.0/24
146.66.71.0/24
146.66.72.0/24
146.66.73.0/24
146.66.74.0/24
146.66.75.0/24
146.66.76.0/24
146.66.77.0/24
146.66.78.0/24
146.66.79.0/24
146.66.80.0/24
146.66.81.0/24
146.66.82.0/24
146.66.83.0/24
146.66.84.0/24
146.66.85.0/24
146.66.86.0/24
146.66.87.0/24
146.66.88.0/24
146.66.95.0/24
146.66.96.0/24
146.66.97.0/24
146.66.98.0/24
146.66.99.0/24
147.75.129.0/24
162.217.100.0/22
162.217.12.0/22
162.217.8.0/22
162.217.96.0/22
162.217.98.0/24
162.217.99.0/24
162.253.224.0/22
172.94.45.0/24
172.96.184.0/24
172.96.186.0/24
172.96.187.0/24
172.96.188.0/24
173.231.128.0/18
173.231.176.0/22
173.231.180.0/23
173.231.182.0/23
173.236.0.0/17
173.236.16.0/24
173.236.2.0/24
173.236.4.0/23
173.236.64.0/23
173.236.66.0/24
173.236.67.0/24
173.236.68.0/22
173.236.69.0/24
173.236.7.0/24
173.236.72.0/21
173.236.8.0/23
173.236.80.0/20
173.236.96.0/19
180.92.188.0/23
180.92.190.0/23
181.224.128.0/24
181.224.129.0/24
181.224.130.0/24
181.224.131.0/24
181.224.132.0/24
181.224.133.0/24
181.224.134.0/24
181.224.135.0/24
181.224.136.0/24
181.224.137.0/24
181.224.138.0/24
181.224.139.0/24
181.224.140.0/24
181.224.141.0/24
181.224.142.0/24
181.224.143.0/24
181.224.144.0/22
181.224.146.0/24
181.224.148.0/24
181.224.152.0/24
181.224.153.0/24
181.224.154.0/23
181.224.155.0/24
184.154.0.0/16
184.154.120.0/24
184.154.14.0/24
184.154.152.0/24
184.154.160.0/24
184.154.168.0/24
184.154.22.0/24
184.154.224.0/20
184.154.240.0/21
184.154.46.0/24
184.154.63.0/24
184.154.70.0/24
185.107.96.0/24
185.126.96.0/24
185.126.97.0/24
185.175.12.0/22
185.197.128.0/24
185.197.129.0/24
185.197.130.0/24
185.197.131.0/24
185.21.133.0/24
185.21.134.0/24
185.21.135.0/24
185.225.236.0/22
185.56.84.0/22
185.56.86.0/24
185.62.238.0/24
185.62.239.0/24
192.170.144.0/20
192.170.152.0/23
192.170.154.0/23
192.170.156.0/23
192.170.158.0/23
192.170.159.0/24
192.92.97.0/24
198.143.128.0/18
198.143.152.0/24
198.143.160.0/20
198.143.164.0/24
198.143.166.0/24
198.143.170.0/24
198.143.172.0/22
198.143.176.0/20
198.143.184.0/21
198.20.64.0/18
198.20.72.0/21
198.20.80.0/21
198.20.88.0/22
198.20.96.0/19
198.91.80.0/20
198.91.81.0/24
198.91.82.0/24
198.91.83.0/24
198.91.84.0/24
198.91.85.0/24
198.91.86.0/24
198.91.87.0/24
198.91.88.0/24
198.91.89.0/24
198.91.90.0/24
198.91.91.0/24
198.91.92.0/24
198.91.93.0/24
198.91.94.0/24
198.91.95.0/24
199.196.169.0/24
199.21.76.0/22
199.21.78.0/23
199.21.80.0/22
199.244.252.0/22
199.26.192.0/24
202.56.8.0/21
202.58.136.0/21
202.58.8.0/21
203.169.14.0/24
203.169.8.0/21
203.190.120.0/21
203.190.121.0/24
203.190.122.0/24
203.95.24.0/21
206.191.128.0/20
206.191.144.0/21
206.191.148.0/22
206.191.151.0/24
206.191.152.0/23
206.191.154.0/23
206.191.156.0/23
206.191.158.0/23
206.191.160.0/20
206.191.168.0/21
206.191.176.0/21
206.191.180.0/22
206.191.182.0/23
206.253.192.0/21
206.253.208.0/20
206.253.212.0/23
206.253.220.0/23
208.122.0.0/18
208.122.22.0/24
208.122.23.0/24
208.122.30.0/23
208.122.31.0/24
208.75.212.0/22
209.182.110.0/23
209.191.128.0/19
209.191.160.0/19
209.191.162.0/23
209.191.164.0/23
209.191.168.0/21
209.191.182.0/23
209.222.114.0/24
209.222.115.0/24
210.193.113.0/24
210.193.120.0/21
210.193.122.0/24
210.193.64.0/18
210.193.97.0/24
212.118.224.0/19
216.104.32.0/20
216.133.224.0/19
216.151.166.0/24
216.223.0.0/21
216.223.16.0/20
216.223.24.0/22
216.223.28.0/22
216.223.32.0/19
216.223.38.0/23
216.223.8.0/21
216.52.0.0/22
216.52.104.0/22
216.52.128.0/19
216.52.13.0/24
216.52.160.0/21
216.52.168.0/21
216.52.176.0/20
216.52.192.0/20
216.52.208.0/20
216.52.224.0/19
216.52.24.0/22
216.52.28.0/22
216.52.30.0/23
216.52.32.0/20
216.52.36.0/22
216.52.48.0/20
216.52.64.0/20
216.52.80.0/21
216.52.88.0/21
216.52.96.0/20
23.91.112.0/21
23.91.113.0/24
23.92.176.0/22
23.92.180.0/22
23.92.182.0/23
23.92.184.0/22
23.92.188.0/22
31.186.224.0/19
31.186.226.0/23
31.186.228.0/24
31.186.229.0/24
31.186.240.0/23
31.186.242.0/23
31.186.246.0/23
31.186.252.0/22
37.60.224.0/24
37.60.225.0/24
37.60.226.0/24
37.60.227.0/24
37.60.228.0/24
37.60.229.0/24
37.60.230.0/24
37.60.231.0/24
37.60.232.0/24
37.60.233.0/24
37.60.234.0/24
37.60.235.0/24
37.60.236.0/24
37.60.237.0/24
37.60.238.0/24
37.60.239.0/24
37.60.240.0/24
37.60.241.0/24
37.60.242.0/24
37.60.243.0/24
37.60.244.0/24
37.60.245.0/24
37.60.247.0/24
37.60.248.0/24
37.60.249.0/24
37.60.250.0/24
37.60.251.0/24
37.60.252.0/24
37.60.253.0/24
37.60.255.0/24
63.251.0.0/20
63.251.100.0/22
63.251.104.0/22
63.251.110.0/23
63.251.111.0/24
63.251.112.0/23
63.251.114.0/23
63.251.124.0/22
63.251.126.0/23
63.251.128.0/20
63.251.134.0/24
63.251.144.0/20
63.251.16.0/20
63.251.160.0/20
63.251.176.0/20
63.251.192.0/19
63.251.208.0/20
63.251.224.0/22
63.251.226.0/24
63.251.227.0/24
63.251.232.0/22
63.251.238.0/23
63.251.240.0/22
63.251.244.0/22
63.251.248.0/22
63.251.252.0/22
63.251.32.0/20
63.251.48.0/20
63.251.64.0/20
63.251.78.0/24
63.251.80.0/20
63.251.86.0/23
63.251.96.0/22
64.46.104.0/22
64.46.108.0/23
64.46.97.0/24
64.46.98.0/24
64.46.99.0/24
64.7.192.0/22
64.7.196.0/22
64.7.200.0/21
64.7.208.0/21
64.7.216.0/22
64.7.218.0/24
64.7.220.0/23
64.7.223.0/24
64.74.0.0/19
64.74.100.0/23
64.74.110.0/23
64.74.112.0/20
64.74.115.0/24
64.74.117.0/24
64.74.119.0/24
64.74.12.0/23
64.74.120.0/24
64.74.128.0/20
64.74.144.0/20
64.74.16.0/22
64.74.160.0/20
64.74.176.0/20
64.74.192.0/20
64.74.207.0/24
64.74.208.0/20
64.74.224.0/20
64.74.240.0/20
64.74.32.0/19
64.74.46.0/23
64.74.54.0/24
64.74.64.0/19
64.74.72.0/23
64.74.78.0/23
64.74.80.0/23
64.74.96.0/20
64.94.0.0/20
64.94.112.0/20
64.94.128.0/20
64.94.144.0/20
64.94.158.0/24
64.94.16.0/20
64.94.160.0/20
64.94.176.0/20
64.94.192.0/20
64.94.208.0/20
64.94.224.0/20
64.94.240.0/20
64.94.32.0/20
64.94.48.0/20
64.94.72.0/21
64.94.8.0/24
64.94.88.0/22
64.94.94.0/24
64.94.96.0/20
64.95.0.0/20
64.95.100.0/22
64.95.108.0/22
64.95.112.0/20
64.95.128.0/21
64.95.137.0/24
64.95.140.0/22
64.95.144.0/22
64.95.156.0/23
64.95.158.0/23
64.95.16.0/21
64.95.160.0/19
64.95.176.0/22
64.95.180.0/22
64.95.184.0/21
64.95.188.0/22
64.95.192.0/20
64.95.204.0/22
64.95.208.0/20
64.95.224.0/20
64.95.24.0/22
64.95.240.0/20
64.95.32.0/20
64.95.48.0/20
64.95.52.0/24
64.95.60.0/24
64.95.64.0/20
64.95.80.0/20
64.95.96.0/22
64.95.98.0/23
65.60.0.0/18
65.60.26.0/23
65.60.45.0/24
66.103.16.0/20
66.150.0.0/20
66.150.112.0/20
66.150.128.0/20
66.150.144.0/20
66.150.16.0/20
66.150.160.0/20
66.150.176.0/20
66.150.192.0/20
66.150.200.0/24
66.150.208.0/20
66.150.224.0/20
66.150.240.0/20
66.150.32.0/20
66.150.40.0/24
66.150.48.0/20
66.150.64.0/19
66.150.96.0/20
66.151.0.0/19
66.151.112.0/20
66.151.128.0/20
66.151.144.0/20
66.151.160.0/20
66.151.176.0/20
66.151.192.0/20
66.151.208.0/21
66.151.220.0/22
66.151.224.0/20
66.151.240.0/20
66.151.32.0/20
66.151.48.0/20
66.151.64.0/20
66.151.67.0/24
66.151.80.0/20
66.151.88.0/21
66.151.96.0/20
66.171.192.0/20
66.171.196.0/22
66.171.200.0/21
66.79.128.0/20
66.79.136.0/24
66.79.137.0/24
66.79.138.0/23
66.79.140.0/22
67.212.160.0/19
67.212.190.0/24
69.175.0.0/17
69.175.117.0/24
69.175.16.0/24
69.175.32.0/24
69.175.41.0/24
69.175.76.0/24
69.25.0.0/20
69.25.104.0/24
69.25.120.0/21
69.25.128.0/20
69.25.144.0/20
69.25.16.0/20
69.25.160.0/21
69.25.168.0/21
69.25.176.0/20
69.25.188.0/23
69.25.192.0/20
69.25.208.0/20
69.25.224.0/21
69.25.232.0/22
69.25.240.0/20
69.25.32.0/20
69.25.40.0/21
69.25.48.0/21
69.25.56.0/21
69.25.63.0/24
69.25.64.0/20
69.25.80.0/20
69.25.81.0/24
69.25.96.0/20
69.60.30.0/24
69.88.128.0/20
69.88.134.0/23
69.88.148.0/22
69.88.156.0/23
69.88.158.0/23
69.9.160.0/19
70.42.0.0/21
70.42.102.0/23
70.42.112.0/20
70.42.128.0/20
70.42.144.0/20
70.42.16.0/21
70.42.160.0/20
70.42.176.0/21
70.42.184.0/21
70.42.192.0/21
70.42.200.0/21
70.42.208.0/21
70.42.216.0/21
70.42.217.0/24
70.42.224.0/21
70.42.232.0/21
70.42.24.0/21
70.42.240.0/20
70.42.32.0/20
70.42.48.0/20
70.42.64.0/20
70.42.8.0/21
70.42.80.0/20
70.42.96.0/20
72.251.192.0/18
72.251.224.0/22
72.251.227.0/24
72.251.228.0/22
72.251.232.0/22
72.251.236.0/22
72.251.240.0/21
72.251.248.0/22
72.26.192.0/19
72.26.216.0/22
72.5.0.0/20
72.5.102.0/24
72.5.112.0/20
72.5.120.0/21
72.5.128.0/20
72.5.144.0/20
72.5.16.0/20
72.5.160.0/20
72.5.161.0/24
72.5.162.0/23
72.5.176.0/21
72.5.184.0/21
72.5.189.0/24
72.5.192.0/21
72.5.200.0/21
72.5.208.0/20
72.5.224.0/21
72.5.232.0/21
72.5.240.0/21
72.5.248.0/21
72.5.48.0/20
72.5.64.0/20
72.5.80.0/20
72.5.96.0/20
74.201.0.0/20
74.201.109.0/24
74.201.112.0/20
74.201.128.0/17
74.201.137.0/24
74.201.16.0/20
74.201.170.0/23
74.201.172.0/23
74.201.192.0/23
74.201.202.0/23
74.201.204.0/23
74.201.214.0/23
74.201.218.0/23
74.201.228.0/23
74.201.230.0/23
74.201.32.0/20
74.201.48.0/20
74.201.64.0/20
74.201.80.0/20
74.201.96.0/20
74.217.0.0/20
74.217.112.0/20
74.217.120.0/21
74.217.128.0/20
74.217.144.0/20
74.217.160.0/20
74.217.172.0/22
74.217.176.0/20
74.217.192.0/20
74.217.208.0/20
74.217.224.0/20
74.217.228.0/22
74.217.232.0/21
74.217.236.0/22
74.217.24.0/21
74.217.240.0/20
74.217.246.0/23
74.217.28.0/22
74.217.32.0/20
74.217.48.0/20
74.217.64.0/20
74.217.80.0/20
74.217.87.0/24
74.217.96.0/20
74.63.32.0/19
75.98.0.0/20
75.98.16.0/20
75.98.24.0/21
75.98.32.0/20
75.98.36.0/23
75.98.48.0/21
75.98.56.0/21
75.98.64.0/20
75.98.68.0/22
75.98.72.0/21
75.98.80.0/20
75.98.85.0/24
77.104.135.0/24
77.104.136.0/24
77.104.137.0/24
77.104.138.0/24
77.104.139.0/24
77.104.141.0/24
77.104.144.0/24
77.104.145.0/24
77.104.146.0/24
77.104.147.0/24
77.104.148.0/24
77.104.151.0/24
77.104.152.0/24
77.104.154.0/24
77.104.155.0/24
77.104.156.0/24
77.104.157.0/24
77.104.159.0/24
77.104.160.0/24
77.104.161.0/24
77.104.162.0/24
77.104.163.0/24
77.104.164.0/24
77.104.165.0/24
77.104.166.0/24
77.104.176.0/24
77.104.178.0/24
77.104.179.0/24
77.104.182.0/24
77.104.183.0/24
77.104.184.0/24
77.104.186.0/24
77.104.187.0/24
77.104.188.0/24
77.104.189.0/24
77.104.190.0/24
77.104.191.0/24
77.242.192.0/21
77.242.194.0/23
77.242.204.0/22
82.118.240.0/24
95.172.64.0/24
95.172.66.0/23
95.172.68.0/22
95.172.72.0/23
95.172.75.0/24
95.172.76.0/22
95.172.78.0/23
95.172.80.0/23
95.172.82.0/23
95.172.84.0/22
95.172.88.0/22
95.172.90.0/23
95.172.92.0/23
95.172.94.0/23
96.127.128.0/18
96.127.141.0/24
96.127.143.0/24
96.127.157.0/24
96.127.170.0/24
96.127.173.0/24
96.127.186.0/24
99.198.112.0/21
99.198.115.0/24
99.198.116.0/24
99.198.120.0/23
99.198.122.0/24
99.198.123.0/24
99.198.124.0/22
99.198.125.0/24
99.198.96.0/20